<?xml version="1.0" encoding="UTF-8"?><svg xmlns="http://www.w3.org/2000/svg" xmlns:xlink="http://www.w3.org/1999/xlink" fill-opacity="1" color-rendering="auto" color-interpolation="auto" text-rendering="auto" stroke="black" stroke-linecap="square" width="484" stroke-miterlimit="10" shape-rendering="auto" stroke-opacity="1" fill="black" stroke-dasharray="none" font-weight="normal" stroke-width="1" height="365" font-family="'Dialog'" font-style="normal" stroke-linejoin="miter" font-size="12px" stroke-dashoffset="0" image-rendering="auto">
  <!--Generated by ySVG 2.5-->
  <defs id="genericDefs"/>
  <g>
    <defs id="defs1">
      <clipPath clipPathUnits="userSpaceOnUse" id="clipPath1">
        <path d="M0 0 L484 0 L484 365 L0 365 L0 0 Z"/>
      </clipPath>
      <clipPath clipPathUnits="userSpaceOnUse" id="clipPath2">
        <path d="M-15 -378 L469 -378 L469 -13 L-15 -13 L-15 -378 Z"/>
      </clipPath>
      <clipPath clipPathUnits="userSpaceOnUse" id="clipPath3">
        <path d="M0 0 L0 66 L165 66 L165 0 Z"/>
      </clipPath>
      <clipPath clipPathUnits="userSpaceOnUse" id="clipPath4">
        <path d="M0 0 L0 66 L150 66 L150 0 Z"/>
      </clipPath>
      <clipPath clipPathUnits="userSpaceOnUse" id="clipPath5">
        <path d="M0 0 L0 66 L141 66 L141 0 Z"/>
      </clipPath>
      <clipPath clipPathUnits="userSpaceOnUse" id="clipPath6">
        <path d="M0 0 L0 66 L206 66 L206 0 Z"/>
      </clipPath>
      <script type="text/ecmascript"><![CDATA[      var SVGDocument = null;
      var SVGRoot = null;
      var TrueCoords = null;
      var lastElement = null;
      var initialized = null;
      var tipGroup;
      function Init(evt)
      {
         SVGDocument = evt.target.ownerDocument;
         SVGRoot = SVGDocument.documentElement;
         TrueCoords = SVGRoot.createSVGPoint();
         initialized = evt;
      };
      function GetTrueCoords(evt)
      {
         var newScale = SVGRoot.currentScale;
         var translation = SVGRoot.currentTranslate;
         TrueCoords.x = (evt.clientX - translation.x)/newScale;
         TrueCoords.y = (evt.clientY - translation.y)/newScale;
      };
      function HideTooltip( evt )
      {
         if(initialized == null) {
           Init(evt);
         }
         if(tipGroup != null) {
           tipGroup.setAttributeNS(null, 'visibility', 'hidden');
         }
      };
      function ShowTooltip( evt )
      {
         if(initialized == null) {
           Init(evt);
         }
         GetTrueCoords( evt );
         var tipScale = 1/SVGRoot.currentScale;
         var targetElement = evt.currentTarget;
         if ( lastElement != targetElement )
         {
            var targetId = targetElement.getAttributeNS(null, 'id');
            var tipId = 'tooltip.' + targetId;
            tipGroup = SVGDocument.getElementById(tipId);
            var xPos = TrueCoords.x + (10 * tipScale);
            var yPos = TrueCoords.y + (10 * tipScale);
            tipGroup.setAttributeNS(null, 'transform', 'translate(' + xPos + ',' + yPos + ') scale(' + tipScale + ')');
            tipGroup.setAttributeNS(null, 'visibility', 'visible');
         }
      };
]]></script>
    </defs>
    <g fill="white" text-rendering="geometricPrecision" shape-rendering="geometricPrecision" transform="translate(15,378)" stroke="white">
      <rect x="-15" width="484" height="365" y="-378" clip-path="url(#clipPath2)" stroke="none"/>
    </g>
    <g onmouseout="HideTooltip(evt)" id="y.node.0" onmousemove="ShowTooltip(evt)">
      <g transform="matrix(1,0,0,1,15,378) translate(2,2)" fill-opacity="0.4941" fill="rgb(192,192,192)" text-rendering="geometricPrecision" shape-rendering="geometricPrecision" stroke="rgb(192,192,192)" stroke-opacity="0.4941">
        <rect x="252" y="-291" width="200" rx="4" ry="4" height="45" stroke="none"/>
      </g>
      <g fill="rgb(220,118,0)" text-rendering="geometricPrecision" shape-rendering="geometricPrecision" transform="matrix(1,0,0,1,15,378)" stroke="rgb(220,118,0)">
        <rect x="252" y="-291" width="200" rx="4" ry="4" height="45" stroke="none"/>
      </g>
      <g>
        <g stroke-linecap="butt" font-size="15px" transform="matrix(1,0,0,1,15,378)" fill="white" text-rendering="geometricPrecision" font-family="'Gill Sans MT'" shape-rendering="geometricPrecision" stroke="white" stroke-miterlimit="1.45">
          <text x="302.0122" xml:space="preserve" y="-271.957" stroke="none">BudgetScenarios</text>
          <text x="322.6482" xml:space="preserve" y="-254.562" stroke="none">rbso, #ID</text>
        </g>
      </g>
      <g stroke-linecap="butt" transform="matrix(1,0,0,1,15,378)" fill="rgb(209,84,0)" text-rendering="geometricPrecision" shape-rendering="geometricPrecision" stroke="rgb(209,84,0)" stroke-miterlimit="1.45">
        <rect x="252" y="-291" fill="none" width="200" rx="4" ry="4" height="45"/>
      </g>
    </g>
    <g onmouseout="HideTooltip(evt)" id="y.node.1" onmousemove="ShowTooltip(evt)">
      <g transform="matrix(1,0,0,1,15,378) translate(2,2)" fill-opacity="0.4941" fill="rgb(192,192,192)" text-rendering="geometricPrecision" shape-rendering="geometricPrecision" stroke="rgb(192,192,192)" stroke-opacity="0.4941">
        <rect x="0" y="-246.5" width="200" rx="4" ry="4" height="100" stroke="none"/>
      </g>
      <g fill="rgb(220,118,0)" text-rendering="geometricPrecision" shape-rendering="geometricPrecision" transform="matrix(1,0,0,1,15,378)" stroke="rgb(220,118,0)">
        <rect x="0" y="-246.5" width="200" rx="4" ry="4" height="100" stroke="none"/>
      </g>
      <g>
        <g stroke-linecap="butt" font-size="15px" transform="matrix(1,0,0,1,15,378)" fill="white" text-rendering="geometricPrecision" font-family="'Gill Sans MT'" shape-rendering="geometricPrecision" stroke="white" stroke-miterlimit="1.45">
          <text x="76.0278" xml:space="preserve" y="-199.957" stroke="none">Budgets</text>
          <text x="87.5818" xml:space="preserve" y="-182.562" stroke="none">rbgt</text>
        </g>
      </g>
      <g stroke-linecap="butt" transform="matrix(1,0,0,1,15,378)" fill="rgb(209,84,0)" text-rendering="geometricPrecision" shape-rendering="geometricPrecision" stroke="rgb(209,84,0)" stroke-miterlimit="1.45">
        <rect x="0" y="-246.5" fill="none" width="200" rx="4" ry="4" height="100"/>
      </g>
    </g>
    <g onmouseout="HideTooltip(evt)" id="y.node.2" onmousemove="ShowTooltip(evt)">
      <g fill="rgb(204,204,204)" text-rendering="geometricPrecision" shape-rendering="geometricPrecision" transform="matrix(1,0,0,1,15,378) translate(2,2)" stroke="rgb(204,204,204)">
        <rect x="252" y="-75" width="200" rx="4" ry="4" height="45" stroke="none"/>
      </g>
      <g fill="rgb(238,238,238)" text-rendering="geometricPrecision" shape-rendering="geometricPrecision" transform="matrix(1,0,0,1,15,378)" stroke="rgb(238,238,238)">
        <rect x="252" y="-75" width="200" rx="4" ry="4" height="45" stroke="none"/>
      </g>
      <g>
        <g font-size="15px" stroke-linecap="butt" transform="matrix(1,0,0,1,15,378)" text-rendering="geometricPrecision" font-family="'Gill Sans MT'" shape-rendering="geometricPrecision" stroke-miterlimit="1.45">
          <text x="314.5952" xml:space="preserve" y="-55.957" stroke="none">Costcenters</text>
          <text x="290.0847" xml:space="preserve" y="-38.562" stroke="none">Payroll: rccr, #Code</text>
        </g>
      </g>
      <g stroke-linecap="butt" transform="matrix(1,0,0,1,15,378)" fill="rgb(68,68,68)" text-rendering="geometricPrecision" shape-rendering="geometricPrecision" stroke="rgb(68,68,68)" stroke-miterlimit="1.45">
        <rect x="252" y="-75" fill="none" width="200" rx="4" ry="4" height="45"/>
      </g>
    </g>
    <g onmouseout="HideTooltip(evt)" id="y.node.3" onmousemove="ShowTooltip(evt)">
      <g fill="rgb(204,204,204)" text-rendering="geometricPrecision" shape-rendering="geometricPrecision" transform="matrix(1,0,0,1,15,378) translate(2,2)" stroke="rgb(204,204,204)">
        <rect x="252" y="-147" width="200" rx="4" ry="4" height="45" stroke="none"/>
      </g>
      <g fill="rgb(238,238,238)" text-rendering="geometricPrecision" shape-rendering="geometricPrecision" transform="matrix(1,0,0,1,15,378)" stroke="rgb(238,238,238)">
        <rect x="252" y="-147" width="200" rx="4" ry="4" height="45" stroke="none"/>
      </g>
      <g>
        <g font-size="15px" stroke-linecap="butt" transform="matrix(1,0,0,1,15,378)" text-rendering="geometricPrecision" font-family="'Gill Sans MT'" shape-rendering="geometricPrecision" stroke-miterlimit="1.45">
          <text x="322.6409" xml:space="preserve" y="-127.957" stroke="none">Costunits</text>
          <text x="290.092" xml:space="preserve" y="-110.562" stroke="none">Payroll: rcut, #Code</text>
        </g>
      </g>
      <g stroke-linecap="butt" transform="matrix(1,0,0,1,15,378)" fill="rgb(68,68,68)" text-rendering="geometricPrecision" shape-rendering="geometricPrecision" stroke="rgb(68,68,68)" stroke-miterlimit="1.45">
        <rect x="252" y="-147" fill="none" width="200" rx="4" ry="4" height="45"/>
      </g>
    </g>
    <g onmouseout="HideTooltip(evt)" id="y.node.4" onmousemove="ShowTooltip(evt)">
      <g fill="rgb(204,204,204)" text-rendering="geometricPrecision" shape-rendering="geometricPrecision" transform="matrix(1,0,0,1,15,378) translate(2,2)" stroke="rgb(204,204,204)">
        <rect x="252" y="-219" width="200" rx="4" ry="4" height="45" stroke="none"/>
      </g>
      <g fill="rgb(238,238,238)" text-rendering="geometricPrecision" shape-rendering="geometricPrecision" transform="matrix(1,0,0,1,15,378)" stroke="rgb(238,238,238)">
        <rect x="252" y="-219" width="200" rx="4" ry="4" height="45" stroke="none"/>
      </g>
      <g>
        <g font-size="15px" stroke-linecap="butt" transform="matrix(1,0,0,1,15,378)" text-rendering="geometricPrecision" font-family="'Gill Sans MT'" shape-rendering="geometricPrecision" stroke-miterlimit="1.45">
          <text x="335.3667" xml:space="preserve" y="-199.957" stroke="none">Items</text>
          <text x="293.9116" xml:space="preserve" y="-182.562" stroke="none">Logistics: ritm, #ID</text>
        </g>
      </g>
      <g stroke-linecap="butt" transform="matrix(1,0,0,1,15,378)" fill="rgb(68,68,68)" text-rendering="geometricPrecision" shape-rendering="geometricPrecision" stroke="rgb(68,68,68)" stroke-miterlimit="1.45">
        <rect x="252" y="-219" fill="none" width="200" rx="4" ry="4" height="45"/>
      </g>
    </g>
    <g onmouseout="HideTooltip(evt)" id="y.node.5" onmousemove="ShowTooltip(evt)">
      <g fill="rgb(204,204,204)" text-rendering="geometricPrecision" shape-rendering="geometricPrecision" transform="matrix(1,0,0,1,15,378) translate(2,2)" stroke="rgb(204,204,204)">
        <rect x="252" y="-363" width="200" rx="4" ry="4" height="45" stroke="none"/>
      </g>
      <g fill="rgb(238,238,238)" text-rendering="geometricPrecision" shape-rendering="geometricPrecision" transform="matrix(1,0,0,1,15,378)" stroke="rgb(238,238,238)">
        <rect x="252" y="-363" width="200" rx="4" ry="4" height="45" stroke="none"/>
      </g>
      <g>
        <g font-size="15px" stroke-linecap="butt" transform="matrix(1,0,0,1,15,378)" text-rendering="geometricPrecision" font-family="'Gill Sans MT'" shape-rendering="geometricPrecision" stroke-miterlimit="1.45">
          <text x="314.1777" xml:space="preserve" y="-343.957" stroke="none">GLAccounts</text>
          <text x="295.1567" xml:space="preserve" y="-326.562" stroke="none">Financial: rgat, #ID</text>
        </g>
      </g>
      <g stroke-linecap="butt" transform="matrix(1,0,0,1,15,378)" fill="rgb(68,68,68)" text-rendering="geometricPrecision" shape-rendering="geometricPrecision" stroke="rgb(68,68,68)" stroke-miterlimit="1.45">
        <rect x="252" y="-363" fill="none" width="200" rx="4" ry="4" height="45"/>
      </g>
    </g>
    <g id="y.edge.3">
      <g text-rendering="geometricPrecision" stroke-miterlimit="1.45" shape-rendering="geometricPrecision" transform="matrix(1,0,0,1,15,378)" stroke-linecap="butt">
        <path fill="none" d="M200 -216.5 L212 -216.5 L216.375 -217.125 L219.5 -219 L221.375 -222.125 L222 -226.5 L222 -258.5 L222.625 -262.875 L224.5 -266 L227.625 -267.875 L232 -268.5 L243.9707 -268.5"/>
        <path d="M251.9707 -268.5 L239.9707 -273.5 L242.9707 -268.5 L239.9707 -263.5 Z" stroke="none"/>
      </g>
    </g>
    <g id="y.edge.0">
      <g text-rendering="geometricPrecision" stroke-miterlimit="1.45" shape-rendering="geometricPrecision" transform="matrix(1,0,0,1,15,378)" stroke-linecap="butt">
        <path fill="none" d="M200 -156.5 L206 -156.5 L208.625 -155.875 L210.5 -154 L212 -146.5 L212 -62.5 L212.625 -58.125 L214.5 -55 L217.625 -53.125 L222 -52.5 L243.9609 -52.5"/>
        <path d="M251.9609 -52.5 L239.9609 -57.5 L242.9609 -52.5 L239.9609 -47.5 Z" stroke="none"/>
      </g>
    </g>
    <g id="y.edge.1">
      <g text-rendering="geometricPrecision" stroke-miterlimit="1.45" shape-rendering="geometricPrecision" transform="matrix(1,0,0,1,15,378)" stroke-linecap="butt">
        <path fill="none" d="M200 -176.5 L212 -176.5 L216.375 -175.875 L219.5 -174 L221.375 -170.875 L222 -166.5 L222 -134.5 L222.625 -130.125 L224.5 -127 L227.625 -125.125 L232 -124.5 L243.9707 -124.5"/>
        <path d="M251.9707 -124.5 L239.9707 -129.5 L242.9707 -124.5 L239.9707 -119.5 Z" stroke="none"/>
      </g>
    </g>
    <g id="y.edge.2">
      <g text-rendering="geometricPrecision" stroke-miterlimit="1.45" shape-rendering="geometricPrecision" transform="matrix(1,0,0,1,15,378)" stroke-linecap="butt">
        <path fill="none" d="M200 -196.5 L243.9746 -196.5"/>
        <path d="M251.9746 -196.5 L239.9746 -201.5 L242.9746 -196.5 L239.9746 -191.5 Z" stroke="none"/>
      </g>
    </g>
    <g id="y.edge.4">
      <g text-rendering="geometricPrecision" stroke-miterlimit="1.45" shape-rendering="geometricPrecision" transform="matrix(1,0,0,1,15,378)" stroke-linecap="butt">
        <path fill="none" d="M200 -236.5 L206 -236.5 L208.625 -237.125 L210.5 -239 L212 -246.5 L212 -330.5 L212.625 -334.875 L214.5 -338 L217.625 -339.875 L222 -340.5 L243.9609 -340.5"/>
        <path d="M251.9609 -340.5 L239.9609 -345.5 L242.9609 -340.5 L239.9609 -335.5 Z" stroke="none"/>
      </g>
    </g>
    <g visibility="hidden" id="tooltip.y.node.0" pointer-events="none">
      <g fill="rgb(255,255,225)" text-rendering="geometricPrecision" shape-rendering="geometricPrecision" font-family="'Segoe UI'" stroke="rgb(255,255,225)">
        <rect x="0" width="165" height="66" y="0" clip-path="url(#clipPath3)" stroke="none"/>
        <text fill="black" x="4" xml:space="preserve" y="14" clip-path="url(#clipPath3)" stroke="none">Description: Budget Scenarios</text>
        <text fill="black" x="161" xml:space="preserve" y="14" clip-path="url(#clipPath3)" stroke="none"> </text>
        <text fill="black" x="4" xml:space="preserve" y="30" clip-path="url(#clipPath3)" stroke="none">Data Category: Transaction</text>
        <text fill="black" x="146" xml:space="preserve" y="30" clip-path="url(#clipPath3)" stroke="none"> </text>
        <text fill="black" x="4" xml:space="preserve" y="46" clip-path="url(#clipPath3)" stroke="none">Group: Budget</text>
        <text fill="black" x="81" xml:space="preserve" y="46" clip-path="url(#clipPath3)" stroke="none"> </text>
        <text fill="black" x="4" xml:space="preserve" y="62" clip-path="url(#clipPath3)" stroke="none">Partition: Y</text>
      </g>
      <g font-family="'Segoe UI'" text-rendering="geometricPrecision" shape-rendering="geometricPrecision">
        <path d="M0 0 L165 0 L165 66 L0 66 L0 0 ZM1 1 L164 1 L164 65 L1 65 L1 1 Z" fill-rule="evenodd" clip-path="url(#clipPath3)" stroke="none"/>
      </g>
    </g>
    <g visibility="hidden" id="tooltip.y.node.1" pointer-events="none">
      <g fill="rgb(255,255,225)" text-rendering="geometricPrecision" shape-rendering="geometricPrecision" font-family="'Segoe UI'" stroke="rgb(255,255,225)">
        <rect x="0" width="150" height="66" y="0" clip-path="url(#clipPath4)" stroke="none"/>
        <text fill="black" x="4" xml:space="preserve" y="14" clip-path="url(#clipPath4)" stroke="none">Description: Budgets</text>
        <text fill="black" x="113" xml:space="preserve" y="14" clip-path="url(#clipPath4)" stroke="none"> </text>
        <text fill="black" x="4" xml:space="preserve" y="30" clip-path="url(#clipPath4)" stroke="none">Data Category: Transaction</text>
        <text fill="black" x="146" xml:space="preserve" y="30" clip-path="url(#clipPath4)" stroke="none"> </text>
        <text fill="black" x="4" xml:space="preserve" y="46" clip-path="url(#clipPath4)" stroke="none">Group: Budget</text>
        <text fill="black" x="81" xml:space="preserve" y="46" clip-path="url(#clipPath4)" stroke="none"> </text>
        <text fill="black" x="4" xml:space="preserve" y="62" clip-path="url(#clipPath4)" stroke="none">Partition: Y</text>
      </g>
      <g font-family="'Segoe UI'" text-rendering="geometricPrecision" shape-rendering="geometricPrecision">
        <path d="M0 0 L150 0 L150 66 L0 66 L0 0 ZM1 1 L149 1 L149 65 L1 65 L1 1 Z" fill-rule="evenodd" clip-path="url(#clipPath4)" stroke="none"/>
      </g>
    </g>
    <g visibility="hidden" id="tooltip.y.node.2" pointer-events="none">
      <g fill="rgb(255,255,225)" text-rendering="geometricPrecision" shape-rendering="geometricPrecision" font-family="'Segoe UI'" stroke="rgb(255,255,225)">
        <rect x="0" width="141" height="66" y="0" clip-path="url(#clipPath5)" stroke="none"/>
        <text fill="black" x="4" xml:space="preserve" y="14" clip-path="url(#clipPath5)" stroke="none">Description: Cost Centers</text>
        <text fill="black" x="137" xml:space="preserve" y="14" clip-path="url(#clipPath5)" stroke="none"> </text>
        <text fill="black" x="4" xml:space="preserve" y="30" clip-path="url(#clipPath5)" stroke="none">Data Category: Reference</text>
        <text fill="black" x="137" xml:space="preserve" y="30" clip-path="url(#clipPath5)" stroke="none"> </text>
        <text fill="black" x="4" xml:space="preserve" y="46" clip-path="url(#clipPath5)" stroke="none">Group: Payroll</text>
        <text fill="black" x="79" xml:space="preserve" y="46" clip-path="url(#clipPath5)" stroke="none"> </text>
        <text fill="black" x="4" xml:space="preserve" y="62" clip-path="url(#clipPath5)" stroke="none">Partition: Y</text>
      </g>
      <g font-family="'Segoe UI'" text-rendering="geometricPrecision" shape-rendering="geometricPrecision">
        <path d="M0 0 L141 0 L141 66 L0 66 L0 0 ZM1 1 L140 1 L140 65 L1 65 L1 1 Z" fill-rule="evenodd" clip-path="url(#clipPath5)" stroke="none"/>
      </g>
    </g>
    <g visibility="hidden" id="tooltip.y.node.3" pointer-events="none">
      <g fill="rgb(255,255,225)" text-rendering="geometricPrecision" shape-rendering="geometricPrecision" font-family="'Segoe UI'" stroke="rgb(255,255,225)">
        <rect x="0" width="141" height="66" y="0" clip-path="url(#clipPath5)" stroke="none"/>
        <text fill="black" x="4" xml:space="preserve" y="14" clip-path="url(#clipPath5)" stroke="none">Description: Cost Units</text>
        <text fill="black" x="124" xml:space="preserve" y="14" clip-path="url(#clipPath5)" stroke="none"> </text>
        <text fill="black" x="4" xml:space="preserve" y="30" clip-path="url(#clipPath5)" stroke="none">Data Category: Reference</text>
        <text fill="black" x="137" xml:space="preserve" y="30" clip-path="url(#clipPath5)" stroke="none"> </text>
        <text fill="black" x="4" xml:space="preserve" y="46" clip-path="url(#clipPath5)" stroke="none">Group: Payroll</text>
        <text fill="black" x="79" xml:space="preserve" y="46" clip-path="url(#clipPath5)" stroke="none"> </text>
        <text fill="black" x="4" xml:space="preserve" y="62" clip-path="url(#clipPath5)" stroke="none">Partition: Y</text>
      </g>
      <g font-family="'Segoe UI'" text-rendering="geometricPrecision" shape-rendering="geometricPrecision">
        <path d="M0 0 L141 0 L141 66 L0 66 L0 0 ZM1 1 L140 1 L140 65 L1 65 L1 1 Z" fill-rule="evenodd" clip-path="url(#clipPath5)" stroke="none"/>
      </g>
    </g>
    <g visibility="hidden" id="tooltip.y.node.4" pointer-events="none">
      <g fill="rgb(255,255,225)" text-rendering="geometricPrecision" shape-rendering="geometricPrecision" font-family="'Segoe UI'" stroke="rgb(255,255,225)">
        <rect x="0" width="150" height="66" y="0" clip-path="url(#clipPath4)" stroke="none"/>
        <text fill="black" x="4" xml:space="preserve" y="14" clip-path="url(#clipPath4)" stroke="none">Description: Item</text>
        <text fill="black" x="94" xml:space="preserve" y="14" clip-path="url(#clipPath4)" stroke="none"> </text>
        <text fill="black" x="4" xml:space="preserve" y="30" clip-path="url(#clipPath4)" stroke="none">Data Category: Transaction</text>
        <text fill="black" x="146" xml:space="preserve" y="30" clip-path="url(#clipPath4)" stroke="none"> </text>
        <text fill="black" x="4" xml:space="preserve" y="46" clip-path="url(#clipPath4)" stroke="none">Group: Logistics</text>
        <text fill="black" x="89" xml:space="preserve" y="46" clip-path="url(#clipPath4)" stroke="none"> </text>
        <text fill="black" x="4" xml:space="preserve" y="62" clip-path="url(#clipPath4)" stroke="none">Partition: Y</text>
      </g>
      <g font-family="'Segoe UI'" text-rendering="geometricPrecision" shape-rendering="geometricPrecision">
        <path d="M0 0 L150 0 L150 66 L0 66 L0 0 ZM1 1 L149 1 L149 65 L1 65 L1 1 Z" fill-rule="evenodd" clip-path="url(#clipPath4)" stroke="none"/>
      </g>
    </g>
    <g visibility="hidden" id="tooltip.y.node.5" pointer-events="none">
      <g fill="rgb(255,255,225)" text-rendering="geometricPrecision" shape-rendering="geometricPrecision" font-family="'Segoe UI'" stroke="rgb(255,255,225)">
        <rect x="0" width="206" height="66" y="0" clip-path="url(#clipPath6)" stroke="none"/>
        <text fill="black" x="4" xml:space="preserve" y="14" clip-path="url(#clipPath6)" stroke="none">Description: General Ledger Accounts</text>
        <text fill="black" x="202" xml:space="preserve" y="14" clip-path="url(#clipPath6)" stroke="none"> </text>
        <text fill="black" x="4" xml:space="preserve" y="30" clip-path="url(#clipPath6)" stroke="none">Data Category: Reference</text>
        <text fill="black" x="137" xml:space="preserve" y="30" clip-path="url(#clipPath6)" stroke="none"> </text>
        <text fill="black" x="4" xml:space="preserve" y="46" clip-path="url(#clipPath6)" stroke="none">Group: Financial</text>
        <text fill="black" x="90" xml:space="preserve" y="46" clip-path="url(#clipPath6)" stroke="none"> </text>
        <text fill="black" x="4" xml:space="preserve" y="62" clip-path="url(#clipPath6)" stroke="none">Partition: Y</text>
      </g>
      <g font-family="'Segoe UI'" text-rendering="geometricPrecision" shape-rendering="geometricPrecision">
        <path d="M0 0 L206 0 L206 66 L0 66 L0 0 ZM1 1 L205 1 L205 65 L1 65 L1 1 Z" fill-rule="evenodd" clip-path="url(#clipPath6)" stroke="none"/>
      </g>
    </g>
  </g>
</svg>
