<?xml version="1.0" encoding="UTF-8" standalone="no"?>
<graphml xmlns="http://graphml.graphdrawing.org/xmlns" xmlns:java="http://www.yworks.com/xml/yfiles-common/1.0/java" xmlns:sys="http://www.yworks.com/xml/yfiles-common/markup/primitives/2.0" xmlns:x="http://www.yworks.com/xml/yfiles-common/markup/2.0" xmlns:xsi="http://www.w3.org/2001/XMLSchema-instance" xmlns:y="http://www.yworks.com/xml/graphml" xmlns:yed="http://www.yworks.com/xml/yed/3" xsi:schemaLocation="http://graphml.graphdrawing.org/xmlns http://www.yworks.com/xml/schema/graphml/1.1/ygraphml.xsd">
  <!--Created by yEd 3.17.1-->
  <key for="port" id="d0" yfiles.type="portgraphics"/>
  <key for="port" id="d1" yfiles.type="portgeometry"/>
  <key for="port" id="d2" yfiles.type="portuserdata"/>
  <key attr.name="url" attr.type="string" for="node" id="d3"/>
  <key attr.name="description" attr.type="string" for="node" id="d4"/>
  <key for="node" id="d5" yfiles.type="nodegraphics"/>
  <key for="graphml" id="d6" yfiles.type="resources"/>
  <key attr.name="url" attr.type="string" for="edge" id="d7"/>
  <key attr.name="description" attr.type="string" for="edge" id="d8"/>
  <key for="edge" id="d9" yfiles.type="edgegraphics"/>
  <graph edgedefault="directed" id="G">
    <node id="n0">
      <data key="d4"><![CDATA[Description: None.
Data Category: Seed
Group: Cashflow
Partition: N]]></data>
      <data key="d5">
        <y:ShapeNode>
          <y:Geometry height="100.0" width="200.0" x="0.0" y="-736.7222222222222"/>
          <y:Fill color="#59A9DF" transparent="false"/>
          <y:BorderStyle color="#1D71B8" type="line" width="1.0"/>
          <y:NodeLabel alignment="center" autoSizePolicy="node_width" fontFamily="Gill Sans MT" fontSize="15" fontStyle="plain" hasBackgroundColor="false" hasLineColor="false" height="38.7900390625" horizontalTextPosition="center" iconTextGap="4" modelName="internal" modelPosition="c" textColor="#FFFFFF" verticalTextPosition="bottom" visible="true" width="200.0" x="0.0" y="30.60498046875">PaymentMethods
dompmd, #code</y:NodeLabel>
          <y:Shape type="roundrectangle"/>
          <y:DropShadow color="#C0C0C07E" offsetX="2" offsetY="2"/>
        </y:ShapeNode>
      </data>
    </node>
    <node id="n1">
      <data key="d4"><![CDATA[Description: None.
Data Category: Seed
Group: Cashflow
Partition: N]]></data>
      <data key="d5">
        <y:ShapeNode>
          <y:Geometry height="45.0" width="200.0" x="714.0" y="-266.8611111111111"/>
          <y:Fill color="#59A9DF" transparent="false"/>
          <y:BorderStyle color="#1D71B8" type="line" width="1.0"/>
          <y:NodeLabel alignment="center" autoSizePolicy="node_width" fontFamily="Gill Sans MT" fontSize="15" fontStyle="plain" hasBackgroundColor="false" hasLineColor="false" height="38.7900390625" horizontalTextPosition="center" iconTextGap="4" modelName="internal" modelPosition="c" textColor="#FFFFFF" verticalTextPosition="bottom" visible="true" width="200.0" x="0.0" y="3.10498046875">DirectDebitMandateTypes
domdma, #code</y:NodeLabel>
          <y:Shape type="roundrectangle"/>
          <y:DropShadow color="#C0C0C07E" offsetX="2" offsetY="2"/>
        </y:ShapeNode>
      </data>
    </node>
    <node id="n2">
      <data key="d4"><![CDATA[Description: None.
Data Category: Seed
Group: Cashflow
Partition: N]]></data>
      <data key="d5">
        <y:ShapeNode>
          <y:Geometry height="45.0" width="250.0" x="689.0" y="-190.05555555555554"/>
          <y:Fill color="#59A9DF" transparent="false"/>
          <y:BorderStyle color="#1D71B8" type="line" width="1.0"/>
          <y:NodeLabel alignment="center" autoSizePolicy="node_width" fontFamily="Gill Sans MT" fontSize="15" fontStyle="plain" hasBackgroundColor="false" hasLineColor="false" height="38.7900390625" horizontalTextPosition="center" iconTextGap="4" modelName="internal" modelPosition="c" textColor="#FFFFFF" verticalTextPosition="bottom" visible="true" width="250.0" x="0.0" y="3.10498046875">DirectDebitMandatePaymentTypes
domdmy, #code</y:NodeLabel>
          <y:Shape type="roundrectangle"/>
          <y:DropShadow color="#C0C0C07E" offsetX="2" offsetY="2"/>
        </y:ShapeNode>
      </data>
    </node>
    <node id="n3">
      <data key="d4"><![CDATA[Description: None.
Data Category: Seed
Group: Cashflow
Partition: N]]></data>
      <data key="d5">
        <y:ShapeNode>
          <y:Geometry height="45.0" width="200.0" x="981.0" y="-853.2222222222222"/>
          <y:Fill color="#59A9DF" transparent="false"/>
          <y:BorderStyle color="#1D71B8" type="line" width="1.0"/>
          <y:NodeLabel alignment="center" autoSizePolicy="node_width" fontFamily="Gill Sans MT" fontSize="15" fontStyle="plain" hasBackgroundColor="false" hasLineColor="false" height="38.7900390625" horizontalTextPosition="center" iconTextGap="4" modelName="internal" modelPosition="c" textColor="#FFFFFF" verticalTextPosition="bottom" visible="true" width="200.0" x="0.0" y="3.10498046875">VATCalculations
domvcn, #code</y:NodeLabel>
          <y:Shape type="roundrectangle"/>
          <y:DropShadow color="#C0C0C07E" offsetX="2" offsetY="2"/>
        </y:ShapeNode>
      </data>
    </node>
    <node id="n4">
      <data key="d4"><![CDATA[Description: None.
Data Category: Seed
Group: Cashflow
Partition: N]]></data>
      <data key="d5">
        <y:ShapeNode>
          <y:Geometry height="45.0" width="200.0" x="0.0" y="-853.2222222222222"/>
          <y:Fill color="#59A9DF" transparent="false"/>
          <y:BorderStyle color="#1D71B8" type="line" width="1.0"/>
          <y:NodeLabel alignment="center" autoSizePolicy="node_width" fontFamily="Gill Sans MT" fontSize="15" fontStyle="plain" hasBackgroundColor="false" hasLineColor="false" height="38.7900390625" horizontalTextPosition="center" iconTextGap="4" modelName="internal" modelPosition="c" textColor="#FFFFFF" verticalTextPosition="bottom" visible="true" width="200.0" x="0.0" y="3.10498046875">PaymentStatuses
dompss, #code</y:NodeLabel>
          <y:Shape type="roundrectangle"/>
          <y:DropShadow color="#C0C0C07E" offsetX="2" offsetY="2"/>
        </y:ShapeNode>
      </data>
    </node>
    <node id="n5">
      <data key="d4"><![CDATA[Description: None.
Data Category: Seed
Group: Cashflow
Partition: N]]></data>
      <data key="d5">
        <y:ShapeNode>
          <y:Geometry height="45.0" width="200.0" x="0.0" y="-158.29124182266617"/>
          <y:Fill color="#59A9DF" transparent="false"/>
          <y:BorderStyle color="#1D71B8" type="line" width="1.0"/>
          <y:NodeLabel alignment="center" autoSizePolicy="node_width" fontFamily="Gill Sans MT" fontSize="15" fontStyle="plain" hasBackgroundColor="false" hasLineColor="false" height="38.7900390625" horizontalTextPosition="center" iconTextGap="4" modelName="internal" modelPosition="c" textColor="#FFFFFF" verticalTextPosition="bottom" visible="true" width="200.0" x="0.0" y="3.10498046875">ReceivableStatuses
domrss, #code</y:NodeLabel>
          <y:Shape type="roundrectangle"/>
          <y:DropShadow color="#C0C0C07E" offsetX="2" offsetY="2"/>
        </y:ShapeNode>
      </data>
    </node>
    <node id="n6">
      <data key="d4"><![CDATA[Description: None.
Data Category: Seed
Group: Cashflow
Partition: N]]></data>
      <data key="d5">
        <y:ShapeNode>
          <y:Geometry height="45.0" width="200.0" x="2.0" y="-1336.888888888889"/>
          <y:Fill color="#59A9DF" transparent="false"/>
          <y:BorderStyle color="#1D71B8" type="line" width="1.0"/>
          <y:NodeLabel alignment="center" autoSizePolicy="node_width" fontFamily="Gill Sans MT" fontSize="15" fontStyle="plain" hasBackgroundColor="false" hasLineColor="false" height="38.7900390625" horizontalTextPosition="center" iconTextGap="4" modelName="internal" modelPosition="c" textColor="#FFFFFF" verticalTextPosition="bottom" visible="true" width="200.0" x="0.0" y="3.10498046875">PaymentSources
dompse, #code</y:NodeLabel>
          <y:Shape type="roundrectangle"/>
          <y:DropShadow color="#C0C0C07E" offsetX="2" offsetY="2"/>
        </y:ShapeNode>
      </data>
    </node>
    <node id="n7">
      <data key="d4"><![CDATA[Description: None.
Data Category: Seed
Group: Cashflow
Partition: N]]></data>
      <data key="d5">
        <y:ShapeNode>
          <y:Geometry height="45.0" width="200.0" x="372.0" y="-208.11111111111111"/>
          <y:Fill color="#59A9DF" transparent="false"/>
          <y:BorderStyle color="#1D71B8" type="line" width="1.0"/>
          <y:NodeLabel alignment="center" autoSizePolicy="node_width" fontFamily="Gill Sans MT" fontSize="15" fontStyle="plain" hasBackgroundColor="false" hasLineColor="false" height="38.7900390625" horizontalTextPosition="center" iconTextGap="4" modelName="internal" modelPosition="c" textColor="#FFFFFF" verticalTextPosition="bottom" visible="true" width="200.0" x="0.0" y="3.10498046875">ReceivableSources
domrse, #code</y:NodeLabel>
          <y:Shape type="roundrectangle"/>
          <y:DropShadow color="#C0C0C07E" offsetX="2" offsetY="2"/>
        </y:ShapeNode>
      </data>
    </node>
    <node id="n8">
      <data key="d4"><![CDATA[Description: None.
Data Category: Seed
Group: Cashflow
Partition: N]]></data>
      <data key="d5">
        <y:ShapeNode>
          <y:Geometry height="45.0" width="200.0" x="981.0" y="-1397.7222222222222"/>
          <y:Fill color="#59A9DF" transparent="false"/>
          <y:BorderStyle color="#1D71B8" type="line" width="1.0"/>
          <y:NodeLabel alignment="center" autoSizePolicy="node_width" fontFamily="Gill Sans MT" fontSize="15" fontStyle="plain" hasBackgroundColor="false" hasLineColor="false" height="38.7900390625" horizontalTextPosition="center" iconTextGap="4" modelName="internal" modelPosition="c" textColor="#FFFFFF" verticalTextPosition="bottom" visible="true" width="200.0" x="0.0" y="3.10498046875">PaymentDiscountTypes
dompdc, #code</y:NodeLabel>
          <y:Shape type="roundrectangle"/>
          <y:DropShadow color="#C0C0C07E" offsetX="2" offsetY="2"/>
        </y:ShapeNode>
      </data>
    </node>
    <node id="n9">
      <data key="d4"><![CDATA[Description: Payment Conditions
Data Category: Reference
Group: Cashflow
Partition: Y]]></data>
      <data key="d5">
        <y:ShapeNode>
          <y:Geometry height="280.0" width="200.0" x="981.0" y="-1253.8055555555557"/>
          <y:Fill color="#A8C94C" transparent="false"/>
          <y:BorderStyle color="#8AAA17" type="line" width="1.0"/>
          <y:NodeLabel alignment="center" autoSizePolicy="node_width" fontFamily="Gill Sans MT" fontSize="15" fontStyle="plain" hasBackgroundColor="false" hasLineColor="false" height="38.7900390625" horizontalTextPosition="center" iconTextGap="4" modelName="internal" modelPosition="c" textColor="#FFFFFF" verticalTextPosition="bottom" visible="true" width="200.0" x="0.0" y="120.60498046875">PaymentConditions
rcpn, #ID</y:NodeLabel>
          <y:Shape type="roundrectangle"/>
          <y:DropShadow color="#C0C0C07E" offsetX="2" offsetY="2"/>
        </y:ShapeNode>
      </data>
    </node>
    <node id="n10">
      <data key="d4"><![CDATA[Description: Receivables
Data Category: Transaction
Group: Cashflow
Partition: Y]]></data>
      <data key="d5">
        <y:ShapeNode>
          <y:Geometry height="325.0" width="200.0" x="0.0" y="-517.75"/>
          <y:Fill color="#DC7600" transparent="false"/>
          <y:BorderStyle color="#D15400" type="line" width="1.0"/>
          <y:NodeLabel alignment="center" autoSizePolicy="node_width" fontFamily="Gill Sans MT" fontSize="15" fontStyle="plain" hasBackgroundColor="false" hasLineColor="false" height="38.7900390625" horizontalTextPosition="center" iconTextGap="4" modelName="internal" modelPosition="c" textColor="#FFFFFF" verticalTextPosition="bottom" visible="true" width="200.0" x="0.0" y="143.10498046875">Receivables
rcrve</y:NodeLabel>
          <y:Shape type="roundrectangle"/>
          <y:DropShadow color="#C0C0C07E" offsetX="2" offsetY="2"/>
        </y:ShapeNode>
      </data>
    </node>
    <node id="n11">
      <data key="d4"><![CDATA[Description: Payments
Data Category: Transaction
Group: Cashflow
Partition: Y]]></data>
      <data key="d5">
        <y:ShapeNode>
          <y:Geometry height="280.0" width="200.0" x="0.0" y="-1221.888888888889"/>
          <y:Fill color="#DC7600" transparent="false"/>
          <y:BorderStyle color="#D15400" type="line" width="1.0"/>
          <y:NodeLabel alignment="center" autoSizePolicy="node_width" fontFamily="Gill Sans MT" fontSize="15" fontStyle="plain" hasBackgroundColor="false" hasLineColor="false" height="38.7900390625" horizontalTextPosition="center" iconTextGap="4" modelName="internal" modelPosition="c" textColor="#FFFFFF" verticalTextPosition="bottom" visible="true" width="200.0" x="0.0" y="120.60498046875">Payments
rcpyt</y:NodeLabel>
          <y:Shape type="roundrectangle"/>
          <y:DropShadow color="#C0C0C07E" offsetX="2" offsetY="2"/>
        </y:ShapeNode>
      </data>
    </node>
    <node id="n12">
      <data key="d4"><![CDATA[Description: Direct Debit Mandates
Data Category: Transaction
Group: Cashflow
Partition: Y]]></data>
      <data key="d5">
        <y:ShapeNode>
          <y:Geometry height="100.0" width="200.0" x="372.0" y="-360.1111111111111"/>
          <y:Fill color="#DC7600" transparent="false"/>
          <y:BorderStyle color="#D15400" type="line" width="1.0"/>
          <y:NodeLabel alignment="center" autoSizePolicy="node_width" fontFamily="Gill Sans MT" fontSize="15" fontStyle="plain" hasBackgroundColor="false" hasLineColor="false" height="38.7900390625" horizontalTextPosition="center" iconTextGap="4" modelName="internal" modelPosition="c" textColor="#FFFFFF" verticalTextPosition="bottom" visible="true" width="200.0" x="0.0" y="30.60498046875">DirectDebitMandates
rdde, #ID</y:NodeLabel>
          <y:Shape type="roundrectangle"/>
          <y:DropShadow color="#C0C0C07E" offsetX="2" offsetY="2"/>
        </y:ShapeNode>
      </data>
    </node>
    <node id="n13">
      <data key="d4"><![CDATA[Description: Receivables List
Data Category: Other
Group: Cashflow
Partition: Y]]></data>
      <data key="d5">
        <y:ShapeNode>
          <y:Geometry height="100.0" width="200.0" x="372.0" y="-1391.888888888889"/>
          <y:Fill color="#999999" transparent="false"/>
          <y:BorderStyle color="#666666" type="line" width="1.0"/>
          <y:NodeLabel alignment="center" autoSizePolicy="node_width" fontFamily="Gill Sans MT" fontSize="15" fontStyle="plain" hasBackgroundColor="false" hasLineColor="false" height="38.7900390625" horizontalTextPosition="center" iconTextGap="4" modelName="internal" modelPosition="c" textColor="#FFFFFF" verticalTextPosition="bottom" visible="true" width="200.0" x="0.0" y="30.60498046875">ReceivablesList
rrlt</y:NodeLabel>
          <y:Shape type="roundrectangle"/>
          <y:DropShadow color="#C0C0C07E" offsetX="2" offsetY="2"/>
        </y:ShapeNode>
      </data>
    </node>
    <node id="n14">
      <data key="d4"><![CDATA[Description: Payables List
Data Category: Other
Group: Cashflow
Partition: Y]]></data>
      <data key="d5">
        <y:ShapeNode>
          <y:Geometry height="100.0" width="200.0" x="372.0" y="-1264.888888888889"/>
          <y:Fill color="#999999" transparent="false"/>
          <y:BorderStyle color="#666666" type="line" width="1.0"/>
          <y:NodeLabel alignment="center" autoSizePolicy="node_width" fontFamily="Gill Sans MT" fontSize="15" fontStyle="plain" hasBackgroundColor="false" hasLineColor="false" height="38.7900390625" horizontalTextPosition="center" iconTextGap="4" modelName="internal" modelPosition="c" textColor="#FFFFFF" verticalTextPosition="bottom" visible="true" width="200.0" x="0.0" y="30.60498046875">PayablesList
rplt</y:NodeLabel>
          <y:Shape type="roundrectangle"/>
          <y:DropShadow color="#C0C0C07E" offsetX="2" offsetY="2"/>
        </y:ShapeNode>
      </data>
    </node>
    <node id="n15">
      <data key="d4"><![CDATA[Description: Cashflow Balance
Data Category: Other
Group: Cashflow
Partition: Y]]></data>
      <data key="d5">
        <y:ShapeNode>
          <y:Geometry height="45.0" width="200.0" x="372.0" y="-1094.2222222222222"/>
          <y:Fill color="#999999" transparent="false"/>
          <y:BorderStyle color="#666666" type="line" width="1.0"/>
          <y:NodeLabel alignment="center" autoSizePolicy="node_width" fontFamily="Gill Sans MT" fontSize="15" fontStyle="plain" hasBackgroundColor="false" hasLineColor="false" height="38.7900390625" horizontalTextPosition="center" iconTextGap="4" modelName="internal" modelPosition="c" textColor="#FFFFFF" verticalTextPosition="bottom" visible="true" width="200.0" x="0.0" y="3.10498046875">CashflowBalance
rcbe</y:NodeLabel>
          <y:Shape type="roundrectangle"/>
          <y:DropShadow color="#C0C0C07E" offsetX="2" offsetY="2"/>
        </y:ShapeNode>
      </data>
    </node>
    <node id="n16">
      <data key="d4"><![CDATA[Description: Sales Invoices
Data Category: Transaction
Group: Sales
Partition: Y]]></data>
      <data key="d5">
        <y:ShapeNode>
          <y:Geometry height="45.0" width="200.0" x="714.0" y="-1397.7222222222222"/>
          <y:Fill color="#EEEEEE" transparent="false"/>
          <y:BorderStyle color="#444444" type="line" width="1.0"/>
          <y:NodeLabel alignment="center" autoSizePolicy="node_width" fontFamily="Gill Sans MT" fontSize="15" fontStyle="plain" hasBackgroundColor="false" hasLineColor="false" height="38.7900390625" horizontalTextPosition="center" iconTextGap="4" modelName="internal" modelPosition="c" textColor="#000000" verticalTextPosition="bottom" visible="true" width="200.0" x="0.0" y="3.10498046875">SalesInvoices
Sales: rsie, #InvoiceID</y:NodeLabel>
          <y:Shape type="roundrectangle"/>
          <y:DropShadow color="#CCCCCC" offsetX="2" offsetY="2"/>
        </y:ShapeNode>
      </data>
    </node>
    <node id="n17">
      <data key="d4"><![CDATA[Description: Journal
Data Category: Reference
Group: Financial
Partition: Y]]></data>
      <data key="d5">
        <y:ShapeNode>
          <y:Geometry height="100.0" width="200.0" x="714.0" y="-1253.7222222222222"/>
          <y:Fill color="#EEEEEE" transparent="false"/>
          <y:BorderStyle color="#444444" type="line" width="1.0"/>
          <y:NodeLabel alignment="center" autoSizePolicy="node_width" fontFamily="Gill Sans MT" fontSize="15" fontStyle="plain" hasBackgroundColor="false" hasLineColor="false" height="38.7900390625" horizontalTextPosition="center" iconTextGap="4" modelName="internal" modelPosition="c" textColor="#000000" verticalTextPosition="bottom" visible="true" width="200.0" x="0.0" y="30.60498046875">Journals
Financial: rjnl, #ID</y:NodeLabel>
          <y:Shape type="roundrectangle"/>
          <y:DropShadow color="#CCCCCC" offsetX="2" offsetY="2"/>
        </y:ShapeNode>
      </data>
    </node>
    <node id="n18">
      <data key="d4"><![CDATA[Description: Accounts
Data Category: Transaction
Group: Accounts
Partition: Y]]></data>
      <data key="d5">
        <y:ShapeNode>
          <y:Geometry height="145.0" width="200.0" x="714.0" y="-1126.7222222222222"/>
          <y:Fill color="#EEEEEE" transparent="false"/>
          <y:BorderStyle color="#444444" type="line" width="1.0"/>
          <y:NodeLabel alignment="center" autoSizePolicy="node_width" fontFamily="Gill Sans MT" fontSize="15" fontStyle="plain" hasBackgroundColor="false" hasLineColor="false" height="38.7900390625" horizontalTextPosition="center" iconTextGap="4" modelName="internal" modelPosition="c" textColor="#000000" verticalTextPosition="bottom" visible="true" width="200.0" x="0.0" y="53.10498046875">Accounts
Accounts: ract, #ID</y:NodeLabel>
          <y:Shape type="roundrectangle"/>
          <y:DropShadow color="#CCCCCC" offsetX="2" offsetY="2"/>
        </y:ShapeNode>
      </data>
    </node>
    <node id="n19">
      <data key="d4"><![CDATA[Description: itgen_eol_purchase_invoices
Data Category: Transaction
Group: Purchase
Partition: Y]]></data>
      <data key="d5">
        <y:ShapeNode>
          <y:Geometry height="45.0" width="200.0" x="714.0" y="-1325.7222222222222"/>
          <y:Fill color="#EEEEEE" transparent="false"/>
          <y:BorderStyle color="#444444" type="line" width="1.0"/>
          <y:NodeLabel alignment="center" autoSizePolicy="node_width" fontFamily="Gill Sans MT" fontSize="15" fontStyle="plain" hasBackgroundColor="false" hasLineColor="false" height="38.7900390625" horizontalTextPosition="center" iconTextGap="4" modelName="internal" modelPosition="c" textColor="#000000" verticalTextPosition="bottom" visible="true" width="200.0" x="0.0" y="3.10498046875">PurchaseInvoices
Purchase: pie, #ID</y:NodeLabel>
          <y:Shape type="roundrectangle"/>
          <y:DropShadow color="#CCCCCC" offsetX="2" offsetY="2"/>
        </y:ShapeNode>
      </data>
    </node>
    <node id="n20">
      <data key="d4"><![CDATA[Description: Bank Accounts
Data Category: Transaction
Group: Accounts
Partition: Y]]></data>
      <data key="d5">
        <y:ShapeNode>
          <y:Geometry height="100.0" width="200.0" x="714.0" y="-447.6111111111111"/>
          <y:Fill color="#EEEEEE" transparent="false"/>
          <y:BorderStyle color="#444444" type="line" width="1.0"/>
          <y:NodeLabel alignment="center" autoSizePolicy="node_width" fontFamily="Gill Sans MT" fontSize="15" fontStyle="plain" hasBackgroundColor="false" hasLineColor="false" height="38.7900390625" horizontalTextPosition="center" iconTextGap="4" modelName="internal" modelPosition="c" textColor="#000000" verticalTextPosition="bottom" visible="true" width="200.0" x="0.0" y="30.60498046875">BankAccounts
Accounts: rbat, #ID</y:NodeLabel>
          <y:Shape type="roundrectangle"/>
          <y:DropShadow color="#CCCCCC" offsetX="2" offsetY="2"/>
        </y:ShapeNode>
      </data>
    </node>
    <node id="n21">
      <data key="d4"><![CDATA[Description: Transaction Lines
Data Category: Transaction
Group: Transaction
Partition: Y]]></data>
      <data key="d5">
        <y:ShapeNode>
          <y:Geometry height="45.0" width="200.0" x="372.0" y="-493.22222222222223"/>
          <y:Fill color="#EEEEEE" transparent="false"/>
          <y:BorderStyle color="#444444" type="line" width="1.0"/>
          <y:NodeLabel alignment="center" autoSizePolicy="node_width" fontFamily="Gill Sans MT" fontSize="15" fontStyle="plain" hasBackgroundColor="false" hasLineColor="false" height="38.7900390625" horizontalTextPosition="center" iconTextGap="4" modelName="internal" modelPosition="c" textColor="#000000" verticalTextPosition="bottom" visible="true" width="200.0" x="0.0" y="3.10498046875">TransactionLines
Transaction: rtle, #ID</y:NodeLabel>
          <y:Shape type="roundrectangle"/>
          <y:DropShadow color="#CCCCCC" offsetX="2" offsetY="2"/>
        </y:ShapeNode>
      </data>
    </node>
    <node id="n22">
      <data key="d4"><![CDATA[Description: Transactions
Data Category: Transaction
Group: Transaction
Partition: Y]]></data>
      <data key="d5">
        <y:ShapeNode>
          <y:Geometry height="45.0" width="200.0" x="372.0" y="-781.2222222222222"/>
          <y:Fill color="#EEEEEE" transparent="false"/>
          <y:BorderStyle color="#444444" type="line" width="1.0"/>
          <y:NodeLabel alignment="center" autoSizePolicy="node_width" fontFamily="Gill Sans MT" fontSize="15" fontStyle="plain" hasBackgroundColor="false" hasLineColor="false" height="38.7900390625" horizontalTextPosition="center" iconTextGap="4" modelName="internal" modelPosition="c" textColor="#000000" verticalTextPosition="bottom" visible="true" width="200.0" x="0.0" y="3.10498046875">Transactions
Transaction: rtxn, #EntryNr</y:NodeLabel>
          <y:Shape type="roundrectangle"/>
          <y:DropShadow color="#CCCCCC" offsetX="2" offsetY="2"/>
        </y:ShapeNode>
      </data>
    </node>
    <node id="n23">
      <data key="d4"><![CDATA[Description: System Users
Data Category: Reference
Group: System
Partition: Y]]></data>
      <data key="d5">
        <y:ShapeNode>
          <y:Geometry height="45.0" width="200.0" x="372.0" y="-637.2222222222222"/>
          <y:Fill color="#EEEEEE" transparent="false"/>
          <y:BorderStyle color="#444444" type="line" width="1.0"/>
          <y:NodeLabel alignment="center" autoSizePolicy="node_width" fontFamily="Gill Sans MT" fontSize="15" fontStyle="plain" hasBackgroundColor="false" hasLineColor="false" height="38.7900390625" horizontalTextPosition="center" iconTextGap="4" modelName="internal" modelPosition="c" textColor="#000000" verticalTextPosition="bottom" visible="true" width="200.0" x="0.0" y="3.10498046875">SystemUsers
System: rsur, #ID</y:NodeLabel>
          <y:Shape type="roundrectangle"/>
          <y:DropShadow color="#CCCCCC" offsetX="2" offsetY="2"/>
        </y:ShapeNode>
      </data>
    </node>
    <node id="n24">
      <data key="d4"><![CDATA[Description: None.
Data Category: Seed
Group: Transaction
Partition: N]]></data>
      <data key="d5">
        <y:ShapeNode>
          <y:Geometry height="45.0" width="200.0" x="372.0" y="-853.2222222222222"/>
          <y:Fill color="#EEEEEE" transparent="false"/>
          <y:BorderStyle color="#444444" type="line" width="1.0"/>
          <y:NodeLabel alignment="center" autoSizePolicy="node_width" fontFamily="Gill Sans MT" fontSize="15" fontStyle="plain" hasBackgroundColor="false" hasLineColor="false" height="38.7900390625" horizontalTextPosition="center" iconTextGap="4" modelName="internal" modelPosition="c" textColor="#000000" verticalTextPosition="bottom" visible="true" width="200.0" x="0.0" y="3.10498046875">TransactionTypes
Transaction: domtte, #code</y:NodeLabel>
          <y:Shape type="roundrectangle"/>
          <y:DropShadow color="#CCCCCC" offsetX="2" offsetY="2"/>
        </y:ShapeNode>
      </data>
    </node>
    <node id="n25">
      <data key="d4"><![CDATA[Description: None.
Data Category: Seed
Group: Transaction
Partition: N]]></data>
      <data key="d5">
        <y:ShapeNode>
          <y:Geometry height="45.0" width="200.0" x="372.0" y="-565.2222222222222"/>
          <y:Fill color="#EEEEEE" transparent="false"/>
          <y:BorderStyle color="#444444" type="line" width="1.0"/>
          <y:NodeLabel alignment="center" autoSizePolicy="node_width" fontFamily="Gill Sans MT" fontSize="15" fontStyle="plain" hasBackgroundColor="false" hasLineColor="false" height="38.7900390625" horizontalTextPosition="center" iconTextGap="4" modelName="internal" modelPosition="c" textColor="#000000" verticalTextPosition="bottom" visible="true" width="200.0" x="0.0" y="3.10498046875">TransactionStatuses
Transaction: domtss, #code</y:NodeLabel>
          <y:Shape type="roundrectangle"/>
          <y:DropShadow color="#CCCCCC" offsetX="2" offsetY="2"/>
        </y:ShapeNode>
      </data>
    </node>
    <node id="n26">
      <data key="d4"><![CDATA[Description: Documents
Data Category: Transaction
Group: Documents
Partition: Y]]></data>
      <data key="d5">
        <y:ShapeNode>
          <y:Geometry height="45.0" width="200.0" x="372.0" y="-925.2222222222222"/>
          <y:Fill color="#EEEEEE" transparent="false"/>
          <y:BorderStyle color="#444444" type="line" width="1.0"/>
          <y:NodeLabel alignment="center" autoSizePolicy="node_width" fontFamily="Gill Sans MT" fontSize="15" fontStyle="plain" hasBackgroundColor="false" hasLineColor="false" height="38.7900390625" horizontalTextPosition="center" iconTextGap="4" modelName="internal" modelPosition="c" textColor="#000000" verticalTextPosition="bottom" visible="true" width="200.0" x="0.0" y="3.10498046875">Documents
Documents: rdct, #ID</y:NodeLabel>
          <y:Shape type="roundrectangle"/>
          <y:DropShadow color="#CCCCCC" offsetX="2" offsetY="2"/>
        </y:ShapeNode>
      </data>
    </node>
    <node id="n27">
      <data key="d4"><![CDATA[Description: General Ledger Accounts
Data Category: Reference
Group: Financial
Partition: Y]]></data>
      <data key="d5">
        <y:ShapeNode>
          <y:Geometry height="45.0" width="200.0" x="372.0" y="-997.2222222222222"/>
          <y:Fill color="#EEEEEE" transparent="false"/>
          <y:BorderStyle color="#444444" type="line" width="1.0"/>
          <y:NodeLabel alignment="center" autoSizePolicy="node_width" fontFamily="Gill Sans MT" fontSize="15" fontStyle="plain" hasBackgroundColor="false" hasLineColor="false" height="38.7900390625" horizontalTextPosition="center" iconTextGap="4" modelName="internal" modelPosition="c" textColor="#000000" verticalTextPosition="bottom" visible="true" width="200.0" x="0.0" y="3.10498046875">GLAccounts
Financial: rgat, #ID</y:NodeLabel>
          <y:Shape type="roundrectangle"/>
          <y:DropShadow color="#CCCCCC" offsetX="2" offsetY="2"/>
        </y:ShapeNode>
      </data>
    </node>
    <node id="n28">
      <data key="d4"><![CDATA[Description: Contacts
Data Category: Transaction
Group: Accounts
Partition: Y]]></data>
      <data key="d5">
        <y:ShapeNode>
          <y:Geometry height="45.0" width="200.0" x="372.0" y="-709.2222222222222"/>
          <y:Fill color="#EEEEEE" transparent="false"/>
          <y:BorderStyle color="#444444" type="line" width="1.0"/>
          <y:NodeLabel alignment="center" autoSizePolicy="node_width" fontFamily="Gill Sans MT" fontSize="15" fontStyle="plain" hasBackgroundColor="false" hasLineColor="false" height="38.7900390625" horizontalTextPosition="center" iconTextGap="4" modelName="internal" modelPosition="c" textColor="#000000" verticalTextPosition="bottom" visible="true" width="200.0" x="0.0" y="3.10498046875">Contacts
Accounts: rctt, #ID</y:NodeLabel>
          <y:Shape type="roundrectangle"/>
          <y:DropShadow color="#CCCCCC" offsetX="2" offsetY="2"/>
        </y:ShapeNode>
      </data>
    </node>
    <edge id="e0" source="n13" target="n16">
      <data key="d9">
        <y:PolyLineEdge>
          <y:Path sx="100.0" sy="-33.33333333333333" tx="-100.0" ty="-0.0"/>
          <y:LineStyle color="#000000" type="line" width="1.0"/>
          <y:Arrows source="none" target="standard"/>
          <y:BendStyle smoothed="true"/>
        </y:PolyLineEdge>
      </data>
    </edge>
    <edge id="e1" source="n13" target="n17">
      <data key="d9">
        <y:PolyLineEdge>
          <y:Path sx="100.0" sy="-0.0" tx="-100.0" ty="-33.33333333333333">
            <y:Point x="674.0" y="-1341.888888888889"/>
            <y:Point x="674.0" y="-1237.0555555555554"/>
          </y:Path>
          <y:LineStyle color="#000000" type="line" width="1.0"/>
          <y:Arrows source="none" target="standard"/>
          <y:BendStyle smoothed="true"/>
        </y:PolyLineEdge>
      </data>
    </edge>
    <edge id="e2" source="n13" target="n18">
      <data key="d9">
        <y:PolyLineEdge>
          <y:Path sx="100.0" sy="33.33333333333333" tx="-100.0" ty="-62.14285714285711">
            <y:Point x="664.0" y="-1308.5555555555557"/>
            <y:Point x="664.0" y="-1116.3650793650793"/>
          </y:Path>
          <y:LineStyle color="#000000" type="line" width="1.0"/>
          <y:Arrows source="none" target="standard"/>
          <y:BendStyle smoothed="true"/>
        </y:PolyLineEdge>
      </data>
    </edge>
    <edge id="e3" source="n14" target="n17">
      <data key="d9">
        <y:PolyLineEdge>
          <y:Path sx="100.0" sy="-0.0" tx="-100.0" ty="-0.0">
            <y:Point x="584.0" y="-1214.888888888889"/>
            <y:Point x="584.0" y="-1203.7222222222222"/>
          </y:Path>
          <y:LineStyle color="#000000" type="line" width="1.0"/>
          <y:Arrows source="none" target="standard"/>
          <y:BendStyle smoothed="true"/>
        </y:PolyLineEdge>
      </data>
    </edge>
    <edge id="e4" source="n14" target="n18">
      <data key="d9">
        <y:PolyLineEdge>
          <y:Path sx="100.0" sy="33.33333333333333" tx="-100.0" ty="-41.4285714285714">
            <y:Point x="654.0" y="-1181.5555555555557"/>
            <y:Point x="654.0" y="-1095.6507936507935"/>
          </y:Path>
          <y:LineStyle color="#000000" type="line" width="1.0"/>
          <y:Arrows source="none" target="standard"/>
          <y:BendStyle smoothed="true"/>
        </y:PolyLineEdge>
      </data>
    </edge>
    <edge id="e5" source="n14" target="n19">
      <data key="d9">
        <y:PolyLineEdge>
          <y:Path sx="100.0" sy="-33.33333333333333" tx="-100.0" ty="-0.0">
            <y:Point x="684.0" y="-1248.2222222222222"/>
            <y:Point x="684.0" y="-1303.2222222222222"/>
          </y:Path>
          <y:LineStyle color="#000000" type="line" width="1.0"/>
          <y:Arrows source="none" target="standard"/>
          <y:BendStyle smoothed="true"/>
        </y:PolyLineEdge>
      </data>
    </edge>
    <edge id="e6" source="n15" target="n20">
      <data key="d9">
        <y:PolyLineEdge>
          <y:Path sx="100.0" sy="11.25" tx="-100.0" ty="-37.5">
            <y:Point x="624.0" y="-1060.4722222222222"/>
            <y:Point x="624.0" y="-435.1111111111111"/>
          </y:Path>
          <y:LineStyle color="#000000" type="line" width="1.0"/>
          <y:Arrows source="none" target="standard"/>
          <y:BendStyle smoothed="true"/>
        </y:PolyLineEdge>
      </data>
    </edge>
    <edge id="e7" source="n15" target="n17">
      <data key="d9">
        <y:PolyLineEdge>
          <y:Path sx="100.0" sy="-11.25" tx="-100.0" ty="33.33333333333333">
            <y:Point x="584.0" y="-1082.9722222222222"/>
            <y:Point x="584.0" y="-1170.388888888889"/>
          </y:Path>
          <y:LineStyle color="#000000" type="line" width="1.0"/>
          <y:Arrows source="none" target="standard"/>
          <y:BendStyle smoothed="true"/>
        </y:PolyLineEdge>
      </data>
    </edge>
    <edge id="e8" source="n18" target="n9">
      <data key="d9">
        <y:PolyLineEdge>
          <y:Path sx="100.0" sy="36.25" tx="-100.0" ty="70.0">
            <y:Point x="926.0" y="-1017.9722222222222"/>
            <y:Point x="926.0" y="-1043.8055555555557"/>
          </y:Path>
          <y:LineStyle color="#000000" type="line" width="1.0"/>
          <y:Arrows source="none" target="standard"/>
          <y:EdgeLabel alignment="center" backgroundColor="#DAE7F7" distance="2.0" fontFamily="Gill Sans MT" fontSize="9" fontStyle="plain" height="14.43701171875" horizontalTextPosition="center" iconTextGap="4" lineColor="#5BABE0" modelName="side_slider" preferredPlacement="center_right" ratio="0.3849162011173197" textColor="#000000" verticalTextPosition="bottom" visible="true" width="21.7099609375" x="14.0" y="-24.833326551649407">Sales<y:PreferredPlacementDescriptor angle="0.0" angleOffsetOnRightSide="0" angleReference="absolute" angleRotationOnRightSide="co" distance="-1.0" placement="center" side="right" sideReference="relative_to_edge_flow"/>
          </y:EdgeLabel>
          <y:BendStyle smoothed="true"/>
        </y:PolyLineEdge>
      </data>
    </edge>
    <edge id="e9" source="n18" target="n9">
      <data key="d9">
        <y:PolyLineEdge>
          <y:Path sx="100.0" sy="-36.25" tx="-100.0" ty="23.33333333333333"/>
          <y:LineStyle color="#000000" type="line" width="1.0"/>
          <y:Arrows source="none" target="standard"/>
          <y:EdgeLabel alignment="center" backgroundColor="#DAE7F7" distance="2.0" fontFamily="Gill Sans MT" fontSize="9" fontStyle="plain" height="14.43701171875" horizontalTextPosition="center" iconTextGap="4" lineColor="#5BABE0" modelName="side_slider" preferredPlacement="center_right" ratio="0.5" textColor="#000000" verticalTextPosition="bottom" visible="true" width="36.70849609375" x="15.145751953125" y="1.9999457465278283">Purchase<y:PreferredPlacementDescriptor angle="0.0" angleOffsetOnRightSide="0" angleReference="absolute" angleRotationOnRightSide="co" distance="-1.0" placement="center" side="right" sideReference="relative_to_edge_flow"/>
          </y:EdgeLabel>
          <y:BendStyle smoothed="true"/>
        </y:PolyLineEdge>
      </data>
    </edge>
    <edge id="e10" source="n16" target="n9">
      <data key="d9">
        <y:PolyLineEdge>
          <y:Path sx="100.0" sy="-0.0" tx="-100.0" ty="-70.0">
            <y:Point x="936.0" y="-1375.2222222222222"/>
            <y:Point x="936.0" y="-1183.8055555555557"/>
          </y:Path>
          <y:LineStyle color="#000000" type="line" width="1.0"/>
          <y:Arrows source="none" target="standard"/>
          <y:BendStyle smoothed="true"/>
        </y:PolyLineEdge>
      </data>
    </edge>
    <edge id="e11" source="n10" target="n5">
      <data key="d9">
        <y:PolyLineEdge>
          <y:Path sx="0.0" sy="162.5" tx="0.0" ty="-22.5"/>
          <y:LineStyle color="#000000" type="line" width="1.0"/>
          <y:Arrows source="none" target="standard"/>
          <y:BendStyle smoothed="true"/>
        </y:PolyLineEdge>
      </data>
    </edge>
    <edge id="e12" source="n10" target="n7">
      <data key="d9">
        <y:PolyLineEdge>
          <y:Path sx="100.0" sy="81.24999999999994" tx="-100.0" ty="-0.0">
            <y:Point x="252.0" y="-274.00000000000006"/>
            <y:Point x="252.0" y="-185.61111111111111"/>
          </y:Path>
          <y:LineStyle color="#000000" type="line" width="1.0"/>
          <y:Arrows source="none" target="standard"/>
          <y:BendStyle smoothed="true"/>
        </y:PolyLineEdge>
      </data>
    </edge>
    <edge id="e13" source="n10" target="n0">
      <data key="d9">
        <y:PolyLineEdge>
          <y:Path sx="0.0" sy="-162.5" tx="0.0" ty="50.0"/>
          <y:LineStyle color="#000000" type="line" width="1.0"/>
          <y:Arrows source="none" target="standard"/>
          <y:BendStyle smoothed="true"/>
        </y:PolyLineEdge>
      </data>
    </edge>
    <edge id="e14" source="n10" target="n2">
      <data key="d9">
        <y:PolyLineEdge>
          <y:Path sx="100.0" sy="99.30555555555549" tx="-125.0" ty="11.25">
            <y:Point x="242.0" y="-255.9444444444445"/>
            <y:Point x="242.0" y="-136.11111111111111"/>
            <y:Point x="584.0" y="-136.11111111111111"/>
            <y:Point x="584.0" y="-156.30555555555554"/>
          </y:Path>
          <y:LineStyle color="#000000" type="line" width="1.0"/>
          <y:Arrows source="none" target="standard"/>
          <y:BendStyle smoothed="true"/>
        </y:PolyLineEdge>
      </data>
    </edge>
    <edge id="e15" source="n10" target="n1">
      <data key="d9">
        <y:PolyLineEdge>
          <y:Path sx="100.0" sy="63.1944444444444" tx="-100.0" ty="11.25">
            <y:Point x="262.0" y="-292.0555555555556"/>
            <y:Point x="262.0" y="-233.11111111111111"/>
          </y:Path>
          <y:LineStyle color="#000000" type="line" width="1.0"/>
          <y:Arrows source="none" target="standard"/>
          <y:BendStyle smoothed="true"/>
        </y:PolyLineEdge>
      </data>
    </edge>
    <edge id="e16" source="n10" target="n21">
      <data key="d9">
        <y:PolyLineEdge>
          <y:Path sx="100.0" sy="-27.083333333333314" tx="-100.0" ty="11.25">
            <y:Point x="312.0" y="-382.3333333333333"/>
            <y:Point x="312.0" y="-459.47222222222223"/>
          </y:Path>
          <y:LineStyle color="#000000" type="line" width="1.0"/>
          <y:Arrows source="none" target="standard"/>
          <y:BendStyle smoothed="true"/>
        </y:PolyLineEdge>
      </data>
    </edge>
    <edge id="e17" source="n10" target="n22">
      <data key="d9">
        <y:PolyLineEdge>
          <y:Path sx="100.0" sy="-99.30555555555554" tx="-100.0" ty="11.25">
            <y:Point x="272.0" y="-454.55555555555554"/>
            <y:Point x="272.0" y="-747.4722222222222"/>
          </y:Path>
          <y:LineStyle color="#000000" type="line" width="1.0"/>
          <y:Arrows source="none" target="standard"/>
          <y:BendStyle smoothed="true"/>
        </y:PolyLineEdge>
      </data>
    </edge>
    <edge id="e18" source="n10" target="n23">
      <data key="d9">
        <y:PolyLineEdge>
          <y:Path sx="100.0" sy="-63.19444444444444" tx="-100.0" ty="11.25">
            <y:Point x="292.0" y="-418.44444444444446"/>
            <y:Point x="292.0" y="-603.4722222222222"/>
          </y:Path>
          <y:LineStyle color="#000000" type="line" width="1.0"/>
          <y:Arrows source="none" target="standard"/>
          <y:EdgeLabel alignment="center" backgroundColor="#DAE7F7" distance="2.0" fontFamily="Gill Sans MT" fontSize="9" fontStyle="plain" height="14.43701171875" horizontalTextPosition="center" iconTextGap="4" lineColor="#5BABE0" modelName="side_slider" preferredPlacement="center_right" ratio="0.5177107248278123" textColor="#000000" verticalTextPosition="bottom" visible="true" width="72.72607421875" x="94.0" y="-99.73238118489576">ReceivableSelector<y:PreferredPlacementDescriptor angle="0.0" angleOffsetOnRightSide="0" angleReference="absolute" angleRotationOnRightSide="co" distance="-1.0" placement="center" side="right" sideReference="relative_to_edge_flow"/>
          </y:EdgeLabel>
          <y:BendStyle smoothed="true"/>
        </y:PolyLineEdge>
      </data>
    </edge>
    <edge id="e19" source="n10" target="n9">
      <data key="d9">
        <y:PolyLineEdge>
          <y:Path sx="100.0" sy="117.36111111111103" tx="-100.0" ty="116.66666666666663">
            <y:Point x="232.0" y="-237.88888888888897"/>
            <y:Point x="232.0" y="-118.05555555555556"/>
            <y:Point x="951.0" y="-118.05555555555556"/>
            <y:Point x="951.0" y="-997.138888888889"/>
          </y:Path>
          <y:LineStyle color="#000000" type="line" width="1.0"/>
          <y:Arrows source="none" target="standard"/>
          <y:BendStyle smoothed="true"/>
        </y:PolyLineEdge>
      </data>
    </edge>
    <edge id="e20" source="n10" target="n24">
      <data key="d9">
        <y:PolyLineEdge>
          <y:Path sx="100.0" sy="-117.36111111111111" tx="-100.0" ty="11.25">
            <y:Point x="242.0" y="-472.6111111111111"/>
            <y:Point x="242.0" y="-819.4722222222222"/>
          </y:Path>
          <y:LineStyle color="#000000" type="line" width="1.0"/>
          <y:Arrows source="none" target="standard"/>
          <y:BendStyle smoothed="true"/>
        </y:PolyLineEdge>
      </data>
    </edge>
    <edge id="e21" source="n10" target="n25">
      <data key="d9">
        <y:PolyLineEdge>
          <y:Path sx="100.0" sy="-45.138888888888886" tx="-100.0" ty="11.25">
            <y:Point x="302.0" y="-400.3888888888889"/>
            <y:Point x="302.0" y="-531.4722222222222"/>
          </y:Path>
          <y:LineStyle color="#000000" type="line" width="1.0"/>
          <y:Arrows source="none" target="standard"/>
          <y:BendStyle smoothed="true"/>
        </y:PolyLineEdge>
      </data>
    </edge>
    <edge id="e22" source="n10" target="n26">
      <data key="d9">
        <y:PolyLineEdge>
          <y:Path sx="100.0" sy="-135.41666666666666" tx="-100.0" ty="11.25">
            <y:Point x="232.0" y="-490.66666666666663"/>
            <y:Point x="232.0" y="-891.4722222222222"/>
          </y:Path>
          <y:LineStyle color="#000000" type="line" width="1.0"/>
          <y:Arrows source="none" target="standard"/>
          <y:BendStyle smoothed="true"/>
        </y:PolyLineEdge>
      </data>
    </edge>
    <edge id="e23" source="n10" target="n12">
      <data key="d9">
        <y:PolyLineEdge>
          <y:Path sx="100.0" sy="45.13888888888886" tx="-100.0" ty="-0.0"/>
          <y:LineStyle color="#000000" type="line" width="1.0"/>
          <y:Arrows source="none" target="standard"/>
          <y:BendStyle smoothed="true"/>
        </y:PolyLineEdge>
      </data>
    </edge>
    <edge id="e24" source="n10" target="n20">
      <data key="d9">
        <y:PolyLineEdge>
          <y:Path sx="100.0" sy="27.083333333333314" tx="-100.0" ty="12.5">
            <y:Point x="342.0" y="-328.1666666666667"/>
            <y:Point x="342.0" y="-385.1111111111111"/>
          </y:Path>
          <y:LineStyle color="#000000" type="line" width="1.0"/>
          <y:Arrows source="none" target="standard"/>
          <y:BendStyle smoothed="true"/>
        </y:PolyLineEdge>
      </data>
    </edge>
    <edge id="e25" source="n10" target="n27">
      <data key="d9">
        <y:PolyLineEdge>
          <y:Path sx="100.0" sy="-153.47222222222223" tx="-100.0" ty="11.25">
            <y:Point x="222.0" y="-508.72222222222223"/>
            <y:Point x="222.0" y="-963.4722222222222"/>
          </y:Path>
          <y:LineStyle color="#000000" type="line" width="1.0"/>
          <y:Arrows source="none" target="standard"/>
          <y:BendStyle smoothed="true"/>
        </y:PolyLineEdge>
      </data>
    </edge>
    <edge id="e26" source="n10" target="n18">
      <data key="d9">
        <y:PolyLineEdge>
          <y:Path sx="100.0" sy="9.027777777777771" tx="-100.0" ty="41.428571428571445">
            <y:Point x="332.0" y="-346.22222222222223"/>
            <y:Point x="332.0" y="-403.1666666666667"/>
            <y:Point x="594.0" y="-403.1666666666667"/>
            <y:Point x="594.0" y="-1012.7936507936507"/>
          </y:Path>
          <y:LineStyle color="#000000" type="line" width="1.0"/>
          <y:Arrows source="none" target="standard"/>
          <y:BendStyle smoothed="true"/>
        </y:PolyLineEdge>
      </data>
    </edge>
    <edge id="e27" source="n10" target="n28">
      <data key="d9">
        <y:PolyLineEdge>
          <y:Path sx="100.0" sy="-81.25" tx="-100.0" ty="11.25">
            <y:Point x="282.0" y="-436.5"/>
            <y:Point x="282.0" y="-675.4722222222222"/>
          </y:Path>
          <y:LineStyle color="#000000" type="line" width="1.0"/>
          <y:Arrows source="none" target="standard"/>
          <y:EdgeLabel alignment="center" backgroundColor="#DAE7F7" distance="2.0" fontFamily="Gill Sans MT" fontSize="9" fontStyle="plain" height="14.43701171875" horizontalTextPosition="center" iconTextGap="4" lineColor="#5BABE0" modelName="side_slider" preferredPlacement="center_right" ratio="0.5278460531899845" textColor="#000000" verticalTextPosition="bottom" visible="true" width="64.46435546875" x="84.0" y="-140.61306762695312">AccountContact<y:PreferredPlacementDescriptor angle="0.0" angleOffsetOnRightSide="0" angleReference="absolute" angleRotationOnRightSide="co" distance="-1.0" placement="center" side="right" sideReference="relative_to_edge_flow"/>
          </y:EdgeLabel>
          <y:BendStyle smoothed="true"/>
        </y:PolyLineEdge>
      </data>
    </edge>
    <edge id="e28" source="n10" target="n18">
      <data key="d9">
        <y:PolyLineEdge>
          <y:Path sx="100.0" sy="-9.027777777777771" tx="-100.0" ty="20.71428571428578">
            <y:Point x="322.0" y="-364.27777777777777"/>
            <y:Point x="322.0" y="-421.22222222222223"/>
            <y:Point x="584.0" y="-421.22222222222223"/>
            <y:Point x="584.0" y="-1033.5079365079364"/>
          </y:Path>
          <y:LineStyle color="#000000" type="line" width="1.0"/>
          <y:Arrows source="none" target="standard"/>
          <y:EdgeLabel alignment="center" backgroundColor="#DAE7F7" distance="2.0" fontFamily="Gill Sans MT" fontSize="9" fontStyle="plain" height="14.43701171875" horizontalTextPosition="center" iconTextGap="4" lineColor="#5BABE0" modelName="side_slider" preferredPlacement="center_right" ratio="0.37066678020948657" textColor="#000000" verticalTextPosition="bottom" visible="true" width="92.41796875" x="290.58203125" y="-54.94445122612848">AccountBankAccountID<y:PreferredPlacementDescriptor angle="0.0" angleOffsetOnRightSide="0" angleReference="absolute" angleRotationOnRightSide="co" distance="-1.0" placement="center" side="right" sideReference="relative_to_edge_flow"/>
          </y:EdgeLabel>
          <y:BendStyle smoothed="true"/>
        </y:PolyLineEdge>
      </data>
    </edge>
    <edge id="e29" source="n11" target="n4">
      <data key="d9">
        <y:PolyLineEdge>
          <y:Path sx="0.0" sy="140.0" tx="0.0" ty="-22.5"/>
          <y:LineStyle color="#000000" type="line" width="1.0"/>
          <y:Arrows source="none" target="standard"/>
          <y:BendStyle smoothed="true"/>
        </y:PolyLineEdge>
      </data>
    </edge>
    <edge id="e30" source="n11" target="n0">
      <data key="d9">
        <y:PolyLineEdge>
          <y:Path sx="-100.0" sy="0.0" tx="-100.0" ty="0.0">
            <y:Point x="-7.5" y="-1081.888888888889"/>
            <y:Point x="-7.5" y="-686.7222222222222"/>
          </y:Path>
          <y:LineStyle color="#000000" type="line" width="1.0"/>
          <y:Arrows source="none" target="standard"/>
          <y:BendStyle smoothed="true"/>
        </y:PolyLineEdge>
      </data>
    </edge>
    <edge id="e31" source="n11" target="n6">
      <data key="d9">
        <y:PolyLineEdge>
          <y:Path sx="2.0" sy="-140.0" tx="0.0" ty="22.5"/>
          <y:LineStyle color="#000000" type="line" width="1.0"/>
          <y:Arrows source="none" target="standard"/>
          <y:BendStyle smoothed="true"/>
        </y:PolyLineEdge>
      </data>
    </edge>
    <edge id="e32" source="n11" target="n21">
      <data key="d9">
        <y:PolyLineEdge>
          <y:Path sx="100.0" sy="130.66666666666657" tx="-100.0" ty="-11.25">
            <y:Point x="252.0" y="-951.2222222222224"/>
            <y:Point x="252.0" y="-481.97222222222223"/>
          </y:Path>
          <y:LineStyle color="#000000" type="line" width="1.0"/>
          <y:Arrows source="none" target="standard"/>
          <y:BendStyle smoothed="true"/>
        </y:PolyLineEdge>
      </data>
    </edge>
    <edge id="e33" source="n11" target="n22">
      <data key="d9">
        <y:PolyLineEdge>
          <y:Path sx="100.0" sy="55.99999999999994" tx="-100.0" ty="-11.25">
            <y:Point x="292.0" y="-1025.888888888889"/>
            <y:Point x="292.0" y="-769.9722222222222"/>
          </y:Path>
          <y:LineStyle color="#000000" type="line" width="1.0"/>
          <y:Arrows source="none" target="standard"/>
          <y:BendStyle smoothed="true"/>
        </y:PolyLineEdge>
      </data>
    </edge>
    <edge id="e34" source="n11" target="n23">
      <data key="d9">
        <y:PolyLineEdge>
          <y:Path sx="100.0" sy="93.33333333333326" tx="-100.0" ty="-11.25">
            <y:Point x="262.0" y="-988.5555555555557"/>
            <y:Point x="262.0" y="-625.9722222222222"/>
          </y:Path>
          <y:LineStyle color="#000000" type="line" width="1.0"/>
          <y:Arrows source="none" target="standard"/>
          <y:EdgeLabel alignment="center" backgroundColor="#DAE7F7" distance="2.0" fontFamily="Gill Sans MT" fontSize="9" fontStyle="plain" height="14.43701171875" horizontalTextPosition="center" iconTextGap="4" lineColor="#5BABE0" modelName="side_slider" preferredPlacement="center_right" ratio="0.4886297611362169" textColor="#000000" verticalTextPosition="bottom" visible="true" width="65.3037109375" x="-5.3037109375" y="191.38046332465274">PaymentSelector<y:PreferredPlacementDescriptor angle="0.0" angleOffsetOnRightSide="0" angleReference="absolute" angleRotationOnRightSide="co" distance="-1.0" placement="center" side="right" sideReference="relative_to_edge_flow"/>
          </y:EdgeLabel>
          <y:BendStyle smoothed="true"/>
        </y:PolyLineEdge>
      </data>
    </edge>
    <edge id="e35" source="n11" target="n9">
      <data key="d9">
        <y:PolyLineEdge>
          <y:Path sx="100.0" sy="-130.66666666666674" tx="-100.0" ty="-116.66666666666674">
            <y:Point x="212.0" y="-1212.5555555555557"/>
            <y:Point x="212.0" y="-1419.053807859337"/>
            <y:Point x="946.0" y="-1419.053807859337"/>
            <y:Point x="946.0" y="-1230.4722222222224"/>
          </y:Path>
          <y:LineStyle color="#000000" type="line" width="1.0"/>
          <y:Arrows source="none" target="standard"/>
          <y:BendStyle smoothed="true"/>
        </y:PolyLineEdge>
      </data>
    </edge>
    <edge id="e36" source="n11" target="n24">
      <data key="d9">
        <y:PolyLineEdge>
          <y:Path sx="100.0" sy="37.333333333333286" tx="-100.0" ty="-11.25">
            <y:Point x="302.0" y="-1044.5555555555557"/>
            <y:Point x="302.0" y="-841.9722222222222"/>
          </y:Path>
          <y:LineStyle color="#000000" type="line" width="1.0"/>
          <y:Arrows source="none" target="standard"/>
          <y:BendStyle smoothed="true"/>
        </y:PolyLineEdge>
      </data>
    </edge>
    <edge id="e37" source="n11" target="n25">
      <data key="d9">
        <y:PolyLineEdge>
          <y:Path sx="100.0" sy="111.99999999999991" tx="-100.0" ty="-11.25">
            <y:Point x="212.0" y="-969.888888888889"/>
            <y:Point x="212.0" y="-553.9722222222222"/>
          </y:Path>
          <y:LineStyle color="#000000" type="line" width="1.0"/>
          <y:Arrows source="none" target="standard"/>
          <y:BendStyle smoothed="true"/>
        </y:PolyLineEdge>
      </data>
    </edge>
    <edge id="e38" source="n11" target="n26">
      <data key="d9">
        <y:PolyLineEdge>
          <y:Path sx="100.0" sy="18.66666666666663" tx="-100.0" ty="-11.25">
            <y:Point x="312.0" y="-1063.2222222222222"/>
            <y:Point x="312.0" y="-913.9722222222222"/>
          </y:Path>
          <y:LineStyle color="#000000" type="line" width="1.0"/>
          <y:Arrows source="none" target="standard"/>
          <y:BendStyle smoothed="true"/>
        </y:PolyLineEdge>
      </data>
    </edge>
    <edge id="e39" source="n11" target="n20">
      <data key="d9">
        <y:PolyLineEdge>
          <y:Path sx="100.0" sy="-18.666666666666742" tx="-100.0" ty="-12.5">
            <y:Point x="332.0" y="-1100.5555555555557"/>
            <y:Point x="332.0" y="-1022.2222222222222"/>
            <y:Point x="604.0" y="-1022.2222222222222"/>
            <y:Point x="604.0" y="-410.1111111111111"/>
          </y:Path>
          <y:LineStyle color="#000000" type="line" width="1.0"/>
          <y:Arrows source="none" target="standard"/>
          <y:BendStyle smoothed="true"/>
        </y:PolyLineEdge>
      </data>
    </edge>
    <edge id="e40" source="n11" target="n27">
      <data key="d9">
        <y:PolyLineEdge>
          <y:Path sx="100.0" sy="-2.8421709430404007E-14" tx="-100.0" ty="-11.25">
            <y:Point x="322.0" y="-1081.888888888889"/>
            <y:Point x="322.0" y="-985.9722222222222"/>
          </y:Path>
          <y:LineStyle color="#000000" type="line" width="1.0"/>
          <y:Arrows source="none" target="standard"/>
          <y:BendStyle smoothed="true"/>
        </y:PolyLineEdge>
      </data>
    </edge>
    <edge id="e41" source="n11" target="n18">
      <data key="d9">
        <y:PolyLineEdge>
          <y:Path sx="100.0" sy="-37.33333333333326" tx="-100.0" ty="-0.0">
            <y:Point x="634.0" y="-1119.2222222222222"/>
            <y:Point x="634.0" y="-1054.2222222222222"/>
          </y:Path>
          <y:LineStyle color="#000000" type="line" width="1.0"/>
          <y:Arrows source="none" target="standard"/>
          <y:BendStyle smoothed="true"/>
        </y:PolyLineEdge>
      </data>
    </edge>
    <edge id="e42" source="n11" target="n28">
      <data key="d9">
        <y:PolyLineEdge>
          <y:Path sx="100.0" sy="74.6666666666666" tx="-100.0" ty="-11.25">
            <y:Point x="282.0" y="-1007.2222222222223"/>
            <y:Point x="282.0" y="-697.9722222222222"/>
          </y:Path>
          <y:LineStyle color="#000000" type="line" width="1.0"/>
          <y:Arrows source="none" target="standard"/>
          <y:BendStyle smoothed="true"/>
        </y:PolyLineEdge>
      </data>
    </edge>
    <edge id="e43" source="n11" target="n18">
      <data key="d9">
        <y:PolyLineEdge>
          <y:Path sx="100.0" sy="-56.0" tx="-100.0" ty="-20.71428571428578">
            <y:Point x="644.0" y="-1137.888888888889"/>
            <y:Point x="644.0" y="-1074.936507936508"/>
          </y:Path>
          <y:LineStyle color="#000000" type="line" width="1.0"/>
          <y:Arrows source="none" target="standard"/>
          <y:EdgeLabel alignment="center" backgroundColor="#DAE7F7" distance="2.0" fontFamily="Gill Sans MT" fontSize="9" fontStyle="plain" height="14.43701171875" horizontalTextPosition="center" iconTextGap="4" lineColor="#5BABE0" modelName="side_slider" preferredPlacement="center_right" ratio="0.5837745839636913" textColor="#000000" verticalTextPosition="bottom" visible="true" width="92.41796875" x="265.4677734375" y="2.000027126736086">AccountBankAccountID<y:PreferredPlacementDescriptor angle="0.0" angleOffsetOnRightSide="0" angleReference="absolute" angleRotationOnRightSide="co" distance="-1.0" placement="center" side="right" sideReference="relative_to_edge_flow"/>
          </y:EdgeLabel>
          <y:BendStyle smoothed="true"/>
        </y:PolyLineEdge>
      </data>
    </edge>
    <edge id="e44" source="n9" target="n0">
      <data key="d9">
        <y:PolyLineEdge>
          <y:Path sx="100.0" sy="0.0" tx="-100.0" ty="15.0">
            <y:Point x="1188.5" y="-1113.8055555555557"/>
            <y:Point x="1188.5" y="-1458.3207287363625"/>
            <y:Point x="-22.5" y="-1458.3207287363625"/>
            <y:Point x="-22.5" y="-671.7222222222222"/>
          </y:Path>
          <y:LineStyle color="#000000" type="line" width="1.0"/>
          <y:Arrows source="none" target="standard"/>
          <y:BendStyle smoothed="true"/>
        </y:PolyLineEdge>
      </data>
    </edge>
    <edge id="e45" source="n9" target="n8">
      <data key="d9">
        <y:PolyLineEdge>
          <y:Path sx="0.0" sy="-140.0" tx="0.0" ty="22.5"/>
          <y:LineStyle color="#000000" type="line" width="1.0"/>
          <y:Arrows source="none" target="standard"/>
          <y:EdgeLabel alignment="center" backgroundColor="#DAE7F7" distance="2.0" fontFamily="Gill Sans MT" fontSize="9" fontStyle="plain" height="14.43701171875" horizontalTextPosition="center" iconTextGap="4" lineColor="#5BABE0" modelName="side_slider" preferredPlacement="center_right" ratio="0.5" textColor="#000000" verticalTextPosition="bottom" visible="true" width="86.3974609375" x="0.0" y="-54.628512912326414">PaymentDiscountType<y:PreferredPlacementDescriptor angle="0.0" angleOffsetOnRightSide="0" angleReference="absolute" angleRotationOnRightSide="co" distance="-1.0" placement="center" side="right" sideReference="relative_to_edge_flow"/>
          </y:EdgeLabel>
          <y:BendStyle smoothed="true"/>
        </y:PolyLineEdge>
      </data>
    </edge>
    <edge id="e46" source="n9" target="n3">
      <data key="d9">
        <y:PolyLineEdge>
          <y:Path sx="0.0" sy="140.0" tx="0.0" ty="-22.5"/>
          <y:LineStyle color="#000000" type="line" width="1.0"/>
          <y:Arrows source="none" target="standard"/>
          <y:EdgeLabel alignment="center" backgroundColor="#DAE7F7" distance="2.0" fontFamily="Gill Sans MT" fontSize="9" fontStyle="plain" height="14.43701171875" horizontalTextPosition="center" iconTextGap="4" lineColor="#5BABE0" modelName="side_slider" preferredPlacement="center_right" ratio="0.5" textColor="#000000" verticalTextPosition="bottom" visible="true" width="61.7529296875" x="-61.7529296875" y="55.073147243923586">VATCalculation<y:PreferredPlacementDescriptor angle="0.0" angleOffsetOnRightSide="0" angleReference="absolute" angleRotationOnRightSide="co" distance="-1.0" placement="center" side="right" sideReference="relative_to_edge_flow"/>
          </y:EdgeLabel>
          <y:BendStyle smoothed="true"/>
        </y:PolyLineEdge>
      </data>
    </edge>
    <edge id="e47" source="n12" target="n1">
      <data key="d9">
        <y:PolyLineEdge>
          <y:Path sx="100.0" sy="12.5" tx="-100.0" ty="-11.25">
            <y:Point x="594.0" y="-297.6111111111111"/>
            <y:Point x="594.0" y="-255.61111111111111"/>
          </y:Path>
          <y:LineStyle color="#000000" type="line" width="1.0"/>
          <y:Arrows source="none" target="standard"/>
          <y:BendStyle smoothed="true"/>
        </y:PolyLineEdge>
      </data>
    </edge>
    <edge id="e48" source="n12" target="n2">
      <data key="d9">
        <y:PolyLineEdge>
          <y:Path sx="100.0" sy="37.5" tx="-125.0" ty="-11.25">
            <y:Point x="584.0" y="-272.6111111111111"/>
            <y:Point x="584.0" y="-178.80555555555554"/>
          </y:Path>
          <y:LineStyle color="#000000" type="line" width="1.0"/>
          <y:Arrows source="none" target="standard"/>
          <y:BendStyle smoothed="true"/>
        </y:PolyLineEdge>
      </data>
    </edge>
    <edge id="e49" source="n12" target="n20">
      <data key="d9">
        <y:PolyLineEdge>
          <y:Path sx="100.0" sy="-12.5" tx="-100.0" ty="37.5">
            <y:Point x="624.0" y="-322.6111111111111"/>
            <y:Point x="624.0" y="-360.1111111111111"/>
          </y:Path>
          <y:LineStyle color="#000000" type="line" width="1.0"/>
          <y:Arrows source="none" target="standard"/>
          <y:EdgeLabel alignment="center" backgroundColor="#DAE7F7" distance="2.0" fontFamily="Gill Sans MT" fontSize="9" fontStyle="plain" height="14.43701171875" horizontalTextPosition="center" iconTextGap="4" lineColor="#5BABE0" modelName="side_slider" preferredPlacement="center_right" ratio="0.49844961240310076" textColor="#000000" verticalTextPosition="bottom" visible="true" width="52.568359375" x="53.0" y="-35.49999660915796">BankAccount<y:PreferredPlacementDescriptor angle="0.0" angleOffsetOnRightSide="0" angleReference="absolute" angleRotationOnRightSide="co" distance="-1.0" placement="center" side="right" sideReference="relative_to_edge_flow"/>
          </y:EdgeLabel>
          <y:BendStyle smoothed="true"/>
        </y:PolyLineEdge>
      </data>
    </edge>
    <edge id="e50" source="n12" target="n18">
      <data key="d9">
        <y:PolyLineEdge>
          <y:Path sx="100.0" sy="-37.5" tx="-100.0" ty="62.14285714285714">
            <y:Point x="614.0" y="-347.6111111111111"/>
            <y:Point x="614.0" y="-992.0793650793651"/>
          </y:Path>
          <y:LineStyle color="#000000" type="line" width="1.0"/>
          <y:Arrows source="none" target="standard"/>
          <y:BendStyle smoothed="true"/>
        </y:PolyLineEdge>
      </data>
    </edge>
    <edge id="e51" source="n19" target="n9">
      <data key="d9">
        <y:PolyLineEdge>
          <y:Path sx="100.0" sy="-0.0" tx="-100.0" ty="-23.333333333333343">
            <y:Point x="926.0" y="-1303.2222222222222"/>
            <y:Point x="926.0" y="-1137.138888888889"/>
          </y:Path>
          <y:LineStyle color="#000000" type="line" width="1.0"/>
          <y:Arrows source="none" target="standard"/>
          <y:BendStyle smoothed="true"/>
        </y:PolyLineEdge>
      </data>
    </edge>
  </graph>
  <data key="d6">
    <y:Resources/>
  </data>
</graphml>
