<?xml version="1.0" encoding="UTF-8"?><svg xmlns="http://www.w3.org/2000/svg" xmlns:xlink="http://www.w3.org/1999/xlink" fill-opacity="1" color-rendering="auto" color-interpolation="auto" text-rendering="auto" stroke="black" stroke-linecap="square" width="1365" stroke-miterlimit="10" shape-rendering="auto" stroke-opacity="1" fill="black" stroke-dasharray="none" font-weight="normal" stroke-width="1" height="691" font-family="'Dialog'" font-style="normal" stroke-linejoin="miter" font-size="12px" stroke-dashoffset="0" image-rendering="auto">
  <!--Generated by ySVG 2.5-->
  <defs id="genericDefs"/>
  <g>
    <defs id="defs1">
      <clipPath clipPathUnits="userSpaceOnUse" id="clipPath1">
        <path d="M0 0 L1365 0 L1365 691 L0 691 L0 0 Z"/>
      </clipPath>
      <clipPath clipPathUnits="userSpaceOnUse" id="clipPath2">
        <path d="M-15 -992 L1350 -992 L1350 -301 L-15 -301 L-15 -992 Z"/>
      </clipPath>
      <clipPath clipPathUnits="userSpaceOnUse" id="clipPath3">
        <path d="M0 0 L0 66 L178 66 L178 0 Z"/>
      </clipPath>
      <clipPath clipPathUnits="userSpaceOnUse" id="clipPath4">
        <path d="M0 0 L0 66 L174 66 L174 0 Z"/>
      </clipPath>
      <clipPath clipPathUnits="userSpaceOnUse" id="clipPath5">
        <path d="M0 0 L0 66 L217 66 L217 0 Z"/>
      </clipPath>
      <clipPath clipPathUnits="userSpaceOnUse" id="clipPath6">
        <path d="M0 0 L0 66 L213 66 L213 0 Z"/>
      </clipPath>
      <clipPath clipPathUnits="userSpaceOnUse" id="clipPath7">
        <path d="M0 0 L0 66 L150 66 L150 0 Z"/>
      </clipPath>
      <clipPath clipPathUnits="userSpaceOnUse" id="clipPath8">
        <path d="M0 0 L0 66 L185 66 L185 0 Z"/>
      </clipPath>
      <clipPath clipPathUnits="userSpaceOnUse" id="clipPath9">
        <path d="M0 0 L0 66 L181 66 L181 0 Z"/>
      </clipPath>
      <clipPath clipPathUnits="userSpaceOnUse" id="clipPath10">
        <path d="M0 0 L0 66 L211 66 L211 0 Z"/>
      </clipPath>
      <clipPath clipPathUnits="userSpaceOnUse" id="clipPath11">
        <path d="M0 0 L0 66 L244 66 L244 0 Z"/>
      </clipPath>
      <clipPath clipPathUnits="userSpaceOnUse" id="clipPath12">
        <path d="M0 0 L0 66 L331 66 L331 0 Z"/>
      </clipPath>
      <clipPath clipPathUnits="userSpaceOnUse" id="clipPath13">
        <path d="M0 0 L0 66 L151 66 L151 0 Z"/>
      </clipPath>
      <script type="text/ecmascript"><![CDATA[      var SVGDocument = null;
      var SVGRoot = null;
      var TrueCoords = null;
      var lastElement = null;
      var initialized = null;
      var tipGroup;
      function Init(evt)
      {
         SVGDocument = evt.target.ownerDocument;
         SVGRoot = SVGDocument.documentElement;
         TrueCoords = SVGRoot.createSVGPoint();
         initialized = evt;
      };
      function GetTrueCoords(evt)
      {
         var newScale = SVGRoot.currentScale;
         var translation = SVGRoot.currentTranslate;
         TrueCoords.x = (evt.clientX - translation.x)/newScale;
         TrueCoords.y = (evt.clientY - translation.y)/newScale;
      };
      function HideTooltip( evt )
      {
         if(initialized == null) {
           Init(evt);
         }
         if(tipGroup != null) {
           tipGroup.setAttributeNS(null, 'visibility', 'hidden');
         }
      };
      function ShowTooltip( evt )
      {
         if(initialized == null) {
           Init(evt);
         }
         GetTrueCoords( evt );
         var tipScale = 1/SVGRoot.currentScale;
         var targetElement = evt.currentTarget;
         if ( lastElement != targetElement )
         {
            var targetId = targetElement.getAttributeNS(null, 'id');
            var tipId = 'tooltip.' + targetId;
            tipGroup = SVGDocument.getElementById(tipId);
            var xPos = TrueCoords.x + (10 * tipScale);
            var yPos = TrueCoords.y + (10 * tipScale);
            tipGroup.setAttributeNS(null, 'transform', 'translate(' + xPos + ',' + yPos + ') scale(' + tipScale + ')');
            tipGroup.setAttributeNS(null, 'visibility', 'visible');
         }
      };
]]></script>
    </defs>
    <g fill="white" text-rendering="geometricPrecision" shape-rendering="geometricPrecision" transform="translate(15,992)" stroke="white">
      <rect x="-15" width="1365" height="691" y="-992" clip-path="url(#clipPath2)" stroke="none"/>
    </g>
    <g onmouseout="HideTooltip(evt)" id="y.node.0" onmousemove="ShowTooltip(evt)">
      <g transform="matrix(1,0,0,1,15,992) translate(2,2)" fill-opacity="0.4941" fill="rgb(192,192,192)" text-rendering="geometricPrecision" shape-rendering="geometricPrecision" stroke="rgb(192,192,192)" stroke-opacity="0.4941">
        <rect x="0" y="-918.9167" width="200" rx="4" ry="4" height="190" stroke="none"/>
      </g>
      <g fill="rgb(220,118,0)" text-rendering="geometricPrecision" shape-rendering="geometricPrecision" transform="matrix(1,0,0,1,15,992)" stroke="rgb(220,118,0)">
        <rect x="0" y="-918.9167" width="200" rx="4" ry="4" height="190" stroke="none"/>
      </g>
      <g>
        <g stroke-linecap="butt" font-size="15px" transform="matrix(1,0,0,1,15,992)" fill="white" text-rendering="geometricPrecision" font-family="'Gill Sans MT'" shape-rendering="geometricPrecision" stroke="white" stroke-miterlimit="1.45">
          <text x="40.9485" xml:space="preserve" y="-827.3737" stroke="none">SubOrderReversals</text>
          <text x="87.1204" xml:space="preserve" y="-809.9787" stroke="none">rsos</text>
        </g>
      </g>
      <g stroke-linecap="butt" transform="matrix(1,0,0,1,15,992)" fill="rgb(209,84,0)" text-rendering="geometricPrecision" shape-rendering="geometricPrecision" stroke="rgb(209,84,0)" stroke-miterlimit="1.45">
        <rect x="0" y="-918.9167" fill="none" width="200" rx="4" ry="4" height="190"/>
      </g>
    </g>
    <g onmouseout="HideTooltip(evt)" id="y.node.1" onmousemove="ShowTooltip(evt)">
      <g transform="matrix(1,0,0,1,15,992) translate(2,2)" fill-opacity="0.4941" fill="rgb(192,192,192)" text-rendering="geometricPrecision" shape-rendering="geometricPrecision" stroke="rgb(192,192,192)" stroke-opacity="0.4941">
        <rect x="244" y="-561.9167" width="200" rx="4" ry="4" height="45" stroke="none"/>
      </g>
      <g fill="rgb(220,118,0)" text-rendering="geometricPrecision" shape-rendering="geometricPrecision" transform="matrix(1,0,0,1,15,992)" stroke="rgb(220,118,0)">
        <rect x="244" y="-561.9167" width="200" rx="4" ry="4" height="45" stroke="none"/>
      </g>
      <g>
        <g stroke-linecap="butt" font-size="15px" transform="matrix(1,0,0,1,15,992)" fill="white" text-rendering="geometricPrecision" font-family="'Gill Sans MT'" shape-rendering="geometricPrecision" stroke="white" stroke-miterlimit="1.45">
          <text x="287.7573" xml:space="preserve" y="-542.8737" stroke="none">SubOrderReceipts</text>
          <text x="332.3618" xml:space="preserve" y="-525.4787" stroke="none">rsoi</text>
        </g>
      </g>
      <g stroke-linecap="butt" transform="matrix(1,0,0,1,15,992)" fill="rgb(209,84,0)" text-rendering="geometricPrecision" shape-rendering="geometricPrecision" stroke="rgb(209,84,0)" stroke-miterlimit="1.45">
        <rect x="244" y="-561.9167" fill="none" width="200" rx="4" ry="4" height="45"/>
      </g>
    </g>
    <g onmouseout="HideTooltip(evt)" id="y.node.2" onmousemove="ShowTooltip(evt)">
      <g transform="matrix(1,0,0,1,15,992) translate(2,2)" fill-opacity="0.4941" fill="rgb(192,192,192)" text-rendering="geometricPrecision" shape-rendering="geometricPrecision" stroke="rgb(192,192,192)" stroke-opacity="0.4941">
        <rect x="1133" y="-363.6667" width="200" rx="4" ry="4" height="45" stroke="none"/>
      </g>
      <g fill="rgb(220,118,0)" text-rendering="geometricPrecision" shape-rendering="geometricPrecision" transform="matrix(1,0,0,1,15,992)" stroke="rgb(220,118,0)">
        <rect x="1133" y="-363.6667" width="200" rx="4" ry="4" height="45" stroke="none"/>
      </g>
      <g>
        <g stroke-linecap="butt" font-size="15px" transform="matrix(1,0,0,1,15,992)" fill="white" text-rendering="geometricPrecision" font-family="'Gill Sans MT'" shape-rendering="geometricPrecision" stroke="white" stroke-miterlimit="1.45">
          <text x="1152.2212" xml:space="preserve" y="-344.6237" stroke="none">StageForDeliveryReversals</text>
          <text x="1221.6768" xml:space="preserve" y="-327.2287" stroke="none">rsdl</text>
        </g>
      </g>
      <g stroke-linecap="butt" transform="matrix(1,0,0,1,15,992)" fill="rgb(209,84,0)" text-rendering="geometricPrecision" shape-rendering="geometricPrecision" stroke="rgb(209,84,0)" stroke-miterlimit="1.45">
        <rect x="1133" y="-363.6667" fill="none" width="200" rx="4" ry="4" height="45"/>
      </g>
    </g>
    <g onmouseout="HideTooltip(evt)" id="y.node.3" onmousemove="ShowTooltip(evt)">
      <g transform="matrix(1,0,0,1,15,992) translate(2,2)" fill-opacity="0.4941" fill="rgb(192,192,192)" text-rendering="geometricPrecision" shape-rendering="geometricPrecision" stroke="rgb(192,192,192)" stroke-opacity="0.4941">
        <rect x="788" y="-451" width="200" rx="4" ry="4" height="45" stroke="none"/>
      </g>
      <g fill="rgb(220,118,0)" text-rendering="geometricPrecision" shape-rendering="geometricPrecision" transform="matrix(1,0,0,1,15,992)" stroke="rgb(220,118,0)">
        <rect x="788" y="-451" width="200" rx="4" ry="4" height="45" stroke="none"/>
      </g>
      <g>
        <g stroke-linecap="butt" font-size="15px" transform="matrix(1,0,0,1,15,992)" fill="white" text-rendering="geometricPrecision" font-family="'Gill Sans MT'" shape-rendering="geometricPrecision" stroke="white" stroke-miterlimit="1.45">
          <text x="810.03" xml:space="preserve" y="-431.957" stroke="none">StageForDeliveryReceipts</text>
          <text x="875.8235" xml:space="preserve" y="-414.562" stroke="none">rsdt</text>
        </g>
      </g>
      <g stroke-linecap="butt" transform="matrix(1,0,0,1,15,992)" fill="rgb(209,84,0)" text-rendering="geometricPrecision" shape-rendering="geometricPrecision" stroke="rgb(209,84,0)" stroke-miterlimit="1.45">
        <rect x="788" y="-451" fill="none" width="200" rx="4" ry="4" height="45"/>
      </g>
    </g>
    <g onmouseout="HideTooltip(evt)" id="y.node.4" onmousemove="ShowTooltip(evt)">
      <g transform="matrix(1,0,0,1,15,992) translate(2,2)" fill-opacity="0.4941" fill="rgb(192,192,192)" text-rendering="geometricPrecision" shape-rendering="geometricPrecision" stroke="rgb(192,192,192)" stroke-opacity="0.4941">
        <rect x="1133" y="-687.7821" width="200" rx="4" ry="4" height="200" stroke="none"/>
      </g>
      <g fill="rgb(220,118,0)" text-rendering="geometricPrecision" shape-rendering="geometricPrecision" transform="matrix(1,0,0,1,15,992)" stroke="rgb(220,118,0)">
        <rect x="1133" y="-687.7821" width="200" rx="4" ry="4" height="200" stroke="none"/>
      </g>
      <g>
        <g stroke-linecap="butt" font-size="15px" transform="matrix(1,0,0,1,15,992)" fill="white" text-rendering="geometricPrecision" font-family="'Gill Sans MT'" shape-rendering="geometricPrecision" stroke="white" stroke-miterlimit="1.45">
          <text x="1195.511" xml:space="preserve" y="-591.2392" stroke="none">ShopOrders</text>
          <text x="1204.8164" xml:space="preserve" y="-573.8442" stroke="none">rspr, #ID</text>
        </g>
      </g>
      <g stroke-linecap="butt" transform="matrix(1,0,0,1,15,992)" fill="rgb(209,84,0)" text-rendering="geometricPrecision" shape-rendering="geometricPrecision" stroke="rgb(209,84,0)" stroke-miterlimit="1.45">
        <rect x="1133" y="-687.7821" fill="none" width="200" rx="4" ry="4" height="200"/>
      </g>
    </g>
    <g onmouseout="HideTooltip(evt)" id="y.node.5" onmousemove="ShowTooltip(evt)">
      <g transform="matrix(1,0,0,1,15,992) translate(2,2)" fill-opacity="0.4941" fill="rgb(192,192,192)" text-rendering="geometricPrecision" shape-rendering="geometricPrecision" stroke="rgb(192,192,192)" stroke-opacity="0.4941">
        <rect x="520" y="-964.75" width="200" rx="4" ry="4" height="100" stroke="none"/>
      </g>
      <g fill="rgb(220,118,0)" text-rendering="geometricPrecision" shape-rendering="geometricPrecision" transform="matrix(1,0,0,1,15,992)" stroke="rgb(220,118,0)">
        <rect x="520" y="-964.75" width="200" rx="4" ry="4" height="100" stroke="none"/>
      </g>
      <g>
        <g stroke-linecap="butt" font-size="15px" transform="matrix(1,0,0,1,15,992)" fill="white" text-rendering="geometricPrecision" font-family="'Gill Sans MT'" shape-rendering="geometricPrecision" stroke="white" stroke-miterlimit="1.45">
          <text x="556.8103" xml:space="preserve" y="-918.207" stroke="none">ShopOrderReversals</text>
          <text x="514.729" xml:space="preserve" y="-900.812" stroke="none">rsor, #ReversalStockTransactionId</text>
        </g>
      </g>
      <g stroke-linecap="butt" transform="matrix(1,0,0,1,15,992)" fill="rgb(209,84,0)" text-rendering="geometricPrecision" shape-rendering="geometricPrecision" stroke="rgb(209,84,0)" stroke-miterlimit="1.45">
        <rect x="520" y="-964.75" fill="none" width="200" rx="4" ry="4" height="100"/>
      </g>
    </g>
    <g onmouseout="HideTooltip(evt)" id="y.node.6" onmousemove="ShowTooltip(evt)">
      <g transform="matrix(1,0,0,1,15,992) translate(2,2)" fill-opacity="0.4941" fill="rgb(192,192,192)" text-rendering="geometricPrecision" shape-rendering="geometricPrecision" stroke="rgb(192,192,192)" stroke-opacity="0.4941">
        <rect x="788" y="-616.9167" width="200" rx="4" ry="4" height="100" stroke="none"/>
      </g>
      <g fill="rgb(220,118,0)" text-rendering="geometricPrecision" shape-rendering="geometricPrecision" transform="matrix(1,0,0,1,15,992)" stroke="rgb(220,118,0)">
        <rect x="788" y="-616.9167" width="200" rx="4" ry="4" height="100" stroke="none"/>
      </g>
      <g>
        <g stroke-linecap="butt" font-size="15px" transform="matrix(1,0,0,1,15,992)" fill="white" text-rendering="geometricPrecision" font-family="'Gill Sans MT'" shape-rendering="geometricPrecision" stroke="white" stroke-miterlimit="1.45">
          <text x="827.6191" xml:space="preserve" y="-570.3737" stroke="none">ShopOrderReceipts</text>
          <text x="808.9021" xml:space="preserve" y="-552.9787" stroke="none">rsot, #StockTransactionId</text>
        </g>
      </g>
      <g stroke-linecap="butt" transform="matrix(1,0,0,1,15,992)" fill="rgb(209,84,0)" text-rendering="geometricPrecision" shape-rendering="geometricPrecision" stroke="rgb(209,84,0)" stroke-miterlimit="1.45">
        <rect x="788" y="-616.9167" fill="none" width="200" rx="4" ry="4" height="100"/>
      </g>
    </g>
    <g onmouseout="HideTooltip(evt)" id="y.node.7" onmousemove="ShowTooltip(evt)">
      <g transform="matrix(1,0,0,1,15,992) translate(2,2)" fill-opacity="0.4941" fill="rgb(192,192,192)" text-rendering="geometricPrecision" shape-rendering="geometricPrecision" stroke="rgb(192,192,192)" stroke-opacity="0.4941">
        <rect x="515" y="-418.6667" width="200" rx="4" ry="4" height="100" stroke="none"/>
      </g>
      <g fill="rgb(220,118,0)" text-rendering="geometricPrecision" shape-rendering="geometricPrecision" transform="matrix(1,0,0,1,15,992)" stroke="rgb(220,118,0)">
        <rect x="515" y="-418.6667" width="200" rx="4" ry="4" height="100" stroke="none"/>
      </g>
      <g>
        <g stroke-linecap="butt" font-size="15px" transform="matrix(1,0,0,1,15,992)" fill="white" text-rendering="geometricPrecision" font-family="'Gill Sans MT'" shape-rendering="geometricPrecision" stroke="white" stroke-miterlimit="1.45">
          <text x="540.4871" xml:space="preserve" y="-372.1237" stroke="none">ShopOrderMaterialPlans</text>
          <text x="585.6482" xml:space="preserve" y="-354.7287" stroke="none">rson, #ID</text>
        </g>
      </g>
      <g stroke-linecap="butt" transform="matrix(1,0,0,1,15,992)" fill="rgb(209,84,0)" text-rendering="geometricPrecision" shape-rendering="geometricPrecision" stroke="rgb(209,84,0)" stroke-miterlimit="1.45">
        <rect x="515" y="-418.6667" fill="none" width="200" rx="4" ry="4" height="100"/>
      </g>
    </g>
    <g onmouseout="HideTooltip(evt)" id="y.node.8" onmousemove="ShowTooltip(evt)">
      <g transform="matrix(1,0,0,1,15,992) translate(2,2)" fill-opacity="0.4941" fill="rgb(192,192,192)" text-rendering="geometricPrecision" shape-rendering="geometricPrecision" stroke="rgb(192,192,192)" stroke-opacity="0.4941">
        <rect x="1133" y="-846.4167" width="200" rx="4" ry="4" height="45" stroke="none"/>
      </g>
      <g fill="rgb(220,118,0)" text-rendering="geometricPrecision" shape-rendering="geometricPrecision" transform="matrix(1,0,0,1,15,992)" stroke="rgb(220,118,0)">
        <rect x="1133" y="-846.4167" width="200" rx="4" ry="4" height="45" stroke="none"/>
      </g>
      <g>
        <g stroke-linecap="butt" font-size="15px" transform="matrix(1,0,0,1,15,992)" fill="white" text-rendering="geometricPrecision" font-family="'Gill Sans MT'" shape-rendering="geometricPrecision" stroke="white" stroke-miterlimit="1.45">
          <text x="1140.2827" xml:space="preserve" y="-827.3737" stroke="none">ShopOrderMaterialPlanDetails</text>
          <text x="1221.3618" xml:space="preserve" y="-809.9787" stroke="none">rsol</text>
        </g>
      </g>
      <g stroke-linecap="butt" transform="matrix(1,0,0,1,15,992)" fill="rgb(209,84,0)" text-rendering="geometricPrecision" shape-rendering="geometricPrecision" stroke="rgb(209,84,0)" stroke-miterlimit="1.45">
        <rect x="1133" y="-846.4167" fill="none" width="200" rx="4" ry="4" height="45"/>
      </g>
    </g>
    <g onmouseout="HideTooltip(evt)" id="y.node.9" onmousemove="ShowTooltip(evt)">
      <g transform="matrix(1,0,0,1,15,992) translate(2,2)" fill-opacity="0.4941" fill="rgb(192,192,192)" text-rendering="geometricPrecision" shape-rendering="geometricPrecision" stroke="rgb(192,192,192)" stroke-opacity="0.4941">
        <rect x="252" y="-873.9167" width="200" rx="4" ry="4" height="100" stroke="none"/>
      </g>
      <g fill="rgb(220,118,0)" text-rendering="geometricPrecision" shape-rendering="geometricPrecision" transform="matrix(1,0,0,1,15,992)" stroke="rgb(220,118,0)">
        <rect x="252" y="-873.9167" width="200" rx="4" ry="4" height="100" stroke="none"/>
      </g>
      <g>
        <g stroke-linecap="butt" font-size="15px" transform="matrix(1,0,0,1,15,992)" fill="white" text-rendering="geometricPrecision" font-family="'Gill Sans MT'" shape-rendering="geometricPrecision" stroke="white" stroke-miterlimit="1.45">
          <text x="298.8079" xml:space="preserve" y="-827.3737" stroke="none">MaterialReversals</text>
          <text x="246.3262" xml:space="preserve" y="-809.9787" stroke="none">rmrl, #ReversalStockTransactionId</text>
        </g>
      </g>
      <g stroke-linecap="butt" transform="matrix(1,0,0,1,15,992)" fill="rgb(209,84,0)" text-rendering="geometricPrecision" shape-rendering="geometricPrecision" stroke="rgb(209,84,0)" stroke-miterlimit="1.45">
        <rect x="252" y="-873.9167" fill="none" width="200" rx="4" ry="4" height="100"/>
      </g>
    </g>
    <g onmouseout="HideTooltip(evt)" id="y.node.10" onmousemove="ShowTooltip(evt)">
      <g transform="matrix(1,0,0,1,15,992) translate(2,2)" fill-opacity="0.4941" fill="rgb(192,192,192)" text-rendering="geometricPrecision" shape-rendering="geometricPrecision" stroke="rgb(192,192,192)" stroke-opacity="0.4941">
        <rect x="520" y="-501.5" width="200" rx="4" ry="4" height="45" stroke="none"/>
      </g>
      <g fill="rgb(220,118,0)" text-rendering="geometricPrecision" shape-rendering="geometricPrecision" transform="matrix(1,0,0,1,15,992)" stroke="rgb(220,118,0)">
        <rect x="520" y="-501.5" width="200" rx="4" ry="4" height="45" stroke="none"/>
      </g>
      <g>
        <g stroke-linecap="butt" font-size="15px" transform="matrix(1,0,0,1,15,992)" fill="white" text-rendering="geometricPrecision" font-family="'Gill Sans MT'" shape-rendering="geometricPrecision" stroke="white" stroke-miterlimit="1.45">
          <text x="577.5195" xml:space="preserve" y="-482.457" stroke="none">MaterialIssues</text>
          <text x="539.4043" xml:space="preserve" y="-465.062" stroke="none">rmie, #StockTransactionId</text>
        </g>
      </g>
      <g stroke-linecap="butt" transform="matrix(1,0,0,1,15,992)" fill="rgb(209,84,0)" text-rendering="geometricPrecision" shape-rendering="geometricPrecision" stroke="rgb(209,84,0)" stroke-miterlimit="1.45">
        <rect x="520" y="-501.5" fill="none" width="200" rx="4" ry="4" height="45"/>
      </g>
    </g>
    <g id="y.edge.0">
      <g text-rendering="geometricPrecision" stroke-miterlimit="1.45" shape-rendering="geometricPrecision" transform="matrix(1,0,0,1,15,992)" stroke-linecap="butt">
        <path fill="none" d="M164 -918.9111 L164 -966.75 L164.625 -971.125 L166.5 -974.25 L169.625 -976.125 L174 -976.75 L1030 -976.75 L1034.375 -976.125 L1037.5 -974.25 L1039.375 -971.125 L1040 -966.75 L1040 -690.0898 L1040.625 -685.7148 L1042.5 -682.5898 L1045.625 -680.7148 L1050 -680.0898 L1124.9546 -680.0898"/>
        <path d="M1132.9546 -680.0898 L1120.9546 -685.0898 L1123.9546 -680.0898 L1120.9546 -675.0898 Z" stroke="none"/>
      </g>
      <g>
        <g stroke-linecap="butt" transform="matrix(1,0,0,1,15,992)" fill="rgb(218,231,247)" text-rendering="geometricPrecision" shape-rendering="geometricPrecision" stroke="rgb(218,231,247)" stroke-miterlimit="1.45">
          <rect x="1042" width="58.646" height="14.437" y="-821.6273" stroke="none"/>
        </g>
        <g fill="rgb(91,171,224)" text-rendering="geometricPrecision" stroke-miterlimit="1.6" shape-rendering="geometricPrecision" transform="matrix(1,0,0,1,15,992)" stroke="rgb(91,171,224)">
          <rect fill="none" x="1042" width="58.646" height="14.437" y="-821.6273"/>
        </g>
        <g font-size="9px" stroke-linecap="butt" transform="matrix(1,0,0,1,15,992)" text-rendering="geometricPrecision" font-family="'Gill Sans MT'" shape-rendering="geometricPrecision" stroke-miterlimit="1.45">
          <text x="1044" xml:space="preserve" y="-811.2645" stroke="none">SubShopOrder</text>
        </g>
      </g>
    </g>
    <g id="y.edge.5">
      <g text-rendering="geometricPrecision" stroke-miterlimit="1.45" shape-rendering="geometricPrecision" transform="matrix(1,0,0,1,15,992)" stroke-linecap="butt">
        <path fill="none" d="M443.9592 -538 L749 -538 L753.375 -537.375 L756.5 -535.5 L758.375 -532.375 L759 -528 L759 -517 L759.625 -512.625 L761.5 -509.5 L764.625 -507.625 L769 -507 L1028 -507 L1032.375 -507.625 L1035.5 -509.5 L1037.375 -512.625 L1038 -517 L1038 -557 L1038.625 -561.375 L1040.5 -564.5 L1043.625 -566.375 L1048 -567 L1125.0195 -567"/>
        <path d="M1133.0195 -567 L1121.0195 -572 L1124.0195 -567 L1121.0195 -562 Z" stroke="none"/>
      </g>
      <g>
        <g stroke-linecap="butt" transform="matrix(1,0,0,1,15,992)" fill="rgb(218,231,247)" text-rendering="geometricPrecision" shape-rendering="geometricPrecision" stroke="rgb(218,231,247)" stroke-miterlimit="1.45">
          <rect x="906.1813" width="17.1221" height="14.437" y="-505" stroke="none"/>
        </g>
        <g fill="rgb(91,171,224)" text-rendering="geometricPrecision" stroke-miterlimit="1.6" shape-rendering="geometricPrecision" transform="matrix(1,0,0,1,15,992)" stroke="rgb(91,171,224)">
          <rect fill="none" x="906.1813" width="17.1221" height="14.437" y="-505"/>
        </g>
        <g font-size="9px" stroke-linecap="butt" transform="matrix(1,0,0,1,15,992)" text-rendering="geometricPrecision" font-family="'Gill Sans MT'" shape-rendering="geometricPrecision" stroke-miterlimit="1.45">
          <text x="908.1813" xml:space="preserve" y="-494.6372" stroke="none">Sub</text>
        </g>
      </g>
    </g>
    <g id="y.edge.9">
      <g text-rendering="geometricPrecision" stroke-miterlimit="1.45" shape-rendering="geometricPrecision" transform="matrix(1,0,0,1,15,992)" stroke-linecap="butt">
        <path fill="none" d="M1238 -363.6508 L1238 -479.7675"/>
        <path d="M1238 -487.7675 L1233 -475.7675 L1238 -478.7675 L1243 -475.7675 Z" stroke="none"/>
      </g>
    </g>
    <g id="y.edge.10">
      <g text-rendering="geometricPrecision" stroke-miterlimit="1.45" shape-rendering="geometricPrecision" transform="matrix(1,0,0,1,15,992)" stroke-linecap="butt">
        <path fill="none" d="M988.0044 -427 L1064 -427 L1068.375 -427.625 L1071.5 -429.5 L1073.375 -432.625 L1074 -437 L1074 -521 L1074.625 -525.375 L1076.5 -528.5 L1079.625 -530.375 L1084 -531 L1125.0332 -531"/>
        <path d="M1133.0332 -531 L1121.0332 -536 L1124.0332 -531 L1121.0332 -526 Z" stroke="none"/>
      </g>
    </g>
    <g id="y.edge.11">
      <g text-rendering="geometricPrecision" stroke-miterlimit="1.45" shape-rendering="geometricPrecision" transform="matrix(1,0,0,1,15,992)" stroke-linecap="butt">
        <path fill="none" d="M1174 -487.7914 L1174 -469.9745 L1173.375 -465.5995 L1171.5 -462.4745 L1168.375 -460.5995 L1164 -459.9745 L1117.5 -459.9745 L1113.125 -460.5995 L1110 -462.4745 L1108.125 -465.5995 L1107.5 -469.9745 L1107.5 -485.4745 L1108.0453 -489.8495 L1109.6813 -492.9745 L1112.4078 -494.8495 L1116.2251 -495.4745 L1124.9502 -495.4745"/>
        <path d="M1132.9502 -495.4745 L1120.9502 -500.4745 L1123.9502 -495.4745 L1120.9502 -490.4745 Z" stroke="none"/>
      </g>
      <g>
        <g stroke-linecap="butt" transform="matrix(1,0,0,1,15,992)" fill="rgb(218,231,247)" text-rendering="geometricPrecision" shape-rendering="geometricPrecision" stroke="rgb(218,231,247)" stroke-miterlimit="1.45">
          <rect x="1126.8496" width="27.8008" height="14.437" y="-476.4115" stroke="none"/>
        </g>
        <g fill="rgb(91,171,224)" text-rendering="geometricPrecision" stroke-miterlimit="1.6" shape-rendering="geometricPrecision" transform="matrix(1,0,0,1,15,992)" stroke="rgb(91,171,224)">
          <rect fill="none" x="1126.8496" width="27.8008" height="14.437" y="-476.4115"/>
        </g>
        <g font-size="9px" stroke-linecap="butt" transform="matrix(1,0,0,1,15,992)" text-rendering="geometricPrecision" font-family="'Gill Sans MT'" shape-rendering="geometricPrecision" stroke-miterlimit="1.45">
          <text x="1128.8496" xml:space="preserve" y="-466.0487" stroke="none">Parent</text>
        </g>
      </g>
    </g>
    <g id="y.edge.12">
      <g text-rendering="geometricPrecision" stroke-miterlimit="1.45" shape-rendering="geometricPrecision" transform="matrix(1,0,0,1,15,992)" stroke-linecap="butt">
        <path fill="none" d="M1203.5 -487.7591 L1203.5 -438.9745 L1202.875 -434.5995 L1201 -431.4745 L1197.875 -429.5995 L1193.5 -428.9745 L1106.5 -428.9745 L1102.125 -429.5995 L1099 -431.4745 L1097.125 -434.5995 L1096.5 -438.9745 L1096.5 -500.8591 L1097.125 -505.2341 L1099 -508.3591 L1102.125 -510.2341 L1106.5 -510.8591 L1124.9644 -510.8591"/>
        <path d="M1132.9644 -510.8591 L1120.9644 -515.8591 L1123.9644 -510.8591 L1120.9644 -505.8591 Z" stroke="none"/>
      </g>
      <g>
        <g stroke-linecap="butt" transform="matrix(1,0,0,1,15,992)" fill="rgb(218,231,247)" text-rendering="geometricPrecision" shape-rendering="geometricPrecision" stroke="rgb(218,231,247)" stroke-miterlimit="1.45">
          <rect x="1139.3296" width="21.3408" height="14.437" y="-445.4115" stroke="none"/>
        </g>
        <g fill="rgb(91,171,224)" text-rendering="geometricPrecision" stroke-miterlimit="1.6" shape-rendering="geometricPrecision" transform="matrix(1,0,0,1,15,992)" stroke="rgb(91,171,224)">
          <rect fill="none" x="1139.3296" width="21.3408" height="14.437" y="-445.4115"/>
        </g>
        <g font-size="9px" stroke-linecap="butt" transform="matrix(1,0,0,1,15,992)" text-rendering="geometricPrecision" font-family="'Gill Sans MT'" shape-rendering="geometricPrecision" stroke-miterlimit="1.45">
          <text x="1141.3296" xml:space="preserve" y="-435.0487" stroke="none">Main</text>
        </g>
      </g>
    </g>
    <g id="y.edge.1">
      <g text-rendering="geometricPrecision" stroke-miterlimit="1.45" shape-rendering="geometricPrecision" transform="matrix(1,0,0,1,15,992)" stroke-linecap="butt">
        <path fill="none" d="M200.0017 -915 L512.0154 -915"/>
        <path d="M520.0154 -915 L508.0154 -920 L511.0154 -915 L508.0154 -910 Z" stroke="none"/>
      </g>
    </g>
    <g id="y.edge.14">
      <g text-rendering="geometricPrecision" stroke-miterlimit="1.45" shape-rendering="geometricPrecision" transform="matrix(1,0,0,1,15,992)" stroke-linecap="butt">
        <path fill="none" d="M563 -864.7609 L563 -852.9167 L562.375 -848.5417 L560.5 -845.4167 L557.375 -843.5417 L553 -842.9167 L504.5 -842.9167 L500.125 -843.5417 L497 -845.4167 L495.125 -848.5417 L494.5 -852.9167 L494.5 -871.4167 L495.0453 -875.7917 L496.6813 -878.9167 L499.4079 -880.7917 L503.2251 -881.4167 L511.9502 -881.4167"/>
        <path d="M519.9502 -881.4167 L507.9502 -886.4167 L510.9502 -881.4167 L507.9502 -876.4167 Z" stroke="none"/>
      </g>
    </g>
    <g id="y.edge.13">
      <g text-rendering="geometricPrecision" stroke-miterlimit="1.45" shape-rendering="geometricPrecision" transform="matrix(1,0,0,1,15,992)" stroke-linecap="butt">
        <path fill="none" d="M720 -948.0833 L1020 -948.0833 L1024.375 -947.4583 L1027.5 -945.5833 L1029.375 -942.4583 L1030 -938.0833 L1030 -674.7052 L1030.625 -670.3302 L1032.5 -667.2052 L1035.625 -665.3302 L1040 -664.7052 L1124.9749 -664.7052"/>
        <path d="M1132.9749 -664.7052 L1120.9749 -669.7052 L1123.9749 -664.7052 L1120.9749 -659.7052 Z" stroke="none"/>
      </g>
    </g>
    <g id="y.edge.2">
      <g text-rendering="geometricPrecision" stroke-miterlimit="1.45" shape-rendering="geometricPrecision" transform="matrix(1,0,0,1,15,992)" stroke-linecap="butt">
        <path fill="none" d="M200 -785.9167 L212 -785.9167 L216.375 -785.2917 L219.5 -783.4167 L221.375 -780.2917 L222 -775.9167 L222 -589 L222.625 -584.625 L224.5 -581.5 L227.625 -579.625 L232 -579 L779.9655 -579"/>
        <path d="M787.9655 -579 L775.9655 -584 L778.9655 -579 L775.9655 -574 Z" stroke="none"/>
      </g>
      <g>
        <g stroke-linecap="butt" transform="matrix(1,0,0,1,15,992)" fill="rgb(218,231,247)" text-rendering="geometricPrecision" shape-rendering="geometricPrecision" stroke="rgb(218,231,247)" stroke-miterlimit="1.45">
          <rect x="386.0627" width="33.0742" height="14.437" y="-595.437" stroke="none"/>
        </g>
        <g fill="rgb(91,171,224)" text-rendering="geometricPrecision" stroke-miterlimit="1.6" shape-rendering="geometricPrecision" transform="matrix(1,0,0,1,15,992)" stroke="rgb(91,171,224)">
          <rect fill="none" x="386.0627" width="33.0742" height="14.437" y="-595.437"/>
        </g>
        <g font-size="9px" stroke-linecap="butt" transform="matrix(1,0,0,1,15,992)" text-rendering="geometricPrecision" font-family="'Gill Sans MT'" shape-rendering="geometricPrecision" stroke-miterlimit="1.45">
          <text x="388.0627" xml:space="preserve" y="-585.0742" stroke="none">Original</text>
        </g>
      </g>
    </g>
    <g id="y.edge.6">
      <g text-rendering="geometricPrecision" stroke-miterlimit="1.45" shape-rendering="geometricPrecision" transform="matrix(1,0,0,1,15,992)" stroke-linecap="butt">
        <path fill="none" d="M443.9917 -546.5 L460 -546.5 L464.375 -547.125 L467.5 -549 L469.375 -552.125 L470 -556.5 L470 -556.9167 L470.625 -561.2917 L472.5 -564.4167 L475.625 -566.2917 L480 -566.9167 L779.9783 -566.9167"/>
        <path d="M787.9783 -566.9167 L775.9783 -571.9167 L778.9783 -566.9167 L775.9783 -561.9167 Z" stroke="none"/>
      </g>
    </g>
    <g id="y.edge.15">
      <g text-rendering="geometricPrecision" stroke-miterlimit="1.45" shape-rendering="geometricPrecision" transform="matrix(1,0,0,1,15,992)" stroke-linecap="butt">
        <path fill="none" d="M720 -914.75 L833 -914.75 L837.375 -914.125 L840.5 -912.25 L842.375 -909.125 L843 -904.75 L843 -624.9274"/>
        <path d="M843 -616.9274 L848 -628.9274 L843 -625.9274 L838 -628.9274 Z" stroke="none"/>
      </g>
      <g>
        <g stroke-linecap="butt" transform="matrix(1,0,0,1,15,992)" fill="rgb(218,231,247)" text-rendering="geometricPrecision" shape-rendering="geometricPrecision" stroke="rgb(218,231,247)" stroke-miterlimit="1.45">
          <rect x="845" width="33.0742" height="14.437" y="-777.6143" stroke="none"/>
        </g>
        <g fill="rgb(91,171,224)" text-rendering="geometricPrecision" stroke-miterlimit="1.6" shape-rendering="geometricPrecision" transform="matrix(1,0,0,1,15,992)" stroke="rgb(91,171,224)">
          <rect fill="none" x="845" width="33.0742" height="14.437" y="-777.6143"/>
        </g>
        <g font-size="9px" stroke-linecap="butt" transform="matrix(1,0,0,1,15,992)" text-rendering="geometricPrecision" font-family="'Gill Sans MT'" shape-rendering="geometricPrecision" stroke-miterlimit="1.45">
          <text x="847" xml:space="preserve" y="-767.2515" stroke="none">Original</text>
        </g>
      </g>
    </g>
    <g id="y.edge.17">
      <g text-rendering="geometricPrecision" stroke-miterlimit="1.45" shape-rendering="geometricPrecision" transform="matrix(1,0,0,1,15,992)" stroke-linecap="butt">
        <path fill="none" d="M988.0166 -610 L996.5083 -610 L1000.2234 -610.625 L1002.8771 -612.5 L1004.4692 -615.625 L1005 -620 L1005 -631.5 L1004.375 -635.875 L1002.5 -639 L999.375 -640.875 L995 -641.5 L954 -641.5 L949.625 -640.9813 L946.5 -639.425 L944.625 -636.8312 L944 -633.2 L944 -624.8999"/>
        <path d="M944 -616.8999 L949 -628.8999 L944 -625.8999 L939 -628.8999 Z" stroke="none"/>
      </g>
      <g>
        <g stroke-linecap="butt" transform="matrix(1,0,0,1,15,992)" fill="rgb(218,231,247)" text-rendering="geometricPrecision" shape-rendering="geometricPrecision" stroke="rgb(218,231,247)" stroke-miterlimit="1.45">
          <rect x="958.7715" width="31.457" height="14.437" y="-657.937" stroke="none"/>
        </g>
        <g fill="rgb(91,171,224)" text-rendering="geometricPrecision" stroke-miterlimit="1.6" shape-rendering="geometricPrecision" transform="matrix(1,0,0,1,15,992)" stroke="rgb(91,171,224)">
          <rect fill="none" x="958.7715" width="31.457" height="14.437" y="-657.937"/>
        </g>
        <g font-size="9px" stroke-linecap="butt" transform="matrix(1,0,0,1,15,992)" text-rendering="geometricPrecision" font-family="'Gill Sans MT'" shape-rendering="geometricPrecision" stroke-miterlimit="1.45">
          <text x="960.7715" xml:space="preserve" y="-647.5742" stroke="none">Related</text>
        </g>
      </g>
    </g>
    <g id="y.edge.16">
      <g text-rendering="geometricPrecision" stroke-miterlimit="1.45" shape-rendering="geometricPrecision" transform="matrix(1,0,0,1,15,992)" stroke-linecap="butt">
        <path fill="none" d="M988.0024 -587 L1124.9906 -587"/>
        <path d="M1132.9906 -587 L1120.9906 -592 L1123.9906 -587 L1120.9906 -582 Z" stroke="none"/>
      </g>
    </g>
    <g id="y.edge.7">
      <g text-rendering="geometricPrecision" stroke-miterlimit="1.45" shape-rendering="geometricPrecision" transform="matrix(1,0,0,1,15,992)" stroke-linecap="butt">
        <path fill="none" d="M344 -516.9136 L344 -378.6667 L344.625 -374.2917 L346.5 -371.1667 L349.625 -369.2917 L354 -368.6667 L506.9583 -368.6667"/>
        <path d="M514.9583 -368.6667 L502.9583 -373.6667 L505.9583 -368.6667 L502.9583 -363.6667 Z" stroke="none"/>
      </g>
      <g>
        <g stroke-linecap="butt" transform="matrix(1,0,0,1,15,992)" fill="rgb(218,231,247)" text-rendering="geometricPrecision" shape-rendering="geometricPrecision" stroke="rgb(218,231,247)" stroke-miterlimit="1.45">
          <rect x="378.0186" width="27.8008" height="14.437" y="-385.1037" stroke="none"/>
        </g>
        <g fill="rgb(91,171,224)" text-rendering="geometricPrecision" stroke-miterlimit="1.6" shape-rendering="geometricPrecision" transform="matrix(1,0,0,1,15,992)" stroke="rgb(91,171,224)">
          <rect fill="none" x="378.0186" width="27.8008" height="14.437" y="-385.1037"/>
        </g>
        <g font-size="9px" stroke-linecap="butt" transform="matrix(1,0,0,1,15,992)" text-rendering="geometricPrecision" font-family="'Gill Sans MT'" shape-rendering="geometricPrecision" stroke-miterlimit="1.45">
          <text x="380.0186" xml:space="preserve" y="-374.7409" stroke="none">Parent</text>
        </g>
      </g>
    </g>
    <g id="y.edge.18">
      <g text-rendering="geometricPrecision" stroke-miterlimit="1.45" shape-rendering="geometricPrecision" transform="matrix(1,0,0,1,15,992)" stroke-linecap="butt">
        <path fill="none" d="M715 -386 L1213 -386 L1217.375 -386.625 L1220.5 -388.5 L1222.375 -391.625 L1223 -396 L1223 -479.7821"/>
        <path d="M1223 -487.7821 L1218 -475.7821 L1223 -478.7821 L1228 -475.7821 Z" stroke="none"/>
      </g>
    </g>
    <g id="y.edge.19">
      <g text-rendering="geometricPrecision" stroke-miterlimit="1.45" shape-rendering="geometricPrecision" transform="matrix(1,0,0,1,15,992)" stroke-linecap="butt">
        <path fill="none" d="M1233 -801.4202 L1233 -695.8099"/>
        <path d="M1233 -687.8099 L1238 -699.8099 L1233 -696.8099 L1228 -699.8099 Z" stroke="none"/>
      </g>
    </g>
    <g id="y.edge.20">
      <g text-rendering="geometricPrecision" stroke-miterlimit="1.45" shape-rendering="geometricPrecision" transform="matrix(1,0,0,1,15,992)" stroke-linecap="butt">
        <path fill="none" d="M1248 -801.4202 L1248 -695.8099"/>
        <path d="M1248 -687.8099 L1253 -699.8099 L1248 -696.8099 L1243 -699.8099 Z" stroke="none"/>
      </g>
    </g>
    <g id="y.edge.4">
      <g text-rendering="geometricPrecision" stroke-miterlimit="1.45" shape-rendering="geometricPrecision" transform="matrix(1,0,0,1,15,992)" stroke-linecap="butt">
        <path fill="none" d="M200 -823.9167 L243.9746 -823.9167"/>
        <path d="M251.9746 -823.9167 L239.9746 -828.9167 L242.9746 -823.9167 L239.9746 -818.9167 Z" stroke="none"/>
      </g>
    </g>
    <g id="y.edge.21">
      <g text-rendering="geometricPrecision" stroke-miterlimit="1.45" shape-rendering="geometricPrecision" transform="matrix(1,0,0,1,15,992)" stroke-linecap="butt">
        <path fill="none" d="M452 -836.4167 L1010 -836.4167 L1014.375 -835.7917 L1017.5 -833.9167 L1019.375 -830.7917 L1020 -826.4167 L1020 -659.3206 L1020.625 -654.9456 L1022.5 -651.8206 L1025.625 -649.9456 L1030 -649.3206 L1124.9724 -649.3206"/>
        <path d="M1132.9724 -649.3206 L1120.9724 -654.3206 L1123.9724 -649.3206 L1120.9724 -644.3206 Z" stroke="none"/>
      </g>
    </g>
    <g id="y.edge.22">
      <g text-rendering="geometricPrecision" stroke-miterlimit="1.45" shape-rendering="geometricPrecision" transform="matrix(1,0,0,1,15,992)" stroke-linecap="butt">
        <path fill="none" d="M352 -773.9167 L352 -613.1667 L351.375 -608.7917 L349.5 -605.6667 L346.375 -603.7917 L342 -603.1667 L202.5 -603.1667 L198.125 -602.5417 L195 -600.6667 L193.125 -597.5417 L192.5 -593.1667 L192.5 -363.6667 L193.125 -359.2917 L195 -356.1667 L198.125 -354.2917 L202.5 -353.6667 L506.9606 -353.6667"/>
        <path d="M514.9606 -353.6667 L502.9606 -358.6667 L505.9606 -353.6667 L502.9606 -348.6667 Z" stroke="none"/>
      </g>
    </g>
    <g id="y.edge.23">
      <g text-rendering="geometricPrecision" stroke-miterlimit="1.45" shape-rendering="geometricPrecision" transform="matrix(1,0,0,1,15,992)" stroke-linecap="butt">
        <path fill="none" d="M452 -861.4167 L470 -861.4167 L474.375 -862.0417 L477.5 -863.9167 L479.375 -867.0417 L480 -871.4167 L480 -884 L480.625 -888.375 L482.5 -891.5 L485.625 -893.375 L490 -894 L511.9878 -894"/>
        <path d="M519.9878 -894 L507.9878 -899 L510.9878 -894 L507.9878 -889 Z" stroke="none"/>
      </g>
    </g>
    <g id="y.edge.24">
      <g text-rendering="geometricPrecision" stroke-miterlimit="1.45" shape-rendering="geometricPrecision" transform="matrix(1,0,0,1,15,992)" stroke-linecap="butt">
        <path fill="none" d="M452 -811.4167 L620 -811.4167 L624.375 -810.7917 L627.5 -808.9167 L629.375 -805.7917 L630 -801.4167 L630 -600 L630.625 -595.625 L632.5 -592.5 L635.625 -590.625 L640 -590 L780.0061 -590"/>
        <path d="M788.0061 -590 L776.0061 -595 L779.0061 -590 L776.0061 -585 Z" stroke="none"/>
      </g>
      <g>
        <g stroke-linecap="butt" transform="matrix(1,0,0,1,15,992)" fill="rgb(218,231,247)" text-rendering="geometricPrecision" shape-rendering="geometricPrecision" stroke="rgb(218,231,247)" stroke-miterlimit="1.45">
          <rect x="595.9258" width="33.0742" height="14.437" y="-827.8537" stroke="none"/>
        </g>
        <g fill="rgb(91,171,224)" text-rendering="geometricPrecision" stroke-miterlimit="1.6" shape-rendering="geometricPrecision" transform="matrix(1,0,0,1,15,992)" stroke="rgb(91,171,224)">
          <rect fill="none" x="595.9258" width="33.0742" height="14.437" y="-827.8537"/>
        </g>
        <g font-size="9px" stroke-linecap="butt" transform="matrix(1,0,0,1,15,992)" text-rendering="geometricPrecision" font-family="'Gill Sans MT'" shape-rendering="geometricPrecision" stroke-miterlimit="1.45">
          <text x="597.9258" xml:space="preserve" y="-817.4909" stroke="none">Original</text>
        </g>
      </g>
    </g>
    <g id="y.edge.3">
      <g text-rendering="geometricPrecision" stroke-miterlimit="1.45" shape-rendering="geometricPrecision" transform="matrix(1,0,0,1,15,992)" stroke-linecap="butt">
        <path fill="none" d="M100 -728.9167 L100 -475.3333 L100.625 -470.9583 L102.5 -467.8333 L105.625 -465.9583 L110 -465.3333 L512.0097 -465.3333"/>
        <path d="M520.0097 -465.3333 L508.0097 -470.3333 L511.0097 -465.3333 L508.0097 -460.3333 Z" stroke="none"/>
      </g>
      <g>
        <g stroke-linecap="butt" transform="matrix(1,0,0,1,15,992)" fill="rgb(218,231,247)" text-rendering="geometricPrecision" shape-rendering="geometricPrecision" stroke="rgb(218,231,247)" stroke-miterlimit="1.45">
          <rect x="257.5837" width="33.0742" height="14.437" y="-481.7703" stroke="none"/>
        </g>
        <g fill="rgb(91,171,224)" text-rendering="geometricPrecision" stroke-miterlimit="1.6" shape-rendering="geometricPrecision" transform="matrix(1,0,0,1,15,992)" stroke="rgb(91,171,224)">
          <rect fill="none" x="257.5837" width="33.0742" height="14.437" y="-481.7703"/>
        </g>
        <g font-size="9px" stroke-linecap="butt" transform="matrix(1,0,0,1,15,992)" text-rendering="geometricPrecision" font-family="'Gill Sans MT'" shape-rendering="geometricPrecision" stroke-miterlimit="1.45">
          <text x="259.5836" xml:space="preserve" y="-471.4076" stroke="none">Original</text>
        </g>
      </g>
    </g>
    <g id="y.edge.8">
      <g text-rendering="geometricPrecision" stroke-miterlimit="1.45" shape-rendering="geometricPrecision" transform="matrix(1,0,0,1,15,992)" stroke-linecap="butt">
        <path fill="none" d="M400 -516.9189 L400 -500 L400.625 -495.625 L402.5 -492.5 L405.625 -490.625 L410 -490 L511.9792 -490"/>
        <path d="M519.9792 -490 L507.9792 -495 L510.9792 -490 L507.9792 -485 Z" stroke="none"/>
      </g>
    </g>
    <g id="y.edge.25">
      <g text-rendering="geometricPrecision" stroke-miterlimit="1.45" shape-rendering="geometricPrecision" transform="matrix(1,0,0,1,15,992)" stroke-linecap="butt">
        <path fill="none" d="M720.0225 -479 L1054.5 -479 L1058.875 -479.625 L1062 -481.5 L1063.875 -484.625 L1064.5 -489 L1064.5 -531.7822 L1065.125 -536.1572 L1067 -539.2822 L1070.125 -541.1572 L1074.5 -541.7822 L1124.9766 -541.7822"/>
        <path d="M1132.9766 -541.7822 L1120.9766 -546.7822 L1123.9766 -541.7822 L1120.9766 -536.7822 Z" stroke="none"/>
      </g>
    </g>
    <g id="y.edge.26">
      <g text-rendering="geometricPrecision" stroke-miterlimit="1.45" shape-rendering="geometricPrecision" transform="matrix(1,0,0,1,15,992)" stroke-linecap="butt">
        <path fill="none" d="M605 -456.5 L605 -426.7036"/>
        <path d="M605 -418.7036 L610 -430.7036 L605 -427.7036 L600 -430.7036 Z" stroke="none"/>
      </g>
    </g>
    <g id="y.edge.27">
      <g text-rendering="geometricPrecision" stroke-miterlimit="1.45" shape-rendering="geometricPrecision" transform="matrix(1,0,0,1,15,992)" stroke-linecap="butt">
        <path fill="none" d="M630 -501.5251 L630 -543 L630.625 -547.375 L632.5 -550.5 L635.625 -552.375 L640 -553 L780.0054 -553"/>
        <path d="M788.0054 -553 L776.0054 -558 L779.0054 -553 L776.0054 -548 Z" stroke="none"/>
      </g>
      <g>
        <g stroke-linecap="butt" transform="matrix(1,0,0,1,15,992)" fill="rgb(218,231,247)" text-rendering="geometricPrecision" shape-rendering="geometricPrecision" stroke="rgb(218,231,247)" stroke-miterlimit="1.45">
          <rect x="688.709" width="31.457" height="14.437" y="-551" stroke="none"/>
        </g>
        <g fill="rgb(91,171,224)" text-rendering="geometricPrecision" stroke-miterlimit="1.6" shape-rendering="geometricPrecision" transform="matrix(1,0,0,1,15,992)" stroke="rgb(91,171,224)">
          <rect fill="none" x="688.709" width="31.457" height="14.437" y="-551"/>
        </g>
        <g font-size="9px" stroke-linecap="butt" transform="matrix(1,0,0,1,15,992)" text-rendering="geometricPrecision" font-family="'Gill Sans MT'" shape-rendering="geometricPrecision" stroke-miterlimit="1.45">
          <text x="690.709" xml:space="preserve" y="-540.6372" stroke="none">Related</text>
        </g>
      </g>
    </g>
    <g visibility="hidden" id="tooltip.y.node.0" pointer-events="none">
      <g fill="rgb(255,255,225)" text-rendering="geometricPrecision" shape-rendering="geometricPrecision" font-family="'Segoe UI'" stroke="rgb(255,255,225)">
        <rect x="0" width="178" height="66" y="0" clip-path="url(#clipPath3)" stroke="none"/>
        <text fill="black" x="4" xml:space="preserve" y="14" clip-path="url(#clipPath3)" stroke="none">Description: Sub Order Reversals</text>
        <text fill="black" x="174" xml:space="preserve" y="14" clip-path="url(#clipPath3)" stroke="none"> </text>
        <text fill="black" x="4" xml:space="preserve" y="30" clip-path="url(#clipPath3)" stroke="none">Data Category: Transaction</text>
        <text fill="black" x="146" xml:space="preserve" y="30" clip-path="url(#clipPath3)" stroke="none"> </text>
        <text fill="black" x="4" xml:space="preserve" y="46" clip-path="url(#clipPath3)" stroke="none">Group: Manufacturing</text>
        <text fill="black" x="122" xml:space="preserve" y="46" clip-path="url(#clipPath3)" stroke="none"> </text>
        <text fill="black" x="4" xml:space="preserve" y="62" clip-path="url(#clipPath3)" stroke="none">Partition: Y</text>
      </g>
      <g font-family="'Segoe UI'" text-rendering="geometricPrecision" shape-rendering="geometricPrecision">
        <path d="M0 0 L178 0 L178 66 L0 66 L0 0 ZM1 1 L177 1 L177 65 L1 65 L1 1 Z" fill-rule="evenodd" clip-path="url(#clipPath3)" stroke="none"/>
      </g>
    </g>
    <g visibility="hidden" id="tooltip.y.node.1" pointer-events="none">
      <g fill="rgb(255,255,225)" text-rendering="geometricPrecision" shape-rendering="geometricPrecision" font-family="'Segoe UI'" stroke="rgb(255,255,225)">
        <rect x="0" width="174" height="66" y="0" clip-path="url(#clipPath4)" stroke="none"/>
        <text fill="black" x="4" xml:space="preserve" y="14" clip-path="url(#clipPath4)" stroke="none">Description: Sub Order Receipts</text>
        <text fill="black" x="170" xml:space="preserve" y="14" clip-path="url(#clipPath4)" stroke="none"> </text>
        <text fill="black" x="4" xml:space="preserve" y="30" clip-path="url(#clipPath4)" stroke="none">Data Category: Transaction</text>
        <text fill="black" x="146" xml:space="preserve" y="30" clip-path="url(#clipPath4)" stroke="none"> </text>
        <text fill="black" x="4" xml:space="preserve" y="46" clip-path="url(#clipPath4)" stroke="none">Group: Manufacturing</text>
        <text fill="black" x="122" xml:space="preserve" y="46" clip-path="url(#clipPath4)" stroke="none"> </text>
        <text fill="black" x="4" xml:space="preserve" y="62" clip-path="url(#clipPath4)" stroke="none">Partition: Y</text>
      </g>
      <g font-family="'Segoe UI'" text-rendering="geometricPrecision" shape-rendering="geometricPrecision">
        <path d="M0 0 L174 0 L174 66 L0 66 L0 0 ZM1 1 L173 1 L173 65 L1 65 L1 1 Z" fill-rule="evenodd" clip-path="url(#clipPath4)" stroke="none"/>
      </g>
    </g>
    <g visibility="hidden" id="tooltip.y.node.2" pointer-events="none">
      <g fill="rgb(255,255,225)" text-rendering="geometricPrecision" shape-rendering="geometricPrecision" font-family="'Segoe UI'" stroke="rgb(255,255,225)">
        <rect x="0" width="217" height="66" y="0" clip-path="url(#clipPath5)" stroke="none"/>
        <text fill="black" x="4" xml:space="preserve" y="14" clip-path="url(#clipPath5)" stroke="none">Description: Stage for Delivery Reversals</text>
        <text fill="black" x="213" xml:space="preserve" y="14" clip-path="url(#clipPath5)" stroke="none"> </text>
        <text fill="black" x="4" xml:space="preserve" y="30" clip-path="url(#clipPath5)" stroke="none">Data Category: Transaction</text>
        <text fill="black" x="146" xml:space="preserve" y="30" clip-path="url(#clipPath5)" stroke="none"> </text>
        <text fill="black" x="4" xml:space="preserve" y="46" clip-path="url(#clipPath5)" stroke="none">Group: Manufacturing</text>
        <text fill="black" x="122" xml:space="preserve" y="46" clip-path="url(#clipPath5)" stroke="none"> </text>
        <text fill="black" x="4" xml:space="preserve" y="62" clip-path="url(#clipPath5)" stroke="none">Partition: Y</text>
      </g>
      <g font-family="'Segoe UI'" text-rendering="geometricPrecision" shape-rendering="geometricPrecision">
        <path d="M0 0 L217 0 L217 66 L0 66 L0 0 ZM1 1 L216 1 L216 65 L1 65 L1 1 Z" fill-rule="evenodd" clip-path="url(#clipPath5)" stroke="none"/>
      </g>
    </g>
    <g visibility="hidden" id="tooltip.y.node.3" pointer-events="none">
      <g fill="rgb(255,255,225)" text-rendering="geometricPrecision" shape-rendering="geometricPrecision" font-family="'Segoe UI'" stroke="rgb(255,255,225)">
        <rect x="0" width="213" height="66" y="0" clip-path="url(#clipPath6)" stroke="none"/>
        <text fill="black" x="4" xml:space="preserve" y="14" clip-path="url(#clipPath6)" stroke="none">Description: Stage for Delivery Receipts</text>
        <text fill="black" x="209" xml:space="preserve" y="14" clip-path="url(#clipPath6)" stroke="none"> </text>
        <text fill="black" x="4" xml:space="preserve" y="30" clip-path="url(#clipPath6)" stroke="none">Data Category: Transaction</text>
        <text fill="black" x="146" xml:space="preserve" y="30" clip-path="url(#clipPath6)" stroke="none"> </text>
        <text fill="black" x="4" xml:space="preserve" y="46" clip-path="url(#clipPath6)" stroke="none">Group: Manufacturing</text>
        <text fill="black" x="122" xml:space="preserve" y="46" clip-path="url(#clipPath6)" stroke="none"> </text>
        <text fill="black" x="4" xml:space="preserve" y="62" clip-path="url(#clipPath6)" stroke="none">Partition: Y</text>
      </g>
      <g font-family="'Segoe UI'" text-rendering="geometricPrecision" shape-rendering="geometricPrecision">
        <path d="M0 0 L213 0 L213 66 L0 66 L0 0 ZM1 1 L212 1 L212 65 L1 65 L1 1 Z" fill-rule="evenodd" clip-path="url(#clipPath6)" stroke="none"/>
      </g>
    </g>
    <g visibility="hidden" id="tooltip.y.node.4" pointer-events="none">
      <g fill="rgb(255,255,225)" text-rendering="geometricPrecision" shape-rendering="geometricPrecision" font-family="'Segoe UI'" stroke="rgb(255,255,225)">
        <rect x="0" width="150" height="66" y="0" clip-path="url(#clipPath7)" stroke="none"/>
        <text fill="black" x="4" xml:space="preserve" y="14" clip-path="url(#clipPath7)" stroke="none">Description: Shop Orders</text>
        <text fill="black" x="135" xml:space="preserve" y="14" clip-path="url(#clipPath7)" stroke="none"> </text>
        <text fill="black" x="4" xml:space="preserve" y="30" clip-path="url(#clipPath7)" stroke="none">Data Category: Transaction</text>
        <text fill="black" x="146" xml:space="preserve" y="30" clip-path="url(#clipPath7)" stroke="none"> </text>
        <text fill="black" x="4" xml:space="preserve" y="46" clip-path="url(#clipPath7)" stroke="none">Group: Manufacturing</text>
        <text fill="black" x="122" xml:space="preserve" y="46" clip-path="url(#clipPath7)" stroke="none"> </text>
        <text fill="black" x="4" xml:space="preserve" y="62" clip-path="url(#clipPath7)" stroke="none">Partition: Y</text>
      </g>
      <g font-family="'Segoe UI'" text-rendering="geometricPrecision" shape-rendering="geometricPrecision">
        <path d="M0 0 L150 0 L150 66 L0 66 L0 0 ZM1 1 L149 1 L149 65 L1 65 L1 1 Z" fill-rule="evenodd" clip-path="url(#clipPath7)" stroke="none"/>
      </g>
    </g>
    <g visibility="hidden" id="tooltip.y.node.5" pointer-events="none">
      <g fill="rgb(255,255,225)" text-rendering="geometricPrecision" shape-rendering="geometricPrecision" font-family="'Segoe UI'" stroke="rgb(255,255,225)">
        <rect x="0" width="185" height="66" y="0" clip-path="url(#clipPath8)" stroke="none"/>
        <text fill="black" x="4" xml:space="preserve" y="14" clip-path="url(#clipPath8)" stroke="none">Description: Shop Order Reversals</text>
        <text fill="black" x="181" xml:space="preserve" y="14" clip-path="url(#clipPath8)" stroke="none"> </text>
        <text fill="black" x="4" xml:space="preserve" y="30" clip-path="url(#clipPath8)" stroke="none">Data Category: Transaction</text>
        <text fill="black" x="146" xml:space="preserve" y="30" clip-path="url(#clipPath8)" stroke="none"> </text>
        <text fill="black" x="4" xml:space="preserve" y="46" clip-path="url(#clipPath8)" stroke="none">Group: Manufacturing</text>
        <text fill="black" x="122" xml:space="preserve" y="46" clip-path="url(#clipPath8)" stroke="none"> </text>
        <text fill="black" x="4" xml:space="preserve" y="62" clip-path="url(#clipPath8)" stroke="none">Partition: Y</text>
      </g>
      <g font-family="'Segoe UI'" text-rendering="geometricPrecision" shape-rendering="geometricPrecision">
        <path d="M0 0 L185 0 L185 66 L0 66 L0 0 ZM1 1 L184 1 L184 65 L1 65 L1 1 Z" fill-rule="evenodd" clip-path="url(#clipPath8)" stroke="none"/>
      </g>
    </g>
    <g visibility="hidden" id="tooltip.y.node.6" pointer-events="none">
      <g fill="rgb(255,255,225)" text-rendering="geometricPrecision" shape-rendering="geometricPrecision" font-family="'Segoe UI'" stroke="rgb(255,255,225)">
        <rect x="0" width="181" height="66" y="0" clip-path="url(#clipPath9)" stroke="none"/>
        <text fill="black" x="4" xml:space="preserve" y="14" clip-path="url(#clipPath9)" stroke="none">Description: Shop Order Receipts</text>
        <text fill="black" x="177" xml:space="preserve" y="14" clip-path="url(#clipPath9)" stroke="none"> </text>
        <text fill="black" x="4" xml:space="preserve" y="30" clip-path="url(#clipPath9)" stroke="none">Data Category: Transaction</text>
        <text fill="black" x="146" xml:space="preserve" y="30" clip-path="url(#clipPath9)" stroke="none"> </text>
        <text fill="black" x="4" xml:space="preserve" y="46" clip-path="url(#clipPath9)" stroke="none">Group: Manufacturing</text>
        <text fill="black" x="122" xml:space="preserve" y="46" clip-path="url(#clipPath9)" stroke="none"> </text>
        <text fill="black" x="4" xml:space="preserve" y="62" clip-path="url(#clipPath9)" stroke="none">Partition: Y</text>
      </g>
      <g font-family="'Segoe UI'" text-rendering="geometricPrecision" shape-rendering="geometricPrecision">
        <path d="M0 0 L181 0 L181 66 L0 66 L0 0 ZM1 1 L180 1 L180 65 L1 65 L1 1 Z" fill-rule="evenodd" clip-path="url(#clipPath9)" stroke="none"/>
      </g>
    </g>
    <g visibility="hidden" id="tooltip.y.node.7" pointer-events="none">
      <g fill="rgb(255,255,225)" text-rendering="geometricPrecision" shape-rendering="geometricPrecision" font-family="'Segoe UI'" stroke="rgb(255,255,225)">
        <rect x="0" width="211" height="66" y="0" clip-path="url(#clipPath10)" stroke="none"/>
        <text fill="black" x="4" xml:space="preserve" y="14" clip-path="url(#clipPath10)" stroke="none">Description: Shop Order Material Plans</text>
        <text fill="black" x="207" xml:space="preserve" y="14" clip-path="url(#clipPath10)" stroke="none"> </text>
        <text fill="black" x="4" xml:space="preserve" y="30" clip-path="url(#clipPath10)" stroke="none">Data Category: Transaction</text>
        <text fill="black" x="146" xml:space="preserve" y="30" clip-path="url(#clipPath10)" stroke="none"> </text>
        <text fill="black" x="4" xml:space="preserve" y="46" clip-path="url(#clipPath10)" stroke="none">Group: Manufacturing</text>
        <text fill="black" x="122" xml:space="preserve" y="46" clip-path="url(#clipPath10)" stroke="none"> </text>
        <text fill="black" x="4" xml:space="preserve" y="62" clip-path="url(#clipPath10)" stroke="none">Partition: Y</text>
      </g>
      <g font-family="'Segoe UI'" text-rendering="geometricPrecision" shape-rendering="geometricPrecision">
        <path d="M0 0 L211 0 L211 66 L0 66 L0 0 ZM1 1 L210 1 L210 65 L1 65 L1 1 Z" fill-rule="evenodd" clip-path="url(#clipPath10)" stroke="none"/>
      </g>
    </g>
    <g visibility="hidden" id="tooltip.y.node.8" pointer-events="none">
      <g fill="rgb(255,255,225)" text-rendering="geometricPrecision" shape-rendering="geometricPrecision" font-family="'Segoe UI'" stroke="rgb(255,255,225)">
        <rect x="0" width="244" height="66" y="0" clip-path="url(#clipPath11)" stroke="none"/>
        <text fill="black" x="4" xml:space="preserve" y="14" clip-path="url(#clipPath11)" stroke="none">Description: Shop Order Material Plan Details</text>
        <text fill="black" x="240" xml:space="preserve" y="14" clip-path="url(#clipPath11)" stroke="none"> </text>
        <text fill="black" x="4" xml:space="preserve" y="30" clip-path="url(#clipPath11)" stroke="none">Data Category: Transaction</text>
        <text fill="black" x="146" xml:space="preserve" y="30" clip-path="url(#clipPath11)" stroke="none"> </text>
        <text fill="black" x="4" xml:space="preserve" y="46" clip-path="url(#clipPath11)" stroke="none">Group: Manufacturing</text>
        <text fill="black" x="122" xml:space="preserve" y="46" clip-path="url(#clipPath11)" stroke="none"> </text>
        <text fill="black" x="4" xml:space="preserve" y="62" clip-path="url(#clipPath11)" stroke="none">Partition: Y</text>
      </g>
      <g font-family="'Segoe UI'" text-rendering="geometricPrecision" shape-rendering="geometricPrecision">
        <path d="M0 0 L244 0 L244 66 L0 66 L0 0 ZM1 1 L243 1 L243 65 L1 65 L1 1 Z" fill-rule="evenodd" clip-path="url(#clipPath11)" stroke="none"/>
      </g>
    </g>
    <g visibility="hidden" id="tooltip.y.node.9" pointer-events="none">
      <g fill="rgb(255,255,225)" text-rendering="geometricPrecision" shape-rendering="geometricPrecision" font-family="'Segoe UI'" stroke="rgb(255,255,225)">
        <rect x="0" width="331" height="66" y="0" clip-path="url(#clipPath12)" stroke="none"/>
        <text fill="black" x="4" xml:space="preserve" y="14" clip-path="url(#clipPath12)" stroke="none">Description: Processed Cost Analysis Balance Lines per Period</text>
        <text fill="black" x="327" xml:space="preserve" y="14" clip-path="url(#clipPath12)" stroke="none"> </text>
        <text fill="black" x="4" xml:space="preserve" y="30" clip-path="url(#clipPath12)" stroke="none">Data Category: Transaction</text>
        <text fill="black" x="146" xml:space="preserve" y="30" clip-path="url(#clipPath12)" stroke="none"> </text>
        <text fill="black" x="4" xml:space="preserve" y="46" clip-path="url(#clipPath12)" stroke="none">Group: Manufacturing</text>
        <text fill="black" x="122" xml:space="preserve" y="46" clip-path="url(#clipPath12)" stroke="none"> </text>
        <text fill="black" x="4" xml:space="preserve" y="62" clip-path="url(#clipPath12)" stroke="none">Partition: Y</text>
      </g>
      <g font-family="'Segoe UI'" text-rendering="geometricPrecision" shape-rendering="geometricPrecision">
        <path d="M0 0 L331 0 L331 66 L0 66 L0 0 ZM1 1 L330 1 L330 65 L1 65 L1 1 Z" fill-rule="evenodd" clip-path="url(#clipPath12)" stroke="none"/>
      </g>
    </g>
    <g visibility="hidden" id="tooltip.y.node.10" pointer-events="none">
      <g fill="rgb(255,255,225)" text-rendering="geometricPrecision" shape-rendering="geometricPrecision" font-family="'Segoe UI'" stroke="rgb(255,255,225)">
        <rect x="0" width="151" height="66" y="0" clip-path="url(#clipPath13)" stroke="none"/>
        <text fill="black" x="4" xml:space="preserve" y="14" clip-path="url(#clipPath13)" stroke="none">Description: Material Issues</text>
        <text fill="black" x="147" xml:space="preserve" y="14" clip-path="url(#clipPath13)" stroke="none"> </text>
        <text fill="black" x="4" xml:space="preserve" y="30" clip-path="url(#clipPath13)" stroke="none">Data Category: Transaction</text>
        <text fill="black" x="146" xml:space="preserve" y="30" clip-path="url(#clipPath13)" stroke="none"> </text>
        <text fill="black" x="4" xml:space="preserve" y="46" clip-path="url(#clipPath13)" stroke="none">Group: Manufacturing</text>
        <text fill="black" x="122" xml:space="preserve" y="46" clip-path="url(#clipPath13)" stroke="none"> </text>
        <text fill="black" x="4" xml:space="preserve" y="62" clip-path="url(#clipPath13)" stroke="none">Partition: Y</text>
      </g>
      <g font-family="'Segoe UI'" text-rendering="geometricPrecision" shape-rendering="geometricPrecision">
        <path d="M0 0 L151 0 L151 66 L0 66 L0 0 ZM1 1 L150 1 L150 65 L1 65 L1 1 Z" fill-rule="evenodd" clip-path="url(#clipPath13)" stroke="none"/>
      </g>
    </g>
  </g>
</svg>
