<?xml version="1.0" encoding="UTF-8"?><svg xmlns="http://www.w3.org/2000/svg" xmlns:xlink="http://www.w3.org/1999/xlink" fill-opacity="1" color-rendering="auto" color-interpolation="auto" text-rendering="auto" stroke="black" stroke-linecap="square" width="1113" stroke-miterlimit="10" shape-rendering="auto" stroke-opacity="1" fill="black" stroke-dasharray="none" font-weight="normal" stroke-width="1" height="489" font-family="'Dialog'" font-style="normal" stroke-linejoin="miter" font-size="12px" stroke-dashoffset="0" image-rendering="auto">
  <!--Generated by ySVG 2.5-->
  <defs id="genericDefs"/>
  <g>
    <defs id="defs1">
      <clipPath clipPathUnits="userSpaceOnUse" id="clipPath1">
        <path d="M0 0 L1113 0 L1113 489 L0 489 L0 0 Z"/>
      </clipPath>
      <clipPath clipPathUnits="userSpaceOnUse" id="clipPath2">
        <path d="M-295 -687 L818 -687 L818 -198 L-295 -198 L-295 -687 Z"/>
      </clipPath>
      <clipPath clipPathUnits="userSpaceOnUse" id="clipPath3">
        <path d="M0 0 L0 66 L114 66 L114 0 Z"/>
      </clipPath>
      <clipPath clipPathUnits="userSpaceOnUse" id="clipPath4">
        <path d="M0 0 L0 66 L141 66 L141 0 Z"/>
      </clipPath>
      <clipPath clipPathUnits="userSpaceOnUse" id="clipPath5">
        <path d="M0 0 L0 66 L171 66 L171 0 Z"/>
      </clipPath>
      <clipPath clipPathUnits="userSpaceOnUse" id="clipPath6">
        <path d="M0 0 L0 66 L150 66 L150 0 Z"/>
      </clipPath>
      <clipPath clipPathUnits="userSpaceOnUse" id="clipPath7">
        <path d="M0 0 L0 66 L163 66 L163 0 Z"/>
      </clipPath>
      <clipPath clipPathUnits="userSpaceOnUse" id="clipPath8">
        <path d="M0 0 L0 66 L206 66 L206 0 Z"/>
      </clipPath>
      <clipPath clipPathUnits="userSpaceOnUse" id="clipPath9">
        <path d="M0 0 L0 66 L182 66 L182 0 Z"/>
      </clipPath>
      <script type="text/ecmascript"><![CDATA[      var SVGDocument = null;
      var SVGRoot = null;
      var TrueCoords = null;
      var lastElement = null;
      var initialized = null;
      var tipGroup;
      function Init(evt)
      {
         SVGDocument = evt.target.ownerDocument;
         SVGRoot = SVGDocument.documentElement;
         TrueCoords = SVGRoot.createSVGPoint();
         initialized = evt;
      };
      function GetTrueCoords(evt)
      {
         var newScale = SVGRoot.currentScale;
         var translation = SVGRoot.currentTranslate;
         TrueCoords.x = (evt.clientX - translation.x)/newScale;
         TrueCoords.y = (evt.clientY - translation.y)/newScale;
      };
      function HideTooltip( evt )
      {
         if(initialized == null) {
           Init(evt);
         }
         if(tipGroup != null) {
           tipGroup.setAttributeNS(null, 'visibility', 'hidden');
         }
      };
      function ShowTooltip( evt )
      {
         if(initialized == null) {
           Init(evt);
         }
         GetTrueCoords( evt );
         var tipScale = 1/SVGRoot.currentScale;
         var targetElement = evt.currentTarget;
         if ( lastElement != targetElement )
         {
            var targetId = targetElement.getAttributeNS(null, 'id');
            var tipId = 'tooltip.' + targetId;
            tipGroup = SVGDocument.getElementById(tipId);
            var xPos = TrueCoords.x + (10 * tipScale);
            var yPos = TrueCoords.y + (10 * tipScale);
            tipGroup.setAttributeNS(null, 'transform', 'translate(' + xPos + ',' + yPos + ') scale(' + tipScale + ')');
            tipGroup.setAttributeNS(null, 'visibility', 'visible');
         }
      };
]]></script>
    </defs>
    <g fill="white" text-rendering="geometricPrecision" shape-rendering="geometricPrecision" transform="translate(295,687)" stroke="white">
      <rect x="-295" width="1113" height="489" y="-687" clip-path="url(#clipPath2)" stroke="none"/>
    </g>
    <g onmouseout="HideTooltip(evt)" id="y.node.0" onmousemove="ShowTooltip(evt)">
      <g transform="matrix(1,0,0,1,295,687) translate(2,2)" fill-opacity="0.4941" fill="rgb(192,192,192)" text-rendering="geometricPrecision" shape-rendering="geometricPrecision" stroke="rgb(192,192,192)" stroke-opacity="0.4941">
        <rect x="601" y="-581" width="200" rx="4" ry="4" height="45" stroke="none"/>
      </g>
      <g fill="rgb(89,169,223)" text-rendering="geometricPrecision" shape-rendering="geometricPrecision" transform="matrix(1,0,0,1,295,687)" stroke="rgb(89,169,223)">
        <rect x="601" y="-581" width="200" rx="4" ry="4" height="45" stroke="none"/>
      </g>
      <g>
        <g stroke-linecap="butt" font-size="15px" transform="matrix(1,0,0,1,295,687)" fill="white" text-rendering="geometricPrecision" font-family="'Gill Sans MT'" shape-rendering="geometricPrecision" stroke="white" stroke-miterlimit="1.45">
          <text x="661.387" xml:space="preserve" y="-561.957" stroke="none">InvoiceTypes</text>
          <text x="655.7876" xml:space="preserve" y="-544.562" stroke="none">domive, #code</text>
        </g>
      </g>
      <g stroke-linecap="butt" transform="matrix(1,0,0,1,295,687)" fill="rgb(29,113,184)" text-rendering="geometricPrecision" shape-rendering="geometricPrecision" stroke="rgb(29,113,184)" stroke-miterlimit="1.45">
        <rect x="601" y="-581" fill="none" width="200" rx="4" ry="4" height="45"/>
      </g>
    </g>
    <g onmouseout="HideTooltip(evt)" id="y.node.1" onmousemove="ShowTooltip(evt)">
      <g transform="matrix(1,0,0,1,295,687) translate(2,2)" fill-opacity="0.4941" fill="rgb(192,192,192)" text-rendering="geometricPrecision" shape-rendering="geometricPrecision" stroke="rgb(192,192,192)" stroke-opacity="0.4941">
        <rect x="-280" y="-581" width="200" rx="4" ry="4" height="45" stroke="none"/>
      </g>
      <g fill="rgb(238,238,238)" text-rendering="geometricPrecision" shape-rendering="geometricPrecision" transform="matrix(1,0,0,1,295,687)" stroke="rgb(238,238,238)">
        <rect x="-280" y="-581" width="200" rx="4" ry="4" height="45" stroke="none"/>
      </g>
      <g>
        <g font-size="15px" stroke-linecap="butt" transform="matrix(1,0,0,1,295,687)" text-rendering="geometricPrecision" font-family="'Gill Sans MT'" shape-rendering="geometricPrecision" stroke-miterlimit="1.45">
          <text x="-208.905" xml:space="preserve" y="-561.957" stroke="none">PriceLists</text>
          <text x="-225.3442" xml:space="preserve" y="-544.562" stroke="none">Sales: rspl, #ID</text>
        </g>
      </g>
      <g stroke-linecap="butt" transform="matrix(1,0,0,1,295,687)" fill="rgb(68,68,68)" text-rendering="geometricPrecision" shape-rendering="geometricPrecision" stroke="rgb(68,68,68)" stroke-miterlimit="1.45">
        <rect x="-280" y="-581" fill="none" width="200" rx="4" ry="4" height="45"/>
      </g>
    </g>
    <g onmouseout="HideTooltip(evt)" id="y.node.2" onmousemove="ShowTooltip(evt)">
      <g transform="matrix(1,0,0,1,295,687) translate(2,2)" fill-opacity="0.4941" fill="rgb(192,192,192)" text-rendering="geometricPrecision" shape-rendering="geometricPrecision" stroke="rgb(192,192,192)" stroke-opacity="0.4941">
        <rect x="0" y="-581" width="200" rx="4" ry="4" height="280" stroke="none"/>
      </g>
      <g fill="rgb(220,118,0)" text-rendering="geometricPrecision" shape-rendering="geometricPrecision" transform="matrix(1,0,0,1,295,687)" stroke="rgb(220,118,0)">
        <rect x="0" y="-581" width="200" rx="4" ry="4" height="280" stroke="none"/>
      </g>
      <g>
        <g stroke-linecap="butt" font-size="15px" transform="matrix(1,0,0,1,295,687)" fill="white" text-rendering="geometricPrecision" font-family="'Gill Sans MT'" shape-rendering="geometricPrecision" stroke="white" stroke-miterlimit="1.45">
          <text x="48.1226" xml:space="preserve" y="-444.457" stroke="none">SalesInvoiceLines</text>
          <text x="90.8557" xml:space="preserve" y="-427.062" stroke="none">rsil</text>
        </g>
      </g>
      <g stroke-linecap="butt" transform="matrix(1,0,0,1,295,687)" fill="rgb(209,84,0)" text-rendering="geometricPrecision" shape-rendering="geometricPrecision" stroke="rgb(209,84,0)" stroke-miterlimit="1.45">
        <rect x="0" y="-581" fill="none" width="200" rx="4" ry="4" height="280"/>
      </g>
    </g>
    <g onmouseout="HideTooltip(evt)" id="y.node.3" onmousemove="ShowTooltip(evt)">
      <g transform="matrix(1,0,0,1,295,687) translate(2,2)" fill-opacity="0.4941" fill="rgb(192,192,192)" text-rendering="geometricPrecision" shape-rendering="geometricPrecision" stroke="rgb(192,192,192)" stroke-opacity="0.4941">
        <rect x="280" y="-581" width="200" rx="4" ry="4" height="280" stroke="none"/>
      </g>
      <g fill="rgb(220,118,0)" text-rendering="geometricPrecision" shape-rendering="geometricPrecision" transform="matrix(1,0,0,1,295,687)" stroke="rgb(220,118,0)">
        <rect x="280" y="-581" width="200" rx="4" ry="4" height="280" stroke="none"/>
      </g>
      <g>
        <g stroke-linecap="butt" font-size="15px" transform="matrix(1,0,0,1,295,687)" fill="white" text-rendering="geometricPrecision" font-family="'Gill Sans MT'" shape-rendering="geometricPrecision" stroke="white" stroke-miterlimit="1.45">
          <text x="340.7861" xml:space="preserve" y="-444.457" stroke="none">SalesInvoices</text>
          <text x="331.7297" xml:space="preserve" y="-427.062" stroke="none">rsie, #InvoiceID</text>
        </g>
      </g>
      <g stroke-linecap="butt" transform="matrix(1,0,0,1,295,687)" fill="rgb(209,84,0)" text-rendering="geometricPrecision" shape-rendering="geometricPrecision" stroke="rgb(209,84,0)" stroke-miterlimit="1.45">
        <rect x="280" y="-581" fill="none" width="200" rx="4" ry="4" height="280"/>
      </g>
    </g>
    <g onmouseout="HideTooltip(evt)" id="y.node.4" onmousemove="ShowTooltip(evt)">
      <g transform="matrix(1,0,0,1,295,687) translate(2,2)" fill-opacity="0.4941" fill="rgb(192,192,192)" text-rendering="geometricPrecision" shape-rendering="geometricPrecision" stroke="rgb(192,192,192)" stroke-opacity="0.4941">
        <rect x="-280" y="-346" width="200" rx="4" ry="4" height="45" stroke="none"/>
      </g>
      <g fill="rgb(238,238,238)" text-rendering="geometricPrecision" shape-rendering="geometricPrecision" transform="matrix(1,0,0,1,295,687)" stroke="rgb(238,238,238)">
        <rect x="-280" y="-346" width="200" rx="4" ry="4" height="45" stroke="none"/>
      </g>
      <g>
        <g font-size="15px" stroke-linecap="butt" transform="matrix(1,0,0,1,295,687)" text-rendering="geometricPrecision" font-family="'Gill Sans MT'" shape-rendering="geometricPrecision" stroke-miterlimit="1.45">
          <text x="-217.1741" xml:space="preserve" y="-326.957" stroke="none">SalesOrders</text>
          <text x="-265.6421" xml:space="preserve" y="-309.562" stroke="none">Sales: rsod, #OrderNumber</text>
        </g>
      </g>
      <g stroke-linecap="butt" transform="matrix(1,0,0,1,295,687)" fill="rgb(68,68,68)" text-rendering="geometricPrecision" shape-rendering="geometricPrecision" stroke="rgb(68,68,68)" stroke-miterlimit="1.45">
        <rect x="-280" y="-346" fill="none" width="200" rx="4" ry="4" height="45"/>
      </g>
    </g>
    <g onmouseout="HideTooltip(evt)" id="y.node.5" onmousemove="ShowTooltip(evt)">
      <g transform="matrix(1,0,0,1,295,687) translate(2,2)" fill-opacity="0.4941" fill="rgb(192,192,192)" text-rendering="geometricPrecision" shape-rendering="geometricPrecision" stroke="rgb(192,192,192)" stroke-opacity="0.4941">
        <rect x="0" y="-260.5" width="200" rx="4" ry="4" height="45" stroke="none"/>
      </g>
      <g fill="rgb(238,238,238)" text-rendering="geometricPrecision" shape-rendering="geometricPrecision" transform="matrix(1,0,0,1,295,687)" stroke="rgb(238,238,238)">
        <rect x="0" y="-260.5" width="200" rx="4" ry="4" height="45" stroke="none"/>
      </g>
      <g>
        <g font-size="15px" stroke-linecap="butt" transform="matrix(1,0,0,1,295,687)" text-rendering="geometricPrecision" font-family="'Gill Sans MT'" shape-rendering="geometricPrecision" stroke-miterlimit="1.45">
          <text x="50.1624" xml:space="preserve" y="-241.457" stroke="none">SalesOrderLines</text>
          <text x="52.3193" xml:space="preserve" y="-224.062" stroke="none">Sales: rsoe, #ID</text>
        </g>
      </g>
      <g stroke-linecap="butt" transform="matrix(1,0,0,1,295,687)" fill="rgb(68,68,68)" text-rendering="geometricPrecision" shape-rendering="geometricPrecision" stroke="rgb(68,68,68)" stroke-miterlimit="1.45">
        <rect x="0" y="-260.5" fill="none" width="200" rx="4" ry="4" height="45"/>
      </g>
    </g>
    <g onmouseout="HideTooltip(evt)" id="y.node.6" onmousemove="ShowTooltip(evt)">
      <g fill="rgb(204,204,204)" text-rendering="geometricPrecision" shape-rendering="geometricPrecision" transform="matrix(1,0,0,1,295,687) translate(2,2)" stroke="rgb(204,204,204)">
        <rect x="-280" y="-464.5" width="200" rx="4" ry="4" height="45" stroke="none"/>
      </g>
      <g fill="rgb(238,238,238)" text-rendering="geometricPrecision" shape-rendering="geometricPrecision" transform="matrix(1,0,0,1,295,687)" stroke="rgb(238,238,238)">
        <rect x="-280" y="-464.5" width="200" rx="4" ry="4" height="45" stroke="none"/>
      </g>
      <g>
        <g font-size="15px" stroke-linecap="butt" transform="matrix(1,0,0,1,295,687)" text-rendering="geometricPrecision" font-family="'Gill Sans MT'" shape-rendering="geometricPrecision" stroke-miterlimit="1.45">
          <text x="-196.6333" xml:space="preserve" y="-445.457" stroke="none">Items</text>
          <text x="-238.0884" xml:space="preserve" y="-428.062" stroke="none">Logistics: ritm, #ID</text>
        </g>
      </g>
      <g stroke-linecap="butt" transform="matrix(1,0,0,1,295,687)" fill="rgb(68,68,68)" text-rendering="geometricPrecision" shape-rendering="geometricPrecision" stroke="rgb(68,68,68)" stroke-miterlimit="1.45">
        <rect x="-280" y="-464.5" fill="none" width="200" rx="4" ry="4" height="45"/>
      </g>
    </g>
    <g onmouseout="HideTooltip(evt)" id="y.node.7" onmousemove="ShowTooltip(evt)">
      <g fill="rgb(204,204,204)" text-rendering="geometricPrecision" shape-rendering="geometricPrecision" transform="matrix(1,0,0,1,295,687) translate(2,2)" stroke="rgb(204,204,204)">
        <rect x="601" y="-514.5" width="200" rx="4" ry="4" height="45" stroke="none"/>
      </g>
      <g fill="rgb(238,238,238)" text-rendering="geometricPrecision" shape-rendering="geometricPrecision" transform="matrix(1,0,0,1,295,687)" stroke="rgb(238,238,238)">
        <rect x="601" y="-514.5" width="200" rx="4" ry="4" height="45" stroke="none"/>
      </g>
      <g>
        <g font-size="15px" stroke-linecap="butt" transform="matrix(1,0,0,1,295,687)" text-rendering="geometricPrecision" font-family="'Gill Sans MT'" shape-rendering="geometricPrecision" stroke-miterlimit="1.45">
          <text x="669.5388" xml:space="preserve" y="-495.457" stroke="none">Addresses</text>
          <text x="640.1907" xml:space="preserve" y="-478.062" stroke="none">Accounts: rads, #ID</text>
        </g>
      </g>
      <g stroke-linecap="butt" transform="matrix(1,0,0,1,295,687)" fill="rgb(68,68,68)" text-rendering="geometricPrecision" shape-rendering="geometricPrecision" stroke="rgb(68,68,68)" stroke-miterlimit="1.45">
        <rect x="601" y="-514.5" fill="none" width="200" rx="4" ry="4" height="45"/>
      </g>
    </g>
    <g onmouseout="HideTooltip(evt)" id="y.node.8" onmousemove="ShowTooltip(evt)">
      <g fill="rgb(204,204,204)" text-rendering="geometricPrecision" shape-rendering="geometricPrecision" transform="matrix(1,0,0,1,295,687) translate(2,2)" stroke="rgb(204,204,204)">
        <rect x="601" y="-346" width="200" rx="4" ry="4" height="45" stroke="none"/>
      </g>
      <g fill="rgb(238,238,238)" text-rendering="geometricPrecision" shape-rendering="geometricPrecision" transform="matrix(1,0,0,1,295,687)" stroke="rgb(238,238,238)">
        <rect x="601" y="-346" width="200" rx="4" ry="4" height="45" stroke="none"/>
      </g>
      <g>
        <g font-size="15px" stroke-linecap="butt" transform="matrix(1,0,0,1,295,687)" text-rendering="geometricPrecision" font-family="'Gill Sans MT'" shape-rendering="geometricPrecision" stroke-miterlimit="1.45">
          <text x="672.4062" xml:space="preserve" y="-326.957" stroke="none">Accounts</text>
          <text x="641.1172" xml:space="preserve" y="-309.562" stroke="none">Accounts: ract, #ID</text>
        </g>
      </g>
      <g stroke-linecap="butt" transform="matrix(1,0,0,1,295,687)" fill="rgb(68,68,68)" text-rendering="geometricPrecision" shape-rendering="geometricPrecision" stroke="rgb(68,68,68)" stroke-miterlimit="1.45">
        <rect x="601" y="-346" fill="none" width="200" rx="4" ry="4" height="45"/>
      </g>
    </g>
    <g onmouseout="HideTooltip(evt)" id="y.node.9" onmousemove="ShowTooltip(evt)">
      <g fill="rgb(204,204,204)" text-rendering="geometricPrecision" shape-rendering="geometricPrecision" transform="matrix(1,0,0,1,295,687) translate(2,2)" stroke="rgb(204,204,204)">
        <rect x="0" y="-671.5" width="200" rx="4" ry="4" height="45" stroke="none"/>
      </g>
      <g fill="rgb(238,238,238)" text-rendering="geometricPrecision" shape-rendering="geometricPrecision" transform="matrix(1,0,0,1,295,687)" stroke="rgb(238,238,238)">
        <rect x="0" y="-671.5" width="200" rx="4" ry="4" height="45" stroke="none"/>
      </g>
      <g>
        <g font-size="15px" stroke-linecap="butt" transform="matrix(1,0,0,1,295,687)" text-rendering="geometricPrecision" font-family="'Gill Sans MT'" shape-rendering="geometricPrecision" stroke-miterlimit="1.45">
          <text x="59.6143" xml:space="preserve" y="-652.457" stroke="none">Subscriptions</text>
          <text x="14.021" xml:space="preserve" y="-635.062" stroke="none">Subscription: rscn, #EntryID</text>
        </g>
      </g>
      <g stroke-linecap="butt" transform="matrix(1,0,0,1,295,687)" fill="rgb(68,68,68)" text-rendering="geometricPrecision" shape-rendering="geometricPrecision" stroke="rgb(68,68,68)" stroke-miterlimit="1.45">
        <rect x="0" y="-671.5" fill="none" width="200" rx="4" ry="4" height="45"/>
      </g>
    </g>
    <g onmouseout="HideTooltip(evt)" id="y.node.10" onmousemove="ShowTooltip(evt)">
      <g fill="rgb(204,204,204)" text-rendering="geometricPrecision" shape-rendering="geometricPrecision" transform="matrix(1,0,0,1,295,687) translate(2,2)" stroke="rgb(204,204,204)">
        <rect x="-280" y="-405.25" width="200" rx="4" ry="4" height="45" stroke="none"/>
      </g>
      <g fill="rgb(238,238,238)" text-rendering="geometricPrecision" shape-rendering="geometricPrecision" transform="matrix(1,0,0,1,295,687)" stroke="rgb(238,238,238)">
        <rect x="-280" y="-405.25" width="200" rx="4" ry="4" height="45" stroke="none"/>
      </g>
      <g>
        <g font-size="15px" stroke-linecap="butt" transform="matrix(1,0,0,1,295,687)" text-rendering="geometricPrecision" font-family="'Gill Sans MT'" shape-rendering="geometricPrecision" stroke-miterlimit="1.45">
          <text x="-204.8364" xml:space="preserve" y="-386.207" stroke="none">Projects</text>
          <text x="-232.1484" xml:space="preserve" y="-368.812" stroke="none">Project: rpjt, #ID</text>
        </g>
      </g>
      <g stroke-linecap="butt" transform="matrix(1,0,0,1,295,687)" fill="rgb(68,68,68)" text-rendering="geometricPrecision" shape-rendering="geometricPrecision" stroke="rgb(68,68,68)" stroke-miterlimit="1.45">
        <rect x="-280" y="-405.25" fill="none" width="200" rx="4" ry="4" height="45"/>
      </g>
    </g>
    <g onmouseout="HideTooltip(evt)" id="y.node.11" onmousemove="ShowTooltip(evt)">
      <g fill="rgb(204,204,204)" text-rendering="geometricPrecision" shape-rendering="geometricPrecision" transform="matrix(1,0,0,1,295,687) translate(2,2)" stroke="rgb(204,204,204)">
        <rect x="-280" y="-523.75" width="200" rx="4" ry="4" height="45" stroke="none"/>
      </g>
      <g fill="rgb(238,238,238)" text-rendering="geometricPrecision" shape-rendering="geometricPrecision" transform="matrix(1,0,0,1,295,687)" stroke="rgb(238,238,238)">
        <rect x="-280" y="-523.75" width="200" rx="4" ry="4" height="45" stroke="none"/>
      </g>
      <g>
        <g font-size="15px" stroke-linecap="butt" transform="matrix(1,0,0,1,295,687)" text-rendering="geometricPrecision" font-family="'Gill Sans MT'" shape-rendering="geometricPrecision" stroke-miterlimit="1.45">
          <text x="-217.8223" xml:space="preserve" y="-504.707" stroke="none">GLAccounts</text>
          <text x="-236.8433" xml:space="preserve" y="-487.312" stroke="none">Financial: rgat, #ID</text>
        </g>
      </g>
      <g stroke-linecap="butt" transform="matrix(1,0,0,1,295,687)" fill="rgb(68,68,68)" text-rendering="geometricPrecision" shape-rendering="geometricPrecision" stroke="rgb(68,68,68)" stroke-miterlimit="1.45">
        <rect x="-280" y="-523.75" fill="none" width="200" rx="4" ry="4" height="45"/>
      </g>
    </g>
    <g onmouseout="HideTooltip(evt)" id="y.node.12" onmousemove="ShowTooltip(evt)">
      <g fill="rgb(204,204,204)" text-rendering="geometricPrecision" shape-rendering="geometricPrecision" transform="matrix(1,0,0,1,295,687) translate(2,2)" stroke="rgb(204,204,204)">
        <rect x="280" y="-671.5" width="200" rx="4" ry="4" height="45" stroke="none"/>
      </g>
      <g fill="rgb(238,238,238)" text-rendering="geometricPrecision" shape-rendering="geometricPrecision" transform="matrix(1,0,0,1,295,687)" stroke="rgb(238,238,238)">
        <rect x="280" y="-671.5" width="200" rx="4" ry="4" height="45" stroke="none"/>
      </g>
      <g>
        <g font-size="15px" stroke-linecap="butt" transform="matrix(1,0,0,1,295,687)" text-rendering="geometricPrecision" font-family="'Gill Sans MT'" shape-rendering="geometricPrecision" stroke-miterlimit="1.45">
          <text x="320.4871" xml:space="preserve" y="-652.457" stroke="none">PaymentConditions</text>
          <text x="318.7109" xml:space="preserve" y="-635.062" stroke="none">Cashflow: rcpn, #ID</text>
        </g>
      </g>
      <g stroke-linecap="butt" transform="matrix(1,0,0,1,295,687)" fill="rgb(68,68,68)" text-rendering="geometricPrecision" shape-rendering="geometricPrecision" stroke="rgb(68,68,68)" stroke-miterlimit="1.45">
        <rect x="280" y="-671.5" fill="none" width="200" rx="4" ry="4" height="45"/>
      </g>
    </g>
    <g onmouseout="HideTooltip(evt)" id="y.node.13" onmousemove="ShowTooltip(evt)">
      <g fill="rgb(204,204,204)" text-rendering="geometricPrecision" shape-rendering="geometricPrecision" transform="matrix(1,0,0,1,295,687) translate(2,2)" stroke="rgb(204,204,204)">
        <rect x="601" y="-430.25" width="200" rx="4" ry="4" height="45" stroke="none"/>
      </g>
      <g fill="rgb(238,238,238)" text-rendering="geometricPrecision" shape-rendering="geometricPrecision" transform="matrix(1,0,0,1,295,687)" stroke="rgb(238,238,238)">
        <rect x="601" y="-430.25" width="200" rx="4" ry="4" height="45" stroke="none"/>
      </g>
      <g>
        <g font-size="15px" stroke-linecap="butt" transform="matrix(1,0,0,1,295,687)" text-rendering="geometricPrecision" font-family="'Gill Sans MT'" shape-rendering="geometricPrecision" stroke-miterlimit="1.45">
          <text x="673.4353" xml:space="preserve" y="-411.207" stroke="none">Contacts</text>
          <text x="641.8203" xml:space="preserve" y="-393.812" stroke="none">Accounts: rctt, #ID</text>
        </g>
      </g>
      <g stroke-linecap="butt" transform="matrix(1,0,0,1,295,687)" fill="rgb(68,68,68)" text-rendering="geometricPrecision" shape-rendering="geometricPrecision" stroke="rgb(68,68,68)" stroke-miterlimit="1.45">
        <rect x="601" y="-430.25" fill="none" width="200" rx="4" ry="4" height="45"/>
      </g>
    </g>
    <g id="y.edge.16">
      <g text-rendering="geometricPrecision" stroke-miterlimit="1.45" shape-rendering="geometricPrecision" transform="matrix(1,0,0,1,295,687)" stroke-linecap="butt">
        <path fill="none" d="M-0.0121 -558.5 L-72.0311 -558.5"/>
        <path d="M-80.0311 -558.5 L-68.0311 -553.5 L-71.0311 -558.5 L-68.0311 -563.5 Z" stroke="none"/>
      </g>
    </g>
    <g id="y.edge.6">
      <g text-rendering="geometricPrecision" stroke-miterlimit="1.45" shape-rendering="geometricPrecision" transform="matrix(1,0,0,1,295,687)" stroke-linecap="butt">
        <path fill="none" d="M279.9814 -320.75 L259 -320.75 L254.625 -320.125 L251.5 -318.25 L249.625 -315.125 L249 -310.75 L249 -295 L249.625 -290.625 L251.5 -287.5 L254.625 -285.625 L259 -285 L299 -285 L306.5 -285.999 L308.375 -287.2478 L309 -288.9961 L309 -292.9922"/>
        <path d="M309 -300.9922 L304 -288.9922 L309 -291.9922 L314 -288.9922 Z" stroke="none"/>
      </g>
    </g>
    <g id="y.edge.17">
      <g text-rendering="geometricPrecision" stroke-miterlimit="1.45" shape-rendering="geometricPrecision" transform="matrix(1,0,0,1,295,687)" stroke-linecap="butt">
        <path fill="none" d="M199.9756 -441 L272.0109 -441"/>
        <path d="M280.0109 -441 L268.0109 -446 L271.0109 -441 L268.0109 -436 Z" stroke="none"/>
      </g>
    </g>
    <g id="y.edge.14">
      <g text-rendering="geometricPrecision" stroke-miterlimit="1.45" shape-rendering="geometricPrecision" transform="matrix(1,0,0,1,295,687)" stroke-linecap="butt">
        <path fill="none" d="M479.9673 -559 L593.0285 -559"/>
        <path d="M601.0285 -559 L589.0285 -564 L592.0285 -559 L589.0285 -554 Z" stroke="none"/>
      </g>
    </g>
    <g id="y.edge.2">
      <g text-rendering="geometricPrecision" stroke-miterlimit="1.45" shape-rendering="geometricPrecision" transform="matrix(1,0,0,1,295,687)" stroke-linecap="butt">
        <path fill="none" d="M-0.009 -323.5 L-72 -323.5"/>
        <path d="M-80 -323.5 L-68 -318.5 L-71 -323.5 L-68 -328.5 Z" stroke="none"/>
      </g>
    </g>
    <g id="y.edge.1">
      <g text-rendering="geometricPrecision" stroke-miterlimit="1.45" shape-rendering="geometricPrecision" transform="matrix(1,0,0,1,295,687)" stroke-linecap="butt">
        <path fill="none" d="M100 -301.0264 L100 -268.5396"/>
        <path d="M100 -260.5396 L105 -272.5396 L100 -269.5396 L95 -272.5396 Z" stroke="none"/>
      </g>
    </g>
    <g id="y.edge.4">
      <g text-rendering="geometricPrecision" stroke-miterlimit="1.45" shape-rendering="geometricPrecision" transform="matrix(1,0,0,1,295,687)" stroke-linecap="butt">
        <path fill="none" d="M0.0369 -442 L-72 -442"/>
        <path d="M-80 -442 L-68 -437 L-71 -442 L-68 -447 Z" stroke="none"/>
      </g>
    </g>
    <g id="y.edge.10">
      <g text-rendering="geometricPrecision" stroke-miterlimit="1.45" shape-rendering="geometricPrecision" transform="matrix(1,0,0,1,295,687)" stroke-linecap="butt">
        <path fill="none" d="M479.9893 -492 L592.9705 -492"/>
        <path d="M600.9705 -492 L588.9705 -497 L591.9705 -492 L588.9705 -487 Z" stroke="none"/>
      </g>
      <g>
        <g stroke-linecap="butt" transform="matrix(1,0,0,1,295,687)" fill="rgb(218,231,247)" text-rendering="geometricPrecision" shape-rendering="geometricPrecision" stroke="rgb(218,231,247)" stroke-miterlimit="1.45">
          <rect x="519.887" width="41.2261" height="14.437" y="-508.437" stroke="none"/>
        </g>
        <g fill="rgb(91,171,224)" text-rendering="geometricPrecision" stroke-miterlimit="1.6" shape-rendering="geometricPrecision" transform="matrix(1,0,0,1,295,687)" stroke="rgb(91,171,224)">
          <rect fill="none" x="519.887" width="41.2261" height="14.437" y="-508.437"/>
        </g>
        <g font-size="9px" stroke-linecap="butt" transform="matrix(1,0,0,1,295,687)" text-rendering="geometricPrecision" font-family="'Gill Sans MT'" shape-rendering="geometricPrecision" stroke-miterlimit="1.45">
          <text x="521.887" xml:space="preserve" y="-498.0742" stroke="none">DeliverTo</text>
        </g>
      </g>
    </g>
    <g id="y.edge.7">
      <g text-rendering="geometricPrecision" stroke-miterlimit="1.45" shape-rendering="geometricPrecision" transform="matrix(1,0,0,1,295,687)" stroke-linecap="butt">
        <path fill="none" d="M480.0076 -323.5 L592.9705 -323.5"/>
        <path d="M600.9705 -323.5 L588.9705 -328.5 L591.9705 -323.5 L588.9705 -318.5 Z" stroke="none"/>
      </g>
      <g>
        <g stroke-linecap="butt" transform="matrix(1,0,0,1,295,687)" fill="rgb(218,231,247)" text-rendering="geometricPrecision" shape-rendering="geometricPrecision" stroke="rgb(218,231,247)" stroke-miterlimit="1.45">
          <rect x="520.3572" width="40.2856" height="14.437" y="-339.937" stroke="none"/>
        </g>
        <g fill="rgb(91,171,224)" text-rendering="geometricPrecision" stroke-miterlimit="1.6" shape-rendering="geometricPrecision" transform="matrix(1,0,0,1,295,687)" stroke="rgb(91,171,224)">
          <rect fill="none" x="520.3572" width="40.2856" height="14.437" y="-339.937"/>
        </g>
        <g font-size="9px" stroke-linecap="butt" transform="matrix(1,0,0,1,295,687)" text-rendering="geometricPrecision" font-family="'Gill Sans MT'" shape-rendering="geometricPrecision" stroke-miterlimit="1.45">
          <text x="522.3572" xml:space="preserve" y="-329.5742" stroke="none">InvoiceTo</text>
        </g>
      </g>
    </g>
    <g id="y.edge.8">
      <g text-rendering="geometricPrecision" stroke-miterlimit="1.45" shape-rendering="geometricPrecision" transform="matrix(1,0,0,1,295,687)" stroke-linecap="butt">
        <path fill="none" d="M480.0212 -308.5 L592.9705 -308.5"/>
        <path d="M600.9705 -308.5 L588.9705 -313.5 L591.9705 -308.5 L588.9705 -303.5 Z" stroke="none"/>
      </g>
      <g>
        <g stroke-linecap="butt" transform="matrix(1,0,0,1,295,687)" fill="rgb(218,231,247)" text-rendering="geometricPrecision" shape-rendering="geometricPrecision" stroke="rgb(218,231,247)" stroke-miterlimit="1.45">
          <rect x="519.887" width="41.2261" height="14.437" y="-324.937" stroke="none"/>
        </g>
        <g fill="rgb(91,171,224)" text-rendering="geometricPrecision" stroke-miterlimit="1.6" shape-rendering="geometricPrecision" transform="matrix(1,0,0,1,295,687)" stroke="rgb(91,171,224)">
          <rect fill="none" x="519.887" width="41.2261" height="14.437" y="-324.937"/>
        </g>
        <g font-size="9px" stroke-linecap="butt" transform="matrix(1,0,0,1,295,687)" text-rendering="geometricPrecision" font-family="'Gill Sans MT'" shape-rendering="geometricPrecision" stroke-miterlimit="1.45">
          <text x="521.887" xml:space="preserve" y="-314.5742" stroke="none">DeliverTo</text>
        </g>
      </g>
    </g>
    <g id="y.edge.13">
      <g text-rendering="geometricPrecision" stroke-miterlimit="1.45" shape-rendering="geometricPrecision" transform="matrix(1,0,0,1,295,687)" stroke-linecap="butt">
        <path fill="none" d="M479.9661 -338.5 L592.9705 -338.5"/>
        <path d="M600.9705 -338.5 L588.9705 -343.5 L591.9705 -338.5 L588.9705 -333.5 Z" stroke="none"/>
      </g>
      <g>
        <g stroke-linecap="butt" transform="matrix(1,0,0,1,295,687)" fill="rgb(218,231,247)" text-rendering="geometricPrecision" shape-rendering="geometricPrecision" stroke="rgb(218,231,247)" stroke-miterlimit="1.45">
          <rect x="517.8281" width="45.3438" height="14.437" y="-354.937" stroke="none"/>
        </g>
        <g fill="rgb(91,171,224)" text-rendering="geometricPrecision" stroke-miterlimit="1.6" shape-rendering="geometricPrecision" transform="matrix(1,0,0,1,295,687)" stroke="rgb(91,171,224)">
          <rect fill="none" x="517.8281" width="45.3438" height="14.437" y="-354.937"/>
        </g>
        <g font-size="9px" stroke-linecap="butt" transform="matrix(1,0,0,1,295,687)" text-rendering="geometricPrecision" font-family="'Gill Sans MT'" shape-rendering="geometricPrecision" stroke-miterlimit="1.45">
          <text x="519.8281" xml:space="preserve" y="-344.5742" stroke="none">OrderedBy</text>
        </g>
      </g>
    </g>
    <g id="y.edge.0">
      <g text-rendering="geometricPrecision" stroke-miterlimit="1.45" shape-rendering="geometricPrecision" transform="matrix(1,0,0,1,295,687)" stroke-linecap="butt">
        <path fill="none" d="M100 -581.0076 L100 -618.5"/>
        <path d="M100 -626.5 L95 -614.5 L100 -617.5 L105 -614.5 Z" stroke="none"/>
      </g>
    </g>
    <g id="y.edge.3">
      <g text-rendering="geometricPrecision" stroke-miterlimit="1.45" shape-rendering="geometricPrecision" transform="matrix(1,0,0,1,295,687)" stroke-linecap="butt">
        <path fill="none" d="M0.0405 -382.75 L-72 -382.75"/>
        <path d="M-80 -382.75 L-68 -377.75 L-71 -382.75 L-68 -387.75 Z" stroke="none"/>
      </g>
    </g>
    <g id="y.edge.5">
      <g text-rendering="geometricPrecision" stroke-miterlimit="1.45" shape-rendering="geometricPrecision" transform="matrix(1,0,0,1,295,687)" stroke-linecap="butt">
        <path fill="none" d="M0.0293 -501.25 L-72 -501.25"/>
        <path d="M-80 -501.25 L-68 -496.25 L-71 -501.25 L-68 -506.25 Z" stroke="none"/>
      </g>
    </g>
    <g id="y.edge.15">
      <g text-rendering="geometricPrecision" stroke-miterlimit="1.45" shape-rendering="geometricPrecision" transform="matrix(1,0,0,1,295,687)" stroke-linecap="butt">
        <path fill="none" d="M380 -581.0444 L380 -618.5"/>
        <path d="M380 -626.5 L375 -614.5 L380 -617.5 L385 -614.5 Z" stroke="none"/>
      </g>
      <g>
        <g stroke-linecap="butt" transform="matrix(1,0,0,1,295,687)" fill="rgb(218,231,247)" text-rendering="geometricPrecision" shape-rendering="geometricPrecision" stroke="rgb(218,231,247)" stroke-miterlimit="1.45">
          <rect x="382" width="71.9526" height="14.437" y="-605.562" stroke="none"/>
        </g>
        <g fill="rgb(91,171,224)" text-rendering="geometricPrecision" stroke-miterlimit="1.6" shape-rendering="geometricPrecision" transform="matrix(1,0,0,1,295,687)" stroke="rgb(91,171,224)">
          <rect fill="none" x="382" width="71.9526" height="14.437" y="-605.562"/>
        </g>
        <g font-size="9px" stroke-linecap="butt" transform="matrix(1,0,0,1,295,687)" text-rendering="geometricPrecision" font-family="'Gill Sans MT'" shape-rendering="geometricPrecision" stroke-miterlimit="1.45">
          <text x="384" xml:space="preserve" y="-595.1992" stroke="none">PaymentCondition</text>
        </g>
      </g>
    </g>
    <g id="y.edge.9">
      <g text-rendering="geometricPrecision" stroke-miterlimit="1.45" shape-rendering="geometricPrecision" transform="matrix(1,0,0,1,295,687)" stroke-linecap="butt">
        <path fill="none" d="M479.9905 -407.75 L592.9705 -407.75"/>
        <path d="M600.9705 -407.75 L588.9705 -412.75 L591.9705 -407.75 L588.9705 -402.75 Z" stroke="none"/>
      </g>
      <g>
        <g stroke-linecap="butt" transform="matrix(1,0,0,1,295,687)" fill="rgb(218,231,247)" text-rendering="geometricPrecision" shape-rendering="geometricPrecision" stroke="rgb(218,231,247)" stroke-miterlimit="1.45">
          <rect x="490.125" width="41.2261" height="14.437" y="-424.187" stroke="none"/>
        </g>
        <g fill="rgb(91,171,224)" text-rendering="geometricPrecision" stroke-miterlimit="1.6" shape-rendering="geometricPrecision" transform="matrix(1,0,0,1,295,687)" stroke="rgb(91,171,224)">
          <rect fill="none" x="490.125" width="41.2261" height="14.437" y="-424.187"/>
        </g>
        <g font-size="9px" stroke-linecap="butt" transform="matrix(1,0,0,1,295,687)" text-rendering="geometricPrecision" font-family="'Gill Sans MT'" shape-rendering="geometricPrecision" stroke-miterlimit="1.45">
          <text x="492.125" xml:space="preserve" y="-413.8242" stroke="none">DeliverTo</text>
        </g>
      </g>
    </g>
    <g id="y.edge.11">
      <g text-rendering="geometricPrecision" stroke-miterlimit="1.45" shape-rendering="geometricPrecision" transform="matrix(1,0,0,1,295,687)" stroke-linecap="butt">
        <path fill="none" d="M479.9905 -392.75 L592.9705 -392.75"/>
        <path d="M600.9705 -392.75 L588.9705 -397.75 L591.9705 -392.75 L588.9705 -387.75 Z" stroke="none"/>
      </g>
      <g>
        <g stroke-linecap="butt" transform="matrix(1,0,0,1,295,687)" fill="rgb(218,231,247)" text-rendering="geometricPrecision" shape-rendering="geometricPrecision" stroke="rgb(218,231,247)" stroke-miterlimit="1.45">
          <rect x="490.125" width="45.3438" height="14.437" y="-409.187" stroke="none"/>
        </g>
        <g fill="rgb(91,171,224)" text-rendering="geometricPrecision" stroke-miterlimit="1.6" shape-rendering="geometricPrecision" transform="matrix(1,0,0,1,295,687)" stroke="rgb(91,171,224)">
          <rect fill="none" x="490.125" width="45.3438" height="14.437" y="-409.187"/>
        </g>
        <g font-size="9px" stroke-linecap="butt" transform="matrix(1,0,0,1,295,687)" text-rendering="geometricPrecision" font-family="'Gill Sans MT'" shape-rendering="geometricPrecision" stroke-miterlimit="1.45">
          <text x="492.125" xml:space="preserve" y="-398.8242" stroke="none">OrderedBy</text>
        </g>
      </g>
    </g>
    <g id="y.edge.12">
      <g text-rendering="geometricPrecision" stroke-miterlimit="1.45" shape-rendering="geometricPrecision" transform="matrix(1,0,0,1,295,687)" stroke-linecap="butt">
        <path fill="none" d="M480.0234 -422.75 L592.9705 -422.75"/>
        <path d="M600.9705 -422.75 L588.9705 -427.75 L591.9705 -422.75 L588.9705 -417.75 Z" stroke="none"/>
      </g>
      <g>
        <g stroke-linecap="butt" transform="matrix(1,0,0,1,295,687)" fill="rgb(218,231,247)" text-rendering="geometricPrecision" shape-rendering="geometricPrecision" stroke="rgb(218,231,247)" stroke-miterlimit="1.45">
          <rect x="490.125" width="40.2856" height="14.437" y="-439.187" stroke="none"/>
        </g>
        <g fill="rgb(91,171,224)" text-rendering="geometricPrecision" stroke-miterlimit="1.6" shape-rendering="geometricPrecision" transform="matrix(1,0,0,1,295,687)" stroke="rgb(91,171,224)">
          <rect fill="none" x="490.125" width="40.2856" height="14.437" y="-439.187"/>
        </g>
        <g font-size="9px" stroke-linecap="butt" transform="matrix(1,0,0,1,295,687)" text-rendering="geometricPrecision" font-family="'Gill Sans MT'" shape-rendering="geometricPrecision" stroke-miterlimit="1.45">
          <text x="492.125" xml:space="preserve" y="-428.8242" stroke="none">InvoiceTo</text>
        </g>
      </g>
    </g>
    <g visibility="hidden" id="tooltip.y.node.0" pointer-events="none">
      <g fill="rgb(255,255,225)" text-rendering="geometricPrecision" shape-rendering="geometricPrecision" font-family="'Segoe UI'" stroke="rgb(255,255,225)">
        <rect x="0" width="114" height="66" y="0" clip-path="url(#clipPath3)" stroke="none"/>
        <text fill="black" x="4" xml:space="preserve" y="14" clip-path="url(#clipPath3)" stroke="none">Description: None.</text>
        <text fill="black" x="102" xml:space="preserve" y="14" clip-path="url(#clipPath3)" stroke="none"> </text>
        <text fill="black" x="4" xml:space="preserve" y="30" clip-path="url(#clipPath3)" stroke="none">Data Category: Seed</text>
        <text fill="black" x="110" xml:space="preserve" y="30" clip-path="url(#clipPath3)" stroke="none"> </text>
        <text fill="black" x="4" xml:space="preserve" y="46" clip-path="url(#clipPath3)" stroke="none">Group: Sales</text>
        <text fill="black" x="69" xml:space="preserve" y="46" clip-path="url(#clipPath3)" stroke="none"> </text>
        <text fill="black" x="4" xml:space="preserve" y="62" clip-path="url(#clipPath3)" stroke="none">Partition: N</text>
      </g>
      <g font-family="'Segoe UI'" text-rendering="geometricPrecision" shape-rendering="geometricPrecision">
        <path d="M0 0 L114 0 L114 66 L0 66 L0 0 ZM1 1 L113 1 L113 65 L1 65 L1 1 Z" fill-rule="evenodd" clip-path="url(#clipPath3)" stroke="none"/>
      </g>
    </g>
    <g visibility="hidden" id="tooltip.y.node.1" pointer-events="none">
      <g fill="rgb(255,255,225)" text-rendering="geometricPrecision" shape-rendering="geometricPrecision" font-family="'Segoe UI'" stroke="rgb(255,255,225)">
        <rect x="0" width="141" height="66" y="0" clip-path="url(#clipPath4)" stroke="none"/>
        <text fill="black" x="4" xml:space="preserve" y="14" clip-path="url(#clipPath4)" stroke="none">Description: Price Lists</text>
        <text fill="black" x="122" xml:space="preserve" y="14" clip-path="url(#clipPath4)" stroke="none"> </text>
        <text fill="black" x="4" xml:space="preserve" y="30" clip-path="url(#clipPath4)" stroke="none">Data Category: Reference</text>
        <text fill="black" x="137" xml:space="preserve" y="30" clip-path="url(#clipPath4)" stroke="none"> </text>
        <text fill="black" x="4" xml:space="preserve" y="46" clip-path="url(#clipPath4)" stroke="none">Group: Sales</text>
        <text fill="black" x="69" xml:space="preserve" y="46" clip-path="url(#clipPath4)" stroke="none"> </text>
        <text fill="black" x="4" xml:space="preserve" y="62" clip-path="url(#clipPath4)" stroke="none">Partition: Y</text>
      </g>
      <g font-family="'Segoe UI'" text-rendering="geometricPrecision" shape-rendering="geometricPrecision">
        <path d="M0 0 L141 0 L141 66 L0 66 L0 0 ZM1 1 L140 1 L140 65 L1 65 L1 1 Z" fill-rule="evenodd" clip-path="url(#clipPath4)" stroke="none"/>
      </g>
    </g>
    <g visibility="hidden" id="tooltip.y.node.2" pointer-events="none">
      <g fill="rgb(255,255,225)" text-rendering="geometricPrecision" shape-rendering="geometricPrecision" font-family="'Segoe UI'" stroke="rgb(255,255,225)">
        <rect x="0" width="171" height="66" y="0" clip-path="url(#clipPath5)" stroke="none"/>
        <text fill="black" x="4" xml:space="preserve" y="14" clip-path="url(#clipPath5)" stroke="none">Description: Sales Invoice Lines</text>
        <text fill="black" x="167" xml:space="preserve" y="14" clip-path="url(#clipPath5)" stroke="none"> </text>
        <text fill="black" x="4" xml:space="preserve" y="30" clip-path="url(#clipPath5)" stroke="none">Data Category: Transaction</text>
        <text fill="black" x="146" xml:space="preserve" y="30" clip-path="url(#clipPath5)" stroke="none"> </text>
        <text fill="black" x="4" xml:space="preserve" y="46" clip-path="url(#clipPath5)" stroke="none">Group: Sales</text>
        <text fill="black" x="69" xml:space="preserve" y="46" clip-path="url(#clipPath5)" stroke="none"> </text>
        <text fill="black" x="4" xml:space="preserve" y="62" clip-path="url(#clipPath5)" stroke="none">Partition: Y</text>
      </g>
      <g font-family="'Segoe UI'" text-rendering="geometricPrecision" shape-rendering="geometricPrecision">
        <path d="M0 0 L171 0 L171 66 L0 66 L0 0 ZM1 1 L170 1 L170 65 L1 65 L1 1 Z" fill-rule="evenodd" clip-path="url(#clipPath5)" stroke="none"/>
      </g>
    </g>
    <g visibility="hidden" id="tooltip.y.node.3" pointer-events="none">
      <g fill="rgb(255,255,225)" text-rendering="geometricPrecision" shape-rendering="geometricPrecision" font-family="'Segoe UI'" stroke="rgb(255,255,225)">
        <rect x="0" width="150" height="66" y="0" clip-path="url(#clipPath6)" stroke="none"/>
        <text fill="black" x="4" xml:space="preserve" y="14" clip-path="url(#clipPath6)" stroke="none">Description: Sales Invoices</text>
        <text fill="black" x="142" xml:space="preserve" y="14" clip-path="url(#clipPath6)" stroke="none"> </text>
        <text fill="black" x="4" xml:space="preserve" y="30" clip-path="url(#clipPath6)" stroke="none">Data Category: Transaction</text>
        <text fill="black" x="146" xml:space="preserve" y="30" clip-path="url(#clipPath6)" stroke="none"> </text>
        <text fill="black" x="4" xml:space="preserve" y="46" clip-path="url(#clipPath6)" stroke="none">Group: Sales</text>
        <text fill="black" x="69" xml:space="preserve" y="46" clip-path="url(#clipPath6)" stroke="none"> </text>
        <text fill="black" x="4" xml:space="preserve" y="62" clip-path="url(#clipPath6)" stroke="none">Partition: Y</text>
      </g>
      <g font-family="'Segoe UI'" text-rendering="geometricPrecision" shape-rendering="geometricPrecision">
        <path d="M0 0 L150 0 L150 66 L0 66 L0 0 ZM1 1 L149 1 L149 65 L1 65 L1 1 Z" fill-rule="evenodd" clip-path="url(#clipPath6)" stroke="none"/>
      </g>
    </g>
    <g visibility="hidden" id="tooltip.y.node.4" pointer-events="none">
      <g fill="rgb(255,255,225)" text-rendering="geometricPrecision" shape-rendering="geometricPrecision" font-family="'Segoe UI'" stroke="rgb(255,255,225)">
        <rect x="0" width="150" height="66" y="0" clip-path="url(#clipPath6)" stroke="none"/>
        <text fill="black" x="4" xml:space="preserve" y="14" clip-path="url(#clipPath6)" stroke="none">Description: Sales Orders</text>
        <text fill="black" x="134" xml:space="preserve" y="14" clip-path="url(#clipPath6)" stroke="none"> </text>
        <text fill="black" x="4" xml:space="preserve" y="30" clip-path="url(#clipPath6)" stroke="none">Data Category: Transaction</text>
        <text fill="black" x="146" xml:space="preserve" y="30" clip-path="url(#clipPath6)" stroke="none"> </text>
        <text fill="black" x="4" xml:space="preserve" y="46" clip-path="url(#clipPath6)" stroke="none">Group: Sales</text>
        <text fill="black" x="69" xml:space="preserve" y="46" clip-path="url(#clipPath6)" stroke="none"> </text>
        <text fill="black" x="4" xml:space="preserve" y="62" clip-path="url(#clipPath6)" stroke="none">Partition: Y</text>
      </g>
      <g font-family="'Segoe UI'" text-rendering="geometricPrecision" shape-rendering="geometricPrecision">
        <path d="M0 0 L150 0 L150 66 L0 66 L0 0 ZM1 1 L149 1 L149 65 L1 65 L1 1 Z" fill-rule="evenodd" clip-path="url(#clipPath6)" stroke="none"/>
      </g>
    </g>
    <g visibility="hidden" id="tooltip.y.node.5" pointer-events="none">
      <g fill="rgb(255,255,225)" text-rendering="geometricPrecision" shape-rendering="geometricPrecision" font-family="'Segoe UI'" stroke="rgb(255,255,225)">
        <rect x="0" width="163" height="66" y="0" clip-path="url(#clipPath7)" stroke="none"/>
        <text fill="black" x="4" xml:space="preserve" y="14" clip-path="url(#clipPath7)" stroke="none">Description: Sales Order Lines</text>
        <text fill="black" x="159" xml:space="preserve" y="14" clip-path="url(#clipPath7)" stroke="none"> </text>
        <text fill="black" x="4" xml:space="preserve" y="30" clip-path="url(#clipPath7)" stroke="none">Data Category: Transaction</text>
        <text fill="black" x="146" xml:space="preserve" y="30" clip-path="url(#clipPath7)" stroke="none"> </text>
        <text fill="black" x="4" xml:space="preserve" y="46" clip-path="url(#clipPath7)" stroke="none">Group: Sales</text>
        <text fill="black" x="69" xml:space="preserve" y="46" clip-path="url(#clipPath7)" stroke="none"> </text>
        <text fill="black" x="4" xml:space="preserve" y="62" clip-path="url(#clipPath7)" stroke="none">Partition: Y</text>
      </g>
      <g font-family="'Segoe UI'" text-rendering="geometricPrecision" shape-rendering="geometricPrecision">
        <path d="M0 0 L163 0 L163 66 L0 66 L0 0 ZM1 1 L162 1 L162 65 L1 65 L1 1 Z" fill-rule="evenodd" clip-path="url(#clipPath7)" stroke="none"/>
      </g>
    </g>
    <g visibility="hidden" id="tooltip.y.node.6" pointer-events="none">
      <g fill="rgb(255,255,225)" text-rendering="geometricPrecision" shape-rendering="geometricPrecision" font-family="'Segoe UI'" stroke="rgb(255,255,225)">
        <rect x="0" width="150" height="66" y="0" clip-path="url(#clipPath6)" stroke="none"/>
        <text fill="black" x="4" xml:space="preserve" y="14" clip-path="url(#clipPath6)" stroke="none">Description: Item</text>
        <text fill="black" x="94" xml:space="preserve" y="14" clip-path="url(#clipPath6)" stroke="none"> </text>
        <text fill="black" x="4" xml:space="preserve" y="30" clip-path="url(#clipPath6)" stroke="none">Data Category: Transaction</text>
        <text fill="black" x="146" xml:space="preserve" y="30" clip-path="url(#clipPath6)" stroke="none"> </text>
        <text fill="black" x="4" xml:space="preserve" y="46" clip-path="url(#clipPath6)" stroke="none">Group: Logistics</text>
        <text fill="black" x="89" xml:space="preserve" y="46" clip-path="url(#clipPath6)" stroke="none"> </text>
        <text fill="black" x="4" xml:space="preserve" y="62" clip-path="url(#clipPath6)" stroke="none">Partition: Y</text>
      </g>
      <g font-family="'Segoe UI'" text-rendering="geometricPrecision" shape-rendering="geometricPrecision">
        <path d="M0 0 L150 0 L150 66 L0 66 L0 0 ZM1 1 L149 1 L149 65 L1 65 L1 1 Z" fill-rule="evenodd" clip-path="url(#clipPath6)" stroke="none"/>
      </g>
    </g>
    <g visibility="hidden" id="tooltip.y.node.7" pointer-events="none">
      <g fill="rgb(255,255,225)" text-rendering="geometricPrecision" shape-rendering="geometricPrecision" font-family="'Segoe UI'" stroke="rgb(255,255,225)">
        <rect x="0" width="150" height="66" y="0" clip-path="url(#clipPath6)" stroke="none"/>
        <text fill="black" x="4" xml:space="preserve" y="14" clip-path="url(#clipPath6)" stroke="none">Description: Addresses</text>
        <text fill="black" x="123" xml:space="preserve" y="14" clip-path="url(#clipPath6)" stroke="none"> </text>
        <text fill="black" x="4" xml:space="preserve" y="30" clip-path="url(#clipPath6)" stroke="none">Data Category: Transaction</text>
        <text fill="black" x="146" xml:space="preserve" y="30" clip-path="url(#clipPath6)" stroke="none"> </text>
        <text fill="black" x="4" xml:space="preserve" y="46" clip-path="url(#clipPath6)" stroke="none">Group: Accounts</text>
        <text fill="black" x="93" xml:space="preserve" y="46" clip-path="url(#clipPath6)" stroke="none"> </text>
        <text fill="black" x="4" xml:space="preserve" y="62" clip-path="url(#clipPath6)" stroke="none">Partition: Y</text>
      </g>
      <g font-family="'Segoe UI'" text-rendering="geometricPrecision" shape-rendering="geometricPrecision">
        <path d="M0 0 L150 0 L150 66 L0 66 L0 0 ZM1 1 L149 1 L149 65 L1 65 L1 1 Z" fill-rule="evenodd" clip-path="url(#clipPath6)" stroke="none"/>
      </g>
    </g>
    <g visibility="hidden" id="tooltip.y.node.8" pointer-events="none">
      <g fill="rgb(255,255,225)" text-rendering="geometricPrecision" shape-rendering="geometricPrecision" font-family="'Segoe UI'" stroke="rgb(255,255,225)">
        <rect x="0" width="150" height="66" y="0" clip-path="url(#clipPath6)" stroke="none"/>
        <text fill="black" x="4" xml:space="preserve" y="14" clip-path="url(#clipPath6)" stroke="none">Description: Accounts</text>
        <text fill="black" x="120" xml:space="preserve" y="14" clip-path="url(#clipPath6)" stroke="none"> </text>
        <text fill="black" x="4" xml:space="preserve" y="30" clip-path="url(#clipPath6)" stroke="none">Data Category: Transaction</text>
        <text fill="black" x="146" xml:space="preserve" y="30" clip-path="url(#clipPath6)" stroke="none"> </text>
        <text fill="black" x="4" xml:space="preserve" y="46" clip-path="url(#clipPath6)" stroke="none">Group: Accounts</text>
        <text fill="black" x="93" xml:space="preserve" y="46" clip-path="url(#clipPath6)" stroke="none"> </text>
        <text fill="black" x="4" xml:space="preserve" y="62" clip-path="url(#clipPath6)" stroke="none">Partition: Y</text>
      </g>
      <g font-family="'Segoe UI'" text-rendering="geometricPrecision" shape-rendering="geometricPrecision">
        <path d="M0 0 L150 0 L150 66 L0 66 L0 0 ZM1 1 L149 1 L149 65 L1 65 L1 1 Z" fill-rule="evenodd" clip-path="url(#clipPath6)" stroke="none"/>
      </g>
    </g>
    <g visibility="hidden" id="tooltip.y.node.9" pointer-events="none">
      <g fill="rgb(255,255,225)" text-rendering="geometricPrecision" shape-rendering="geometricPrecision" font-family="'Segoe UI'" stroke="rgb(255,255,225)">
        <rect x="0" width="150" height="66" y="0" clip-path="url(#clipPath6)" stroke="none"/>
        <text fill="black" x="4" xml:space="preserve" y="14" clip-path="url(#clipPath6)" stroke="none">Description: Subscriptions</text>
        <text fill="black" x="141" xml:space="preserve" y="14" clip-path="url(#clipPath6)" stroke="none"> </text>
        <text fill="black" x="4" xml:space="preserve" y="30" clip-path="url(#clipPath6)" stroke="none">Data Category: Transaction</text>
        <text fill="black" x="146" xml:space="preserve" y="30" clip-path="url(#clipPath6)" stroke="none"> </text>
        <text fill="black" x="4" xml:space="preserve" y="46" clip-path="url(#clipPath6)" stroke="none">Group: Subscription</text>
        <text fill="black" x="109" xml:space="preserve" y="46" clip-path="url(#clipPath6)" stroke="none"> </text>
        <text fill="black" x="4" xml:space="preserve" y="62" clip-path="url(#clipPath6)" stroke="none">Partition: Y</text>
      </g>
      <g font-family="'Segoe UI'" text-rendering="geometricPrecision" shape-rendering="geometricPrecision">
        <path d="M0 0 L150 0 L150 66 L0 66 L0 0 ZM1 1 L149 1 L149 65 L1 65 L1 1 Z" fill-rule="evenodd" clip-path="url(#clipPath6)" stroke="none"/>
      </g>
    </g>
    <g visibility="hidden" id="tooltip.y.node.10" pointer-events="none">
      <g fill="rgb(255,255,225)" text-rendering="geometricPrecision" shape-rendering="geometricPrecision" font-family="'Segoe UI'" stroke="rgb(255,255,225)">
        <rect x="0" width="150" height="66" y="0" clip-path="url(#clipPath6)" stroke="none"/>
        <text fill="black" x="4" xml:space="preserve" y="14" clip-path="url(#clipPath6)" stroke="none">Description: Projects</text>
        <text fill="black" x="112" xml:space="preserve" y="14" clip-path="url(#clipPath6)" stroke="none"> </text>
        <text fill="black" x="4" xml:space="preserve" y="30" clip-path="url(#clipPath6)" stroke="none">Data Category: Transaction</text>
        <text fill="black" x="146" xml:space="preserve" y="30" clip-path="url(#clipPath6)" stroke="none"> </text>
        <text fill="black" x="4" xml:space="preserve" y="46" clip-path="url(#clipPath6)" stroke="none">Group: Project</text>
        <text fill="black" x="80" xml:space="preserve" y="46" clip-path="url(#clipPath6)" stroke="none"> </text>
        <text fill="black" x="4" xml:space="preserve" y="62" clip-path="url(#clipPath6)" stroke="none">Partition: Y</text>
      </g>
      <g font-family="'Segoe UI'" text-rendering="geometricPrecision" shape-rendering="geometricPrecision">
        <path d="M0 0 L150 0 L150 66 L0 66 L0 0 ZM1 1 L149 1 L149 65 L1 65 L1 1 Z" fill-rule="evenodd" clip-path="url(#clipPath6)" stroke="none"/>
      </g>
    </g>
    <g visibility="hidden" id="tooltip.y.node.11" pointer-events="none">
      <g fill="rgb(255,255,225)" text-rendering="geometricPrecision" shape-rendering="geometricPrecision" font-family="'Segoe UI'" stroke="rgb(255,255,225)">
        <rect x="0" width="206" height="66" y="0" clip-path="url(#clipPath8)" stroke="none"/>
        <text fill="black" x="4" xml:space="preserve" y="14" clip-path="url(#clipPath8)" stroke="none">Description: General Ledger Accounts</text>
        <text fill="black" x="202" xml:space="preserve" y="14" clip-path="url(#clipPath8)" stroke="none"> </text>
        <text fill="black" x="4" xml:space="preserve" y="30" clip-path="url(#clipPath8)" stroke="none">Data Category: Reference</text>
        <text fill="black" x="137" xml:space="preserve" y="30" clip-path="url(#clipPath8)" stroke="none"> </text>
        <text fill="black" x="4" xml:space="preserve" y="46" clip-path="url(#clipPath8)" stroke="none">Group: Financial</text>
        <text fill="black" x="90" xml:space="preserve" y="46" clip-path="url(#clipPath8)" stroke="none"> </text>
        <text fill="black" x="4" xml:space="preserve" y="62" clip-path="url(#clipPath8)" stroke="none">Partition: Y</text>
      </g>
      <g font-family="'Segoe UI'" text-rendering="geometricPrecision" shape-rendering="geometricPrecision">
        <path d="M0 0 L206 0 L206 66 L0 66 L0 0 ZM1 1 L205 1 L205 65 L1 65 L1 1 Z" fill-rule="evenodd" clip-path="url(#clipPath8)" stroke="none"/>
      </g>
    </g>
    <g visibility="hidden" id="tooltip.y.node.12" pointer-events="none">
      <g fill="rgb(255,255,225)" text-rendering="geometricPrecision" shape-rendering="geometricPrecision" font-family="'Segoe UI'" stroke="rgb(255,255,225)">
        <rect x="0" width="182" height="66" y="0" clip-path="url(#clipPath9)" stroke="none"/>
        <text fill="black" x="4" xml:space="preserve" y="14" clip-path="url(#clipPath9)" stroke="none">Description: Payment Conditions</text>
        <text fill="black" x="178" xml:space="preserve" y="14" clip-path="url(#clipPath9)" stroke="none"> </text>
        <text fill="black" x="4" xml:space="preserve" y="30" clip-path="url(#clipPath9)" stroke="none">Data Category: Reference</text>
        <text fill="black" x="137" xml:space="preserve" y="30" clip-path="url(#clipPath9)" stroke="none"> </text>
        <text fill="black" x="4" xml:space="preserve" y="46" clip-path="url(#clipPath9)" stroke="none">Group: Cashflow</text>
        <text fill="black" x="92" xml:space="preserve" y="46" clip-path="url(#clipPath9)" stroke="none"> </text>
        <text fill="black" x="4" xml:space="preserve" y="62" clip-path="url(#clipPath9)" stroke="none">Partition: Y</text>
      </g>
      <g font-family="'Segoe UI'" text-rendering="geometricPrecision" shape-rendering="geometricPrecision">
        <path d="M0 0 L182 0 L182 66 L0 66 L0 0 ZM1 1 L181 1 L181 65 L1 65 L1 1 Z" fill-rule="evenodd" clip-path="url(#clipPath9)" stroke="none"/>
      </g>
    </g>
    <g visibility="hidden" id="tooltip.y.node.13" pointer-events="none">
      <g fill="rgb(255,255,225)" text-rendering="geometricPrecision" shape-rendering="geometricPrecision" font-family="'Segoe UI'" stroke="rgb(255,255,225)">
        <rect x="0" width="150" height="66" y="0" clip-path="url(#clipPath6)" stroke="none"/>
        <text fill="black" x="4" xml:space="preserve" y="14" clip-path="url(#clipPath6)" stroke="none">Description: Contacts</text>
        <text fill="black" x="117" xml:space="preserve" y="14" clip-path="url(#clipPath6)" stroke="none"> </text>
        <text fill="black" x="4" xml:space="preserve" y="30" clip-path="url(#clipPath6)" stroke="none">Data Category: Transaction</text>
        <text fill="black" x="146" xml:space="preserve" y="30" clip-path="url(#clipPath6)" stroke="none"> </text>
        <text fill="black" x="4" xml:space="preserve" y="46" clip-path="url(#clipPath6)" stroke="none">Group: Accounts</text>
        <text fill="black" x="93" xml:space="preserve" y="46" clip-path="url(#clipPath6)" stroke="none"> </text>
        <text fill="black" x="4" xml:space="preserve" y="62" clip-path="url(#clipPath6)" stroke="none">Partition: Y</text>
      </g>
      <g font-family="'Segoe UI'" text-rendering="geometricPrecision" shape-rendering="geometricPrecision">
        <path d="M0 0 L150 0 L150 66 L0 66 L0 0 ZM1 1 L149 1 L149 65 L1 65 L1 1 Z" fill-rule="evenodd" clip-path="url(#clipPath6)" stroke="none"/>
      </g>
    </g>
  </g>
</svg>
