<?xml version="1.0" encoding="UTF-8" standalone="no"?>
<graphml xmlns="http://graphml.graphdrawing.org/xmlns" xmlns:java="http://www.yworks.com/xml/yfiles-common/1.0/java" xmlns:sys="http://www.yworks.com/xml/yfiles-common/markup/primitives/2.0" xmlns:x="http://www.yworks.com/xml/yfiles-common/markup/2.0" xmlns:xsi="http://www.w3.org/2001/XMLSchema-instance" xmlns:y="http://www.yworks.com/xml/graphml" xmlns:yed="http://www.yworks.com/xml/yed/3" xsi:schemaLocation="http://graphml.graphdrawing.org/xmlns http://www.yworks.com/xml/schema/graphml/1.1/ygraphml.xsd">
  <!--Created by yEd 3.17.1-->
  <key for="port" id="d0" yfiles.type="portgraphics"/>
  <key for="port" id="d1" yfiles.type="portgeometry"/>
  <key for="port" id="d2" yfiles.type="portuserdata"/>
  <key attr.name="url" attr.type="string" for="node" id="d3"/>
  <key attr.name="description" attr.type="string" for="node" id="d4"/>
  <key for="node" id="d5" yfiles.type="nodegraphics"/>
  <key for="graphml" id="d6" yfiles.type="resources"/>
  <key attr.name="url" attr.type="string" for="edge" id="d7"/>
  <key attr.name="description" attr.type="string" for="edge" id="d8"/>
  <key for="edge" id="d9" yfiles.type="edgegraphics"/>
  <graph edgedefault="directed" id="G">
    <node id="n0">
      <data key="d4"><![CDATA[Description: None.
Data Category: Seed
Group: Sales
Partition: N]]></data>
      <data key="d5">
        <y:ShapeNode>
          <y:Geometry height="45.0" width="200.0" x="601.0" y="-581.0"/>
          <y:Fill color="#59A9DF" transparent="false"/>
          <y:BorderStyle color="#1D71B8" type="line" width="1.0"/>
          <y:NodeLabel alignment="center" autoSizePolicy="node_width" fontFamily="Gill Sans MT" fontSize="15" fontStyle="plain" hasBackgroundColor="false" hasLineColor="false" height="38.7900390625" horizontalTextPosition="center" iconTextGap="4" modelName="internal" modelPosition="c" textColor="#FFFFFF" verticalTextPosition="bottom" visible="true" width="200.0" x="0.0" y="3.10498046875">InvoiceTypes
domive, #code</y:NodeLabel>
          <y:Shape type="roundrectangle"/>
          <y:DropShadow color="#C0C0C07E" offsetX="2" offsetY="2"/>
        </y:ShapeNode>
      </data>
    </node>
    <node id="n1">
      <data key="d4"><![CDATA[Description: Price Lists
Data Category: Reference
Group: Sales
Partition: Y]]></data>
      <data key="d5">
        <y:ShapeNode>
          <y:Geometry height="45.0" width="200.0" x="-280.0" y="-581.0"/>
          <y:Fill color="#EEEEEE" transparent="false"/>
          <y:BorderStyle color="#444444" type="line" width="1.0"/>
          <y:NodeLabel alignment="center" autoSizePolicy="node_width" fontFamily="Gill Sans MT" fontSize="15" fontStyle="plain" hasBackgroundColor="false" hasLineColor="false" height="38.7900390625" horizontalTextPosition="center" iconTextGap="4" modelName="internal" modelPosition="c" textColor="#000000" verticalTextPosition="bottom" visible="true" width="200.0" x="0.0" y="3.10498046875">PriceLists
Sales: rspl, #ID</y:NodeLabel>
          <y:Shape type="roundrectangle"/>
          <y:DropShadow color="#C0C0C07E" offsetX="2" offsetY="2"/>
        </y:ShapeNode>
      </data>
    </node>
    <node id="n2">
      <data key="d4"><![CDATA[Description: Sales Invoice Lines
Data Category: Transaction
Group: Sales
Partition: Y]]></data>
      <data key="d5">
        <y:ShapeNode>
          <y:Geometry height="280.0" width="200.0" x="0.0" y="-581.0"/>
          <y:Fill color="#DC7600" transparent="false"/>
          <y:BorderStyle color="#D15400" type="line" width="1.0"/>
          <y:NodeLabel alignment="center" autoSizePolicy="node_width" fontFamily="Gill Sans MT" fontSize="15" fontStyle="plain" hasBackgroundColor="false" hasLineColor="false" height="38.7900390625" horizontalTextPosition="center" iconTextGap="4" modelName="internal" modelPosition="c" textColor="#FFFFFF" verticalTextPosition="bottom" visible="true" width="200.0" x="0.0" y="120.60498046875">SalesInvoiceLines
rsil</y:NodeLabel>
          <y:Shape type="roundrectangle"/>
          <y:DropShadow color="#C0C0C07E" offsetX="2" offsetY="2"/>
        </y:ShapeNode>
      </data>
    </node>
    <node id="n3">
      <data key="d4"><![CDATA[Description: Sales Invoices
Data Category: Transaction
Group: Sales
Partition: Y]]></data>
      <data key="d5">
        <y:ShapeNode>
          <y:Geometry height="280.0" width="200.0" x="280.0" y="-581.0"/>
          <y:Fill color="#DC7600" transparent="false"/>
          <y:BorderStyle color="#D15400" type="line" width="1.0"/>
          <y:NodeLabel alignment="center" autoSizePolicy="node_width" fontFamily="Gill Sans MT" fontSize="15" fontStyle="plain" hasBackgroundColor="false" hasLineColor="false" height="38.7900390625" horizontalTextPosition="center" iconTextGap="4" modelName="internal" modelPosition="c" textColor="#FFFFFF" verticalTextPosition="bottom" visible="true" width="200.0" x="0.0" y="120.60498046875">SalesInvoices
rsie, #InvoiceID</y:NodeLabel>
          <y:Shape type="roundrectangle"/>
          <y:DropShadow color="#C0C0C07E" offsetX="2" offsetY="2"/>
        </y:ShapeNode>
      </data>
    </node>
    <node id="n4">
      <data key="d4"><![CDATA[Description: Sales Orders
Data Category: Transaction
Group: Sales
Partition: Y]]></data>
      <data key="d5">
        <y:ShapeNode>
          <y:Geometry height="45.0" width="200.0" x="-280.0" y="-346.0"/>
          <y:Fill color="#EEEEEE" transparent="false"/>
          <y:BorderStyle color="#444444" type="line" width="1.0"/>
          <y:NodeLabel alignment="center" autoSizePolicy="node_width" fontFamily="Gill Sans MT" fontSize="15" fontStyle="plain" hasBackgroundColor="false" hasLineColor="false" height="38.7900390625" horizontalTextPosition="center" iconTextGap="4" modelName="internal" modelPosition="c" textColor="#000000" verticalTextPosition="bottom" visible="true" width="200.0" x="0.0" y="3.10498046875">SalesOrders
Sales: rsod, #OrderNumber</y:NodeLabel>
          <y:Shape type="roundrectangle"/>
          <y:DropShadow color="#C0C0C07E" offsetX="2" offsetY="2"/>
        </y:ShapeNode>
      </data>
    </node>
    <node id="n5">
      <data key="d4"><![CDATA[Description: Sales Order Lines
Data Category: Transaction
Group: Sales
Partition: Y]]></data>
      <data key="d5">
        <y:ShapeNode>
          <y:Geometry height="45.0" width="200.0" x="0.0" y="-260.5"/>
          <y:Fill color="#EEEEEE" transparent="false"/>
          <y:BorderStyle color="#444444" type="line" width="1.0"/>
          <y:NodeLabel alignment="center" autoSizePolicy="node_width" fontFamily="Gill Sans MT" fontSize="15" fontStyle="plain" hasBackgroundColor="false" hasLineColor="false" height="38.7900390625" horizontalTextPosition="center" iconTextGap="4" modelName="internal" modelPosition="c" textColor="#000000" verticalTextPosition="bottom" visible="true" width="200.0" x="0.0" y="3.10498046875">SalesOrderLines
Sales: rsoe, #ID</y:NodeLabel>
          <y:Shape type="roundrectangle"/>
          <y:DropShadow color="#C0C0C07E" offsetX="2" offsetY="2"/>
        </y:ShapeNode>
      </data>
    </node>
    <node id="n6">
      <data key="d4"><![CDATA[Description: Item
Data Category: Transaction
Group: Logistics
Partition: Y]]></data>
      <data key="d5">
        <y:ShapeNode>
          <y:Geometry height="45.0" width="200.0" x="-280.0" y="-464.5"/>
          <y:Fill color="#EEEEEE" transparent="false"/>
          <y:BorderStyle color="#444444" type="line" width="1.0"/>
          <y:NodeLabel alignment="center" autoSizePolicy="node_width" fontFamily="Gill Sans MT" fontSize="15" fontStyle="plain" hasBackgroundColor="false" hasLineColor="false" height="38.7900390625" horizontalTextPosition="center" iconTextGap="4" modelName="internal" modelPosition="c" textColor="#000000" verticalTextPosition="bottom" visible="true" width="200.0" x="0.0" y="3.10498046875">Items
Logistics: ritm, #ID</y:NodeLabel>
          <y:Shape type="roundrectangle"/>
          <y:DropShadow color="#CCCCCC" offsetX="2" offsetY="2"/>
        </y:ShapeNode>
      </data>
    </node>
    <node id="n7">
      <data key="d4"><![CDATA[Description: Addresses
Data Category: Transaction
Group: Accounts
Partition: Y]]></data>
      <data key="d5">
        <y:ShapeNode>
          <y:Geometry height="45.0" width="200.0" x="601.0" y="-514.5"/>
          <y:Fill color="#EEEEEE" transparent="false"/>
          <y:BorderStyle color="#444444" type="line" width="1.0"/>
          <y:NodeLabel alignment="center" autoSizePolicy="node_width" fontFamily="Gill Sans MT" fontSize="15" fontStyle="plain" hasBackgroundColor="false" hasLineColor="false" height="38.7900390625" horizontalTextPosition="center" iconTextGap="4" modelName="internal" modelPosition="c" textColor="#000000" verticalTextPosition="bottom" visible="true" width="200.0" x="0.0" y="3.10498046875">Addresses
Accounts: rads, #ID</y:NodeLabel>
          <y:Shape type="roundrectangle"/>
          <y:DropShadow color="#CCCCCC" offsetX="2" offsetY="2"/>
        </y:ShapeNode>
      </data>
    </node>
    <node id="n8">
      <data key="d4"><![CDATA[Description: Accounts
Data Category: Transaction
Group: Accounts
Partition: Y]]></data>
      <data key="d5">
        <y:ShapeNode>
          <y:Geometry height="45.0" width="200.0" x="601.0" y="-346.0"/>
          <y:Fill color="#EEEEEE" transparent="false"/>
          <y:BorderStyle color="#444444" type="line" width="1.0"/>
          <y:NodeLabel alignment="center" autoSizePolicy="node_width" fontFamily="Gill Sans MT" fontSize="15" fontStyle="plain" hasBackgroundColor="false" hasLineColor="false" height="38.7900390625" horizontalTextPosition="center" iconTextGap="4" modelName="internal" modelPosition="c" textColor="#000000" verticalTextPosition="bottom" visible="true" width="200.0" x="0.0" y="3.10498046875">Accounts
Accounts: ract, #ID</y:NodeLabel>
          <y:Shape type="roundrectangle"/>
          <y:DropShadow color="#CCCCCC" offsetX="2" offsetY="2"/>
        </y:ShapeNode>
      </data>
    </node>
    <node id="n9">
      <data key="d4"><![CDATA[Description: Subscriptions
Data Category: Transaction
Group: Subscription
Partition: Y]]></data>
      <data key="d5">
        <y:ShapeNode>
          <y:Geometry height="45.0" width="200.0" x="0.0" y="-671.5"/>
          <y:Fill color="#EEEEEE" transparent="false"/>
          <y:BorderStyle color="#444444" type="line" width="1.0"/>
          <y:NodeLabel alignment="center" autoSizePolicy="node_width" fontFamily="Gill Sans MT" fontSize="15" fontStyle="plain" hasBackgroundColor="false" hasLineColor="false" height="38.7900390625" horizontalTextPosition="center" iconTextGap="4" modelName="internal" modelPosition="c" textColor="#000000" verticalTextPosition="bottom" visible="true" width="200.0" x="0.0" y="3.10498046875">Subscriptions
Subscription: rscn, #EntryID</y:NodeLabel>
          <y:Shape type="roundrectangle"/>
          <y:DropShadow color="#CCCCCC" offsetX="2" offsetY="2"/>
        </y:ShapeNode>
      </data>
    </node>
    <node id="n10">
      <data key="d4"><![CDATA[Description: Projects
Data Category: Transaction
Group: Project
Partition: Y]]></data>
      <data key="d5">
        <y:ShapeNode>
          <y:Geometry height="45.0" width="200.0" x="-280.0" y="-405.25"/>
          <y:Fill color="#EEEEEE" transparent="false"/>
          <y:BorderStyle color="#444444" type="line" width="1.0"/>
          <y:NodeLabel alignment="center" autoSizePolicy="node_width" fontFamily="Gill Sans MT" fontSize="15" fontStyle="plain" hasBackgroundColor="false" hasLineColor="false" height="38.7900390625" horizontalTextPosition="center" iconTextGap="4" modelName="internal" modelPosition="c" textColor="#000000" verticalTextPosition="bottom" visible="true" width="200.0" x="0.0" y="3.10498046875">Projects
Project: rpjt, #ID</y:NodeLabel>
          <y:Shape type="roundrectangle"/>
          <y:DropShadow color="#CCCCCC" offsetX="2" offsetY="2"/>
        </y:ShapeNode>
      </data>
    </node>
    <node id="n11">
      <data key="d4"><![CDATA[Description: General Ledger Accounts
Data Category: Reference
Group: Financial
Partition: Y]]></data>
      <data key="d5">
        <y:ShapeNode>
          <y:Geometry height="45.0" width="200.0" x="-280.0" y="-523.75"/>
          <y:Fill color="#EEEEEE" transparent="false"/>
          <y:BorderStyle color="#444444" type="line" width="1.0"/>
          <y:NodeLabel alignment="center" autoSizePolicy="node_width" fontFamily="Gill Sans MT" fontSize="15" fontStyle="plain" hasBackgroundColor="false" hasLineColor="false" height="38.7900390625" horizontalTextPosition="center" iconTextGap="4" modelName="internal" modelPosition="c" textColor="#000000" verticalTextPosition="bottom" visible="true" width="200.0" x="0.0" y="3.10498046875">GLAccounts
Financial: rgat, #ID</y:NodeLabel>
          <y:Shape type="roundrectangle"/>
          <y:DropShadow color="#CCCCCC" offsetX="2" offsetY="2"/>
        </y:ShapeNode>
      </data>
    </node>
    <node id="n12">
      <data key="d4"><![CDATA[Description: Payment Conditions
Data Category: Reference
Group: Cashflow
Partition: Y]]></data>
      <data key="d5">
        <y:ShapeNode>
          <y:Geometry height="45.0" width="200.0" x="280.0" y="-671.5"/>
          <y:Fill color="#EEEEEE" transparent="false"/>
          <y:BorderStyle color="#444444" type="line" width="1.0"/>
          <y:NodeLabel alignment="center" autoSizePolicy="node_width" fontFamily="Gill Sans MT" fontSize="15" fontStyle="plain" hasBackgroundColor="false" hasLineColor="false" height="38.7900390625" horizontalTextPosition="center" iconTextGap="4" modelName="internal" modelPosition="c" textColor="#000000" verticalTextPosition="bottom" visible="true" width="200.0" x="0.0" y="3.10498046875">PaymentConditions
Cashflow: rcpn, #ID</y:NodeLabel>
          <y:Shape type="roundrectangle"/>
          <y:DropShadow color="#CCCCCC" offsetX="2" offsetY="2"/>
        </y:ShapeNode>
      </data>
    </node>
    <node id="n13">
      <data key="d4"><![CDATA[Description: Contacts
Data Category: Transaction
Group: Accounts
Partition: Y]]></data>
      <data key="d5">
        <y:ShapeNode>
          <y:Geometry height="45.0" width="200.0" x="601.0" y="-430.25"/>
          <y:Fill color="#EEEEEE" transparent="false"/>
          <y:BorderStyle color="#444444" type="line" width="1.0"/>
          <y:NodeLabel alignment="center" autoSizePolicy="node_width" fontFamily="Gill Sans MT" fontSize="15" fontStyle="plain" hasBackgroundColor="false" hasLineColor="false" height="38.7900390625" horizontalTextPosition="center" iconTextGap="4" modelName="internal" modelPosition="c" textColor="#000000" verticalTextPosition="bottom" visible="true" width="200.0" x="0.0" y="3.10498046875">Contacts
Accounts: rctt, #ID</y:NodeLabel>
          <y:Shape type="roundrectangle"/>
          <y:DropShadow color="#CCCCCC" offsetX="2" offsetY="2"/>
        </y:ShapeNode>
      </data>
    </node>
    <edge id="e0" source="n2" target="n9">
      <data key="d9">
        <y:PolyLineEdge>
          <y:Path sx="0.0" sy="-72.5" tx="0.0" ty="22.5"/>
          <y:LineStyle color="#000000" type="line" width="1.0"/>
          <y:Arrows source="none" target="standard"/>
          <y:BendStyle smoothed="true"/>
        </y:PolyLineEdge>
      </data>
    </edge>
    <edge id="e1" source="n2" target="n5">
      <data key="d9">
        <y:PolyLineEdge>
          <y:Path sx="0.0" sy="72.5" tx="0.0" ty="-22.5"/>
          <y:LineStyle color="#000000" type="line" width="1.0"/>
          <y:Arrows source="none" target="standard"/>
          <y:BendStyle smoothed="true"/>
        </y:PolyLineEdge>
      </data>
    </edge>
    <edge id="e2" source="n2" target="n4">
      <data key="d9">
        <y:PolyLineEdge>
          <y:Path sx="-77.0" sy="117.5" tx="100.0" ty="0.0"/>
          <y:LineStyle color="#000000" type="line" width="1.0"/>
          <y:Arrows source="none" target="standard"/>
          <y:BendStyle smoothed="true"/>
        </y:PolyLineEdge>
      </data>
    </edge>
    <edge id="e3" source="n2" target="n10">
      <data key="d9">
        <y:PolyLineEdge>
          <y:Path sx="-79.0" sy="58.25" tx="100.0" ty="0.0"/>
          <y:LineStyle color="#000000" type="line" width="1.0"/>
          <y:Arrows source="none" target="standard"/>
          <y:BendStyle smoothed="true"/>
        </y:PolyLineEdge>
      </data>
    </edge>
    <edge id="e4" source="n2" target="n6">
      <data key="d9">
        <y:PolyLineEdge>
          <y:Path sx="-79.5" sy="-1.0" tx="100.0" ty="0.0"/>
          <y:LineStyle color="#000000" type="line" width="1.0"/>
          <y:Arrows source="none" target="standard"/>
          <y:BendStyle smoothed="true"/>
        </y:PolyLineEdge>
      </data>
    </edge>
    <edge id="e5" source="n2" target="n11">
      <data key="d9">
        <y:PolyLineEdge>
          <y:Path sx="-80.0" sy="-60.25" tx="100.0" ty="0.0"/>
          <y:LineStyle color="#000000" type="line" width="1.0"/>
          <y:Arrows source="none" target="standard"/>
          <y:BendStyle smoothed="true"/>
        </y:PolyLineEdge>
      </data>
    </edge>
    <edge id="e6" source="n3" target="n3">
      <data key="d9">
        <y:PolyLineEdge>
          <y:Path sx="-84.0" sy="120.25" tx="-71.0" ty="140.0078125">
            <y:Point x="249.0" y="-320.75"/>
            <y:Point x="249.0" y="-285.0"/>
            <y:Point x="309.0" y="-285.0"/>
          </y:Path>
          <y:LineStyle color="#000000" type="line" width="1.0"/>
          <y:Arrows source="none" target="standard"/>
          <y:BendStyle smoothed="true"/>
        </y:PolyLineEdge>
      </data>
    </edge>
    <edge id="e7" source="n3" target="n8">
      <data key="d9">
        <y:PolyLineEdge>
          <y:Path sx="86.0" sy="117.5" tx="-100.0" ty="0.0"/>
          <y:LineStyle color="#000000" type="line" width="1.0"/>
          <y:Arrows source="none" target="standard"/>
          <y:EdgeLabel alignment="center" backgroundColor="#DAE7F7" distance="2.0" fontFamily="Gill Sans MT" fontSize="9" fontStyle="plain" height="14.43701171875" horizontalTextPosition="center" iconTextGap="4" lineColor="#5BABE0" modelName="side_slider" preferredPlacement="center_right" ratio="0.5" textColor="#000000" verticalTextPosition="bottom" visible="true" width="40.28564453125" x="40.349609375" y="-16.43701171875">InvoiceTo<y:PreferredPlacementDescriptor angle="0.0" angleOffsetOnRightSide="0" angleReference="absolute" angleRotationOnRightSide="co" distance="-1.0" placement="center" side="right" sideReference="relative_to_edge_flow"/>
          </y:EdgeLabel>
          <y:BendStyle smoothed="true"/>
        </y:PolyLineEdge>
      </data>
    </edge>
    <edge id="e8" source="n3" target="n8">
      <data key="d9">
        <y:PolyLineEdge>
          <y:Path sx="84.0" sy="132.5" tx="-100.0" ty="15.0"/>
          <y:LineStyle color="#000000" type="line" width="1.0"/>
          <y:Arrows source="none" target="standard"/>
          <y:EdgeLabel alignment="center" backgroundColor="#DAE7F7" distance="2.0" fontFamily="Gill Sans MT" fontSize="9" fontStyle="plain" height="14.43701171875" horizontalTextPosition="center" iconTextGap="4" lineColor="#5BABE0" modelName="side_slider" preferredPlacement="center_right" ratio="0.5" textColor="#000000" verticalTextPosition="bottom" visible="true" width="41.22607421875" x="39.86572265625" y="-16.43701171875">DeliverTo<y:PreferredPlacementDescriptor angle="0.0" angleOffsetOnRightSide="0" angleReference="absolute" angleRotationOnRightSide="co" distance="-1.0" placement="center" side="right" sideReference="relative_to_edge_flow"/>
          </y:EdgeLabel>
          <y:BendStyle smoothed="true"/>
        </y:PolyLineEdge>
      </data>
    </edge>
    <edge id="e9" source="n3" target="n13">
      <data key="d9">
        <y:PolyLineEdge>
          <y:Path sx="99.9609375" sy="33.25" tx="-100.0" ty="0.0"/>
          <y:LineStyle color="#000000" type="line" width="1.0"/>
          <y:Arrows source="none" target="standard"/>
          <y:EdgeLabel alignment="center" backgroundColor="#DAE7F7" distance="2.0" fontFamily="Gill Sans MT" fontSize="9" fontStyle="plain" height="14.43701171875" horizontalTextPosition="center" iconTextGap="4" lineColor="#5BABE0" modelName="side_slider" preferredPlacement="center_right" ratio="0.0" textColor="#000000" verticalTextPosition="bottom" visible="true" width="41.22607421875" x="10.134521484375" y="-16.43701171875">DeliverTo<y:PreferredPlacementDescriptor angle="0.0" angleOffsetOnRightSide="0" angleReference="absolute" angleRotationOnRightSide="co" distance="-1.0" placement="center" side="right" sideReference="relative_to_edge_flow"/>
          </y:EdgeLabel>
          <y:BendStyle smoothed="true"/>
        </y:PolyLineEdge>
      </data>
    </edge>
    <edge id="e10" source="n3" target="n7">
      <data key="d9">
        <y:PolyLineEdge>
          <y:Path sx="89.0" sy="-51.0" tx="-100.0" ty="0.0"/>
          <y:LineStyle color="#000000" type="line" width="1.0"/>
          <y:Arrows source="none" target="standard"/>
          <y:EdgeLabel alignment="center" backgroundColor="#DAE7F7" distance="2.0" fontFamily="Gill Sans MT" fontSize="9" fontStyle="plain" height="14.43701171875" horizontalTextPosition="center" iconTextGap="4" lineColor="#5BABE0" modelName="side_slider" preferredPlacement="center_right" ratio="0.5" textColor="#000000" verticalTextPosition="bottom" visible="true" width="41.22607421875" x="39.897705078125" y="-16.43701171875">DeliverTo<y:PreferredPlacementDescriptor angle="0.0" angleOffsetOnRightSide="0" angleReference="absolute" angleRotationOnRightSide="co" distance="-1.0" placement="center" side="right" sideReference="relative_to_edge_flow"/>
          </y:EdgeLabel>
          <y:BendStyle smoothed="true"/>
        </y:PolyLineEdge>
      </data>
    </edge>
    <edge id="e11" source="n3" target="n13">
      <data key="d9">
        <y:PolyLineEdge>
          <y:Path sx="99.9609375" sy="48.25" tx="-100.0" ty="15.0"/>
          <y:LineStyle color="#000000" type="line" width="1.0"/>
          <y:Arrows source="none" target="standard"/>
          <y:EdgeLabel alignment="center" backgroundColor="#DAE7F7" distance="2.0" fontFamily="Gill Sans MT" fontSize="9" fontStyle="plain" height="14.43701171875" horizontalTextPosition="center" iconTextGap="4" lineColor="#5BABE0" modelName="side_slider" preferredPlacement="center_right" ratio="0.0" textColor="#000000" verticalTextPosition="bottom" visible="true" width="45.34375" x="10.134521484375" y="-16.43701171875">OrderedBy<y:PreferredPlacementDescriptor angle="0.0" angleOffsetOnRightSide="0" angleReference="absolute" angleRotationOnRightSide="co" distance="-1.0" placement="center" side="right" sideReference="relative_to_edge_flow"/>
          </y:EdgeLabel>
          <y:BendStyle smoothed="true"/>
        </y:PolyLineEdge>
      </data>
    </edge>
    <edge id="e12" source="n3" target="n13">
      <data key="d9">
        <y:PolyLineEdge>
          <y:Path sx="100.0234375" sy="18.25" tx="-100.0" ty="-15.0"/>
          <y:LineStyle color="#000000" type="line" width="1.0"/>
          <y:Arrows source="none" target="standard"/>
          <y:EdgeLabel alignment="center" backgroundColor="#DAE7F7" distance="2.0" fontFamily="Gill Sans MT" fontSize="9" fontStyle="plain" height="14.43701171875" horizontalTextPosition="center" iconTextGap="4" lineColor="#5BABE0" modelName="side_slider" preferredPlacement="center_right" ratio="0.0" textColor="#000000" verticalTextPosition="bottom" visible="true" width="40.28564453125" x="10.1015625" y="-16.43701171875">InvoiceTo<y:PreferredPlacementDescriptor angle="0.0" angleOffsetOnRightSide="0" angleReference="absolute" angleRotationOnRightSide="co" distance="-1.0" placement="center" side="right" sideReference="relative_to_edge_flow"/>
          </y:EdgeLabel>
          <y:BendStyle smoothed="true"/>
        </y:PolyLineEdge>
      </data>
    </edge>
    <edge id="e13" source="n3" target="n8">
      <data key="d9">
        <y:PolyLineEdge>
          <y:Path sx="76.0" sy="102.5" tx="-100.0" ty="-15.0"/>
          <y:LineStyle color="#000000" type="line" width="1.0"/>
          <y:Arrows source="none" target="standard"/>
          <y:EdgeLabel alignment="center" backgroundColor="#DAE7F7" distance="2.0" fontFamily="Gill Sans MT" fontSize="9" fontStyle="plain" height="14.43701171875" horizontalTextPosition="center" iconTextGap="4" lineColor="#5BABE0" modelName="side_slider" preferredPlacement="center_right" ratio="0.5" textColor="#000000" verticalTextPosition="bottom" visible="true" width="45.34375" x="37.862060546875" y="-16.43701171875">OrderedBy<y:PreferredPlacementDescriptor angle="0.0" angleOffsetOnRightSide="0" angleReference="absolute" angleRotationOnRightSide="co" distance="-1.0" placement="center" side="right" sideReference="relative_to_edge_flow"/>
          </y:EdgeLabel>
          <y:BendStyle smoothed="true"/>
        </y:PolyLineEdge>
      </data>
    </edge>
    <edge id="e14" source="n3" target="n0">
      <data key="d9">
        <y:PolyLineEdge>
          <y:Path sx="83.0" sy="-118.0" tx="-76.0" ty="-0.5"/>
          <y:LineStyle color="#000000" type="line" width="1.0"/>
          <y:Arrows source="none" target="standard"/>
          <y:BendStyle smoothed="true"/>
        </y:PolyLineEdge>
      </data>
    </edge>
    <edge id="e15" source="n3" target="n12">
      <data key="d9">
        <y:PolyLineEdge>
          <y:Path sx="0.0" sy="-140.0" tx="0.0" ty="22.5"/>
          <y:LineStyle color="#000000" type="line" width="1.0"/>
          <y:Arrows source="none" target="standard"/>
          <y:EdgeLabel alignment="center" backgroundColor="#DAE7F7" distance="2.0" fontFamily="Gill Sans MT" fontSize="9" fontStyle="plain" height="14.43701171875" horizontalTextPosition="center" iconTextGap="4" lineColor="#5BABE0" modelName="side_slider" preferredPlacement="center_right" ratio="0.0" textColor="#000000" verticalTextPosition="bottom" visible="true" width="71.95263671875" x="2.0" y="-24.517578125">PaymentCondition<y:PreferredPlacementDescriptor angle="0.0" angleOffsetOnRightSide="0" angleReference="absolute" angleRotationOnRightSide="co" distance="-1.0" placement="center" side="right" sideReference="relative_to_edge_flow"/>
          </y:EdgeLabel>
          <y:BendStyle smoothed="true"/>
        </y:PolyLineEdge>
      </data>
    </edge>
    <edge id="e16" source="n2" target="n1">
      <data key="d8"/>
      <data key="d9">
        <y:PolyLineEdge>
          <y:Path sx="-73.0" sy="-117.5" tx="0.0" ty="0.0"/>
          <y:LineStyle color="#000000" type="line" width="1.0"/>
          <y:Arrows source="none" target="standard"/>
          <y:BendStyle smoothed="false"/>
        </y:PolyLineEdge>
      </data>
    </edge>
    <edge id="e17" source="n2" target="n3">
      <data key="d8"/>
      <data key="d9">
        <y:PolyLineEdge>
          <y:Path sx="0.0" sy="0.0" tx="0.0" ty="0.0"/>
          <y:LineStyle color="#000000" type="line" width="1.0"/>
          <y:Arrows source="none" target="standard"/>
          <y:BendStyle smoothed="false"/>
        </y:PolyLineEdge>
      </data>
    </edge>
  </graph>
  <data key="d6">
    <y:Resources/>
  </data>
</graphml>
