<?xml version="1.0" encoding="UTF-8" standalone="no"?>
<graphml xmlns="http://graphml.graphdrawing.org/xmlns" xmlns:java="http://www.yworks.com/xml/yfiles-common/1.0/java" xmlns:sys="http://www.yworks.com/xml/yfiles-common/markup/primitives/2.0" xmlns:x="http://www.yworks.com/xml/yfiles-common/markup/2.0" xmlns:xsi="http://www.w3.org/2001/XMLSchema-instance" xmlns:y="http://www.yworks.com/xml/graphml" xmlns:yed="http://www.yworks.com/xml/yed/3" xsi:schemaLocation="http://graphml.graphdrawing.org/xmlns http://www.yworks.com/xml/schema/graphml/1.1/ygraphml.xsd">
  <!--Created by yEd 3.17.1-->
  <key for="port" id="d0" yfiles.type="portgraphics"/>
  <key for="port" id="d1" yfiles.type="portgeometry"/>
  <key for="port" id="d2" yfiles.type="portuserdata"/>
  <key attr.name="url" attr.type="string" for="node" id="d3"/>
  <key attr.name="description" attr.type="string" for="node" id="d4"/>
  <key for="node" id="d5" yfiles.type="nodegraphics"/>
  <key for="graphml" id="d6" yfiles.type="resources"/>
  <key attr.name="url" attr.type="string" for="edge" id="d7"/>
  <key attr.name="description" attr.type="string" for="edge" id="d8"/>
  <key for="edge" id="d9" yfiles.type="edgegraphics"/>
  <graph edgedefault="directed" id="G">
    <node id="n0">
      <data key="d4"><![CDATA[Description: Price Lists
Data Category: Reference
Group: Sales
Partition: Y]]></data>
      <data key="d5">
        <y:ShapeNode>
          <y:Geometry height="45.0" width="200.0" x="902.0" y="-739.7277777777778"/>
          <y:Fill color="#A8C94C" transparent="false"/>
          <y:BorderStyle color="#8AAA17" type="line" width="1.0"/>
          <y:NodeLabel alignment="center" autoSizePolicy="node_width" fontFamily="Gill Sans MT" fontSize="15" fontStyle="plain" hasBackgroundColor="false" hasLineColor="false" height="38.7900390625" horizontalTextPosition="center" iconTextGap="4" modelName="internal" modelPosition="c" textColor="#FFFFFF" verticalTextPosition="bottom" visible="true" width="200.0" x="0.0" y="3.10498046875">PriceLists
rspl, #ID</y:NodeLabel>
          <y:Shape type="roundrectangle"/>
          <y:DropShadow color="#C0C0C07E" offsetX="2" offsetY="2"/>
        </y:ShapeNode>
      </data>
    </node>
    <node id="n1">
      <data key="d4"><![CDATA[Description: Shipping Methods
Data Category: Reference
Group: Sales
Partition: Y]]></data>
      <data key="d5">
        <y:ShapeNode>
          <y:Geometry height="45.0" width="200.0" x="659.0" y="-839.2277777777778"/>
          <y:Fill color="#EEEEEE" transparent="false"/>
          <y:BorderStyle color="#444444" type="line" width="1.0"/>
          <y:NodeLabel alignment="center" autoSizePolicy="node_width" fontFamily="Gill Sans MT" fontSize="15" fontStyle="plain" hasBackgroundColor="false" hasLineColor="false" height="38.7900390625" horizontalTextPosition="center" iconTextGap="4" modelName="internal" modelPosition="c" textColor="#000000" verticalTextPosition="bottom" visible="true" width="200.0" x="0.0" y="3.10498046875">ShippingMethods
Deliveries: rsmd, #ID</y:NodeLabel>
          <y:Shape type="roundrectangle"/>
          <y:DropShadow color="#C0C0C07E" offsetX="2" offsetY="2"/>
        </y:ShapeNode>
      </data>
    </node>
    <node id="n2">
      <data key="d4"><![CDATA[Description: Sales Entry Lines
Data Category: Transaction
Group: Sales
Partition: Y]]></data>
      <data key="d5">
        <y:ShapeNode>
          <y:Geometry height="100.0" width="200.0" x="0.0" y="-187.0"/>
          <y:Fill color="#DC7600" transparent="false"/>
          <y:BorderStyle color="#D15400" type="line" width="1.0"/>
          <y:NodeLabel alignment="center" autoSizePolicy="node_width" fontFamily="Gill Sans MT" fontSize="15" fontStyle="plain" hasBackgroundColor="false" hasLineColor="false" height="38.7900390625" horizontalTextPosition="center" iconTextGap="4" modelName="internal" modelPosition="c" textColor="#FFFFFF" verticalTextPosition="bottom" visible="true" width="200.0" x="0.0" y="30.60498046875">SalesEntryLines
rsel</y:NodeLabel>
          <y:Shape type="roundrectangle"/>
          <y:DropShadow color="#C0C0C07E" offsetX="2" offsetY="2"/>
        </y:ShapeNode>
      </data>
    </node>
    <node id="n3">
      <data key="d4"><![CDATA[Description: Sales Entries
Data Category: Transaction
Group: Sales
Partition: Y]]></data>
      <data key="d5">
        <y:ShapeNode>
          <y:Geometry height="45.0" width="200.0" x="291.0" y="-516.0"/>
          <y:Fill color="#DC7600" transparent="false"/>
          <y:BorderStyle color="#D15400" type="line" width="1.0"/>
          <y:NodeLabel alignment="center" autoSizePolicy="node_width" fontFamily="Gill Sans MT" fontSize="15" fontStyle="plain" hasBackgroundColor="false" hasLineColor="false" height="38.7900390625" horizontalTextPosition="center" iconTextGap="4" modelName="internal" modelPosition="c" textColor="#FFFFFF" verticalTextPosition="bottom" visible="true" width="200.0" x="0.0" y="3.10498046875">SalesEntries
rsey, #EntryID</y:NodeLabel>
          <y:Shape type="roundrectangle"/>
          <y:DropShadow color="#C0C0C07E" offsetX="2" offsetY="2"/>
        </y:ShapeNode>
      </data>
    </node>
    <node id="n4">
      <data key="d4"><![CDATA[Description: Sales Price List Details
Data Category: Transaction
Group: Sales
Partition: Y]]></data>
      <data key="d5">
        <y:ShapeNode>
          <y:Geometry height="100.0" width="200.0" x="291.0" y="-444.0"/>
          <y:Fill color="#DC7600" transparent="false"/>
          <y:BorderStyle color="#D15400" type="line" width="1.0"/>
          <y:NodeLabel alignment="center" autoSizePolicy="node_width" fontFamily="Gill Sans MT" fontSize="15" fontStyle="plain" hasBackgroundColor="false" hasLineColor="false" height="38.7900390625" horizontalTextPosition="center" iconTextGap="4" modelName="internal" modelPosition="c" textColor="#FFFFFF" verticalTextPosition="bottom" visible="true" width="200.0" x="0.0" y="30.60498046875">SalesPriceListDetails
rspd</y:NodeLabel>
          <y:Shape type="roundrectangle"/>
          <y:DropShadow color="#C0C0C07E" offsetX="2" offsetY="2"/>
        </y:ShapeNode>
      </data>
    </node>
    <node id="n5">
      <data key="d4"><![CDATA[Description: Sales Order Stock Serial Numbers
Data Category: Transaction
Group: Sales
Partition: Y]]></data>
      <data key="d5">
        <y:ShapeNode>
          <y:Geometry height="45.0" width="200.0" x="291.0" y="-291.0"/>
          <y:Fill color="#DC7600" transparent="false"/>
          <y:BorderStyle color="#D15400" type="line" width="1.0"/>
          <y:NodeLabel alignment="center" autoSizePolicy="node_width" fontFamily="Gill Sans MT" fontSize="15" fontStyle="plain" hasBackgroundColor="false" hasLineColor="false" height="38.7900390625" horizontalTextPosition="center" iconTextGap="4" modelName="internal" modelPosition="c" textColor="#FFFFFF" verticalTextPosition="bottom" visible="true" width="200.0" x="0.0" y="3.10498046875">SalesOrderStockSerialNumbers
rssn</y:NodeLabel>
          <y:Shape type="roundrectangle"/>
          <y:DropShadow color="#C0C0C07E" offsetX="2" offsetY="2"/>
        </y:ShapeNode>
      </data>
    </node>
    <node id="n6">
      <data key="d4"><![CDATA[Description: Sales Order Stock Batch Numbers
Data Category: Transaction
Group: Sales
Partition: Y]]></data>
      <data key="d5">
        <y:ShapeNode>
          <y:Geometry height="45.0" width="200.0" x="291.0" y="-219.0"/>
          <y:Fill color="#DC7600" transparent="false"/>
          <y:BorderStyle color="#D15400" type="line" width="1.0"/>
          <y:NodeLabel alignment="center" autoSizePolicy="node_width" fontFamily="Gill Sans MT" fontSize="15" fontStyle="plain" hasBackgroundColor="false" hasLineColor="false" height="38.7900390625" horizontalTextPosition="center" iconTextGap="4" modelName="internal" modelPosition="c" textColor="#FFFFFF" verticalTextPosition="bottom" visible="true" width="200.0" x="0.0" y="3.10498046875">SalesOrderStockBatchNumbers
rsbn</y:NodeLabel>
          <y:Shape type="roundrectangle"/>
          <y:DropShadow color="#C0C0C07E" offsetX="2" offsetY="2"/>
        </y:ShapeNode>
      </data>
    </node>
    <node id="n7">
      <data key="d4"><![CDATA[Description: Sales Orders
Data Category: Transaction
Group: Sales
Partition: Y]]></data>
      <data key="d5">
        <y:ShapeNode>
          <y:Geometry height="240.0" width="200.0" x="291.0" y="-965.0912698412699"/>
          <y:Fill color="#DC7600" transparent="false"/>
          <y:BorderStyle color="#D15400" type="line" width="1.0"/>
          <y:NodeLabel alignment="center" autoSizePolicy="node_width" fontFamily="Gill Sans MT" fontSize="15" fontStyle="plain" hasBackgroundColor="false" hasLineColor="false" height="38.7900390625" horizontalTextPosition="center" iconTextGap="4" modelName="internal" modelPosition="c" textColor="#FFFFFF" verticalTextPosition="bottom" visible="true" width="200.0" x="0.0" y="100.60498046875">SalesOrders
rsod, #OrderNumber</y:NodeLabel>
          <y:Shape type="roundrectangle"/>
          <y:DropShadow color="#C0C0C07E" offsetX="2" offsetY="2"/>
        </y:ShapeNode>
      </data>
    </node>
    <node id="n8">
      <data key="d4"><![CDATA[Description: Sales Order Lines
Data Category: Transaction
Group: Sales
Partition: Y]]></data>
      <data key="d5">
        <y:ShapeNode>
          <y:Geometry height="100.0" width="200.0" x="0.0" y="-955.0912698412699"/>
          <y:Fill color="#DC7600" transparent="false"/>
          <y:BorderStyle color="#D15400" type="line" width="1.0"/>
          <y:NodeLabel alignment="center" autoSizePolicy="node_width" fontFamily="Gill Sans MT" fontSize="15" fontStyle="plain" hasBackgroundColor="false" hasLineColor="false" height="38.7900390625" horizontalTextPosition="center" iconTextGap="4" modelName="internal" modelPosition="c" textColor="#FFFFFF" verticalTextPosition="bottom" visible="true" width="200.0" x="0.0" y="30.60498046875">SalesOrderLines
rsoe, #ID</y:NodeLabel>
          <y:Shape type="roundrectangle"/>
          <y:DropShadow color="#C0C0C07E" offsetX="2" offsetY="2"/>
        </y:ShapeNode>
      </data>
    </node>
    <node id="n9">
      <data key="d4"><![CDATA[Description: Storage Locations
Data Category: Reference
Group: Logistics
Partition: Y]]></data>
      <data key="d5">
        <y:ShapeNode>
          <y:Geometry height="45.0" width="200.0" x="659.0" y="-204.0"/>
          <y:Fill color="#EEEEEE" transparent="false"/>
          <y:BorderStyle color="#444444" type="line" width="1.0"/>
          <y:NodeLabel alignment="center" autoSizePolicy="node_width" fontFamily="Gill Sans MT" fontSize="15" fontStyle="plain" hasBackgroundColor="false" hasLineColor="false" height="38.7900390625" horizontalTextPosition="center" iconTextGap="4" modelName="internal" modelPosition="c" textColor="#000000" verticalTextPosition="bottom" visible="true" width="200.0" x="0.0" y="3.10498046875">StorageLocations
Logistics: rsln, #ID</y:NodeLabel>
          <y:Shape type="roundrectangle"/>
          <y:DropShadow color="#CCCCCC" offsetX="2" offsetY="2"/>
        </y:ShapeNode>
      </data>
    </node>
    <node id="n10">
      <data key="d4"><![CDATA[Description: Item
Data Category: Transaction
Group: Logistics
Partition: Y]]></data>
      <data key="d5">
        <y:ShapeNode>
          <y:Geometry height="100.0" width="200.0" x="659.0" y="-331.0"/>
          <y:Fill color="#EEEEEE" transparent="false"/>
          <y:BorderStyle color="#444444" type="line" width="1.0"/>
          <y:NodeLabel alignment="center" autoSizePolicy="node_width" fontFamily="Gill Sans MT" fontSize="15" fontStyle="plain" hasBackgroundColor="false" hasLineColor="false" height="38.7900390625" horizontalTextPosition="center" iconTextGap="4" modelName="internal" modelPosition="c" textColor="#000000" verticalTextPosition="bottom" visible="true" width="200.0" x="0.0" y="30.60498046875">Items
Logistics: ritm, #ID</y:NodeLabel>
          <y:Shape type="roundrectangle"/>
          <y:DropShadow color="#CCCCCC" offsetX="2" offsetY="2"/>
        </y:ShapeNode>
      </data>
    </node>
    <node id="n11">
      <data key="d4"><![CDATA[Description: Warehouses
Data Category: Reference
Group: Logistics
Partition: Y]]></data>
      <data key="d5">
        <y:ShapeNode>
          <y:Geometry height="45.0" width="200.0" x="659.0" y="-403.0"/>
          <y:Fill color="#EEEEEE" transparent="false"/>
          <y:BorderStyle color="#444444" type="line" width="1.0"/>
          <y:NodeLabel alignment="center" autoSizePolicy="node_width" fontFamily="Gill Sans MT" fontSize="15" fontStyle="plain" hasBackgroundColor="false" hasLineColor="false" height="38.7900390625" horizontalTextPosition="center" iconTextGap="4" modelName="internal" modelPosition="c" textColor="#000000" verticalTextPosition="bottom" visible="true" width="200.0" x="0.0" y="3.10498046875">Warehouses
Logistics: rwhe, #ID</y:NodeLabel>
          <y:Shape type="roundrectangle"/>
          <y:DropShadow color="#CCCCCC" offsetX="2" offsetY="2"/>
        </y:ShapeNode>
      </data>
    </node>
    <node id="n12">
      <data key="d4"><![CDATA[Description: Addresses
Data Category: Transaction
Group: Accounts
Partition: Y]]></data>
      <data key="d5">
        <y:ShapeNode>
          <y:Geometry height="45.0" width="200.0" x="659.0" y="-911.2277777777778"/>
          <y:Fill color="#EEEEEE" transparent="false"/>
          <y:BorderStyle color="#444444" type="line" width="1.0"/>
          <y:NodeLabel alignment="center" autoSizePolicy="node_width" fontFamily="Gill Sans MT" fontSize="15" fontStyle="plain" hasBackgroundColor="false" hasLineColor="false" height="38.7900390625" horizontalTextPosition="center" iconTextGap="4" modelName="internal" modelPosition="c" textColor="#000000" verticalTextPosition="bottom" visible="true" width="200.0" x="0.0" y="3.10498046875">Addresses
Accounts: rads, #ID</y:NodeLabel>
          <y:Shape type="roundrectangle"/>
          <y:DropShadow color="#CCCCCC" offsetX="2" offsetY="2"/>
        </y:ShapeNode>
      </data>
    </node>
    <node id="n13">
      <data key="d4"><![CDATA[Description: Accounts
Data Category: Transaction
Group: Accounts
Partition: Y]]></data>
      <data key="d5">
        <y:ShapeNode>
          <y:Geometry height="100.0" width="200.0" x="659.0" y="-767.2277777777778"/>
          <y:Fill color="#EEEEEE" transparent="false"/>
          <y:BorderStyle color="#444444" type="line" width="1.0"/>
          <y:NodeLabel alignment="center" autoSizePolicy="node_width" fontFamily="Gill Sans MT" fontSize="15" fontStyle="plain" hasBackgroundColor="false" hasLineColor="false" height="38.7900390625" horizontalTextPosition="center" iconTextGap="4" modelName="internal" modelPosition="c" textColor="#000000" verticalTextPosition="bottom" visible="true" width="200.0" x="0.0" y="30.60498046875">Accounts
Accounts: ract, #ID</y:NodeLabel>
          <y:Shape type="roundrectangle"/>
          <y:DropShadow color="#CCCCCC" offsetX="2" offsetY="2"/>
        </y:ShapeNode>
      </data>
    </node>
    <node id="n14">
      <data key="d4"><![CDATA[Description: Subscriptions
Data Category: Transaction
Group: Subscription
Partition: Y]]></data>
      <data key="d5">
        <y:ShapeNode>
          <y:Geometry height="45.0" width="200.0" x="291.0" y="-147.0"/>
          <y:Fill color="#EEEEEE" transparent="false"/>
          <y:BorderStyle color="#444444" type="line" width="1.0"/>
          <y:NodeLabel alignment="center" autoSizePolicy="node_width" fontFamily="Gill Sans MT" fontSize="15" fontStyle="plain" hasBackgroundColor="false" hasLineColor="false" height="38.7900390625" horizontalTextPosition="center" iconTextGap="4" modelName="internal" modelPosition="c" textColor="#000000" verticalTextPosition="bottom" visible="true" width="200.0" x="0.0" y="3.10498046875">Subscriptions
Subscription: rscn, #EntryID</y:NodeLabel>
          <y:Shape type="roundrectangle"/>
          <y:DropShadow color="#CCCCCC" offsetX="2" offsetY="2"/>
        </y:ShapeNode>
      </data>
    </node>
    <node id="n15">
      <data key="d4"><![CDATA[Description: Projects
Data Category: Transaction
Group: Project
Partition: Y]]></data>
      <data key="d5">
        <y:ShapeNode>
          <y:Geometry height="45.0" width="200.0" x="291.0" y="-588.0"/>
          <y:Fill color="#EEEEEE" transparent="false"/>
          <y:BorderStyle color="#444444" type="line" width="1.0"/>
          <y:NodeLabel alignment="center" autoSizePolicy="node_width" fontFamily="Gill Sans MT" fontSize="15" fontStyle="plain" hasBackgroundColor="false" hasLineColor="false" height="38.7900390625" horizontalTextPosition="center" iconTextGap="4" modelName="internal" modelPosition="c" textColor="#000000" verticalTextPosition="bottom" visible="true" width="200.0" x="0.0" y="3.10498046875">Projects
Project: rpjt, #ID</y:NodeLabel>
          <y:Shape type="roundrectangle"/>
          <y:DropShadow color="#CCCCCC" offsetX="2" offsetY="2"/>
        </y:ShapeNode>
      </data>
    </node>
    <node id="n16">
      <data key="d4"><![CDATA[Description: General Ledger Accounts
Data Category: Reference
Group: Financial
Partition: Y]]></data>
      <data key="d5">
        <y:ShapeNode>
          <y:Geometry height="45.0" width="200.0" x="0.0" y="-269.0"/>
          <y:Fill color="#EEEEEE" transparent="false"/>
          <y:BorderStyle color="#444444" type="line" width="1.0"/>
          <y:NodeLabel alignment="center" autoSizePolicy="node_width" fontFamily="Gill Sans MT" fontSize="15" fontStyle="plain" hasBackgroundColor="false" hasLineColor="false" height="38.7900390625" horizontalTextPosition="center" iconTextGap="4" modelName="internal" modelPosition="c" textColor="#000000" verticalTextPosition="bottom" visible="true" width="200.0" x="0.0" y="3.10498046875">GLAccounts
Financial: rgat, #ID</y:NodeLabel>
          <y:Shape type="roundrectangle"/>
          <y:DropShadow color="#CCCCCC" offsetX="2" offsetY="2"/>
        </y:ShapeNode>
      </data>
    </node>
    <node id="n17">
      <data key="d4"><![CDATA[Description: Payment Conditions
Data Category: Reference
Group: Cashflow
Partition: Y]]></data>
      <data key="d5">
        <y:ShapeNode>
          <y:Geometry height="45.0" width="200.0" x="659.0" y="-573.0"/>
          <y:Fill color="#EEEEEE" transparent="false"/>
          <y:BorderStyle color="#444444" type="line" width="1.0"/>
          <y:NodeLabel alignment="center" autoSizePolicy="node_width" fontFamily="Gill Sans MT" fontSize="15" fontStyle="plain" hasBackgroundColor="false" hasLineColor="false" height="38.7900390625" horizontalTextPosition="center" iconTextGap="4" modelName="internal" modelPosition="c" textColor="#000000" verticalTextPosition="bottom" visible="true" width="200.0" x="0.0" y="3.10498046875">PaymentConditions
Cashflow: rcpn, #ID</y:NodeLabel>
          <y:Shape type="roundrectangle"/>
          <y:DropShadow color="#CCCCCC" offsetX="2" offsetY="2"/>
        </y:ShapeNode>
      </data>
    </node>
    <node id="n18">
      <data key="d4"><![CDATA[Description: Item Groups
Data Category: Transaction
Group: Logistics
Partition: Y]]></data>
      <data key="d5">
        <y:ShapeNode>
          <y:Geometry height="45.0" width="200.0" x="659.0" y="-501.0"/>
          <y:Fill color="#EEEEEE" transparent="false"/>
          <y:BorderStyle color="#444444" type="line" width="1.0"/>
          <y:NodeLabel alignment="center" autoSizePolicy="node_width" fontFamily="Gill Sans MT" fontSize="15" fontStyle="plain" hasBackgroundColor="false" hasLineColor="false" height="38.7900390625" horizontalTextPosition="center" iconTextGap="4" modelName="internal" modelPosition="c" textColor="#000000" verticalTextPosition="bottom" visible="true" width="200.0" x="0.0" y="3.10498046875">ItemGroups
Logistics: rigp, #ID</y:NodeLabel>
          <y:Shape type="roundrectangle"/>
          <y:DropShadow color="#CCCCCC" offsetX="2" offsetY="2"/>
        </y:ShapeNode>
      </data>
    </node>
    <node id="n19">
      <data key="d4"><![CDATA[Description: Shop Orders
Data Category: Transaction
Group: Manufacturing
Partition: Y]]></data>
      <data key="d5">
        <y:ShapeNode>
          <y:Geometry height="45.0" width="200.0" x="291.0" y="-1037.0912698412699"/>
          <y:Fill color="#EEEEEE" transparent="false"/>
          <y:BorderStyle color="#444444" type="line" width="1.0"/>
          <y:NodeLabel alignment="center" autoSizePolicy="node_width" fontFamily="Gill Sans MT" fontSize="15" fontStyle="plain" hasBackgroundColor="false" hasLineColor="false" height="38.7900390625" horizontalTextPosition="center" iconTextGap="4" modelName="internal" modelPosition="c" textColor="#000000" verticalTextPosition="bottom" visible="true" width="200.0" x="0.0" y="3.10498046875">ShopOrders
Manufacturing: rspr, #ID</y:NodeLabel>
          <y:Shape type="roundrectangle"/>
          <y:DropShadow color="#CCCCCC" offsetX="2" offsetY="2"/>
        </y:ShapeNode>
      </data>
    </node>
    <node id="n20">
      <data key="d4"><![CDATA[Description: Contacts
Data Category: Transaction
Group: Accounts
Partition: Y]]></data>
      <data key="d5">
        <y:ShapeNode>
          <y:Geometry height="45.0" width="200.0" x="659.0" y="-983.2277777777778"/>
          <y:Fill color="#EEEEEE" transparent="false"/>
          <y:BorderStyle color="#444444" type="line" width="1.0"/>
          <y:NodeLabel alignment="center" autoSizePolicy="node_width" fontFamily="Gill Sans MT" fontSize="15" fontStyle="plain" hasBackgroundColor="false" hasLineColor="false" height="38.7900390625" horizontalTextPosition="center" iconTextGap="4" modelName="internal" modelPosition="c" textColor="#000000" verticalTextPosition="bottom" visible="true" width="200.0" x="0.0" y="3.10498046875">Contacts
Accounts: rctt, #ID</y:NodeLabel>
          <y:Shape type="roundrectangle"/>
          <y:DropShadow color="#CCCCCC" offsetX="2" offsetY="2"/>
        </y:ShapeNode>
      </data>
    </node>
    <edge id="e0" source="n13" target="n0">
      <data key="d9">
        <y:PolyLineEdge>
          <y:Path sx="100.0" sy="-0.0" tx="-100.0" ty="-0.0"/>
          <y:LineStyle color="#000000" type="line" width="1.0"/>
          <y:Arrows source="none" target="standard"/>
          <y:BendStyle smoothed="true"/>
        </y:PolyLineEdge>
      </data>
    </edge>
    <edge id="e1" source="n2" target="n14">
      <data key="d9">
        <y:PolyLineEdge>
          <y:Path sx="100.0" sy="12.5" tx="-100.0" ty="-0.0"/>
          <y:LineStyle color="#000000" type="line" width="1.0"/>
          <y:Arrows source="none" target="standard"/>
          <y:BendStyle smoothed="true"/>
        </y:PolyLineEdge>
      </data>
    </edge>
    <edge id="e2" source="n2" target="n15">
      <data key="d9">
        <y:PolyLineEdge>
          <y:Path sx="100.0" sy="-37.5" tx="-100.0" ty="11.25">
            <y:Point x="212.5" y="-174.5"/>
            <y:Point x="212.5" y="-554.25"/>
          </y:Path>
          <y:LineStyle color="#000000" type="line" width="1.0"/>
          <y:Arrows source="none" target="standard"/>
          <y:BendStyle smoothed="true"/>
        </y:PolyLineEdge>
      </data>
    </edge>
    <edge id="e3" source="n2" target="n3">
      <data key="d9">
        <y:PolyLineEdge>
          <y:Path sx="100.0" sy="-12.5" tx="-100.0" ty="-0.0">
            <y:Point x="234.5" y="-149.5"/>
            <y:Point x="234.5" y="-493.5"/>
          </y:Path>
          <y:LineStyle color="#000000" type="line" width="1.0"/>
          <y:Arrows source="none" target="standard"/>
          <y:BendStyle smoothed="true"/>
        </y:PolyLineEdge>
      </data>
    </edge>
    <edge id="e4" source="n3" target="n13">
      <data key="d9">
        <y:PolyLineEdge>
          <y:Path sx="100.0" sy="-11.25" tx="-100.0" ty="20.0">
            <y:Point x="529.5" y="-504.75"/>
            <y:Point x="529.5" y="-697.2277777777778"/>
          </y:Path>
          <y:LineStyle color="#000000" type="line" width="1.0"/>
          <y:Arrows source="none" target="standard"/>
          <y:EdgeLabel alignment="center" backgroundColor="#DAE7F7" distance="2.0" fontFamily="Gill Sans MT" fontSize="9" fontStyle="plain" height="14.43701171875" horizontalTextPosition="center" iconTextGap="4" lineColor="#5BABE0" modelName="side_slider" preferredPlacement="center_right" ratio="0.8241302900926932" textColor="#000000" verticalTextPosition="bottom" visible="true" width="41.11181640625" x="78.131591796875" y="-208.91478949652776">Customer<y:PreferredPlacementDescriptor angle="0.0" angleOffsetOnRightSide="0" angleReference="absolute" angleRotationOnRightSide="co" distance="-1.0" placement="center" side="right" sideReference="relative_to_edge_flow"/>
          </y:EdgeLabel>
          <y:BendStyle smoothed="true"/>
        </y:PolyLineEdge>
      </data>
    </edge>
    <edge id="e5" source="n3" target="n17">
      <data key="d9">
        <y:PolyLineEdge>
          <y:Path sx="100.0" sy="11.25" tx="-100.0" ty="11.25">
            <y:Point x="551.5" y="-482.25"/>
            <y:Point x="551.5" y="-539.25"/>
          </y:Path>
          <y:LineStyle color="#000000" type="line" width="1.0"/>
          <y:Arrows source="none" target="standard"/>
          <y:BendStyle smoothed="true"/>
        </y:PolyLineEdge>
      </data>
    </edge>
    <edge id="e6" source="n4" target="n18">
      <data key="d9">
        <y:PolyLineEdge>
          <y:Path sx="100.0" sy="-12.5" tx="-100.0" ty="-0.0">
            <y:Point x="573.5" y="-406.5"/>
            <y:Point x="573.5" y="-478.5"/>
          </y:Path>
          <y:LineStyle color="#000000" type="line" width="1.0"/>
          <y:Arrows source="none" target="standard"/>
          <y:BendStyle smoothed="true"/>
        </y:PolyLineEdge>
      </data>
    </edge>
    <edge id="e7" source="n4" target="n13">
      <data key="d9">
        <y:PolyLineEdge>
          <y:Path sx="100.0" sy="-37.5" tx="-100.0" ty="40.0">
            <y:Point x="562.5" y="-431.5"/>
            <y:Point x="562.5" y="-677.2277777777778"/>
          </y:Path>
          <y:LineStyle color="#000000" type="line" width="1.0"/>
          <y:Arrows source="none" target="standard"/>
          <y:BendStyle smoothed="true"/>
        </y:PolyLineEdge>
      </data>
    </edge>
    <edge id="e8" source="n4" target="n10">
      <data key="d9">
        <y:PolyLineEdge>
          <y:Path sx="100.0" sy="37.5" tx="-100.0" ty="-37.5">
            <y:Point x="514.5" y="-356.5"/>
            <y:Point x="514.5" y="-318.5"/>
          </y:Path>
          <y:LineStyle color="#000000" type="line" width="1.0"/>
          <y:Arrows source="none" target="standard"/>
          <y:BendStyle smoothed="true"/>
        </y:PolyLineEdge>
      </data>
    </edge>
    <edge id="e9" source="n4" target="n0">
      <data key="d9">
        <y:PolyLineEdge>
          <y:Path sx="100.0" sy="12.5" tx="-100.0" ty="15.0">
            <y:Point x="584.5" y="-381.5"/>
            <y:Point x="584.5" y="-428.5"/>
            <y:Point x="871.5" y="-428.5"/>
            <y:Point x="871.5" y="-702.2277777777778"/>
          </y:Path>
          <y:LineStyle color="#000000" type="line" width="1.0"/>
          <y:Arrows source="none" target="standard"/>
          <y:BendStyle smoothed="true"/>
        </y:PolyLineEdge>
      </data>
    </edge>
    <edge id="e10" source="n5" target="n9">
      <data key="d9">
        <y:PolyLineEdge>
          <y:Path sx="100.0" sy="15.0" tx="-100.0" ty="-11.25">
            <y:Point x="628.5" y="-253.5"/>
            <y:Point x="628.5" y="-192.75"/>
          </y:Path>
          <y:LineStyle color="#000000" type="line" width="1.0"/>
          <y:Arrows source="none" target="standard"/>
          <y:BendStyle smoothed="true"/>
        </y:PolyLineEdge>
      </data>
    </edge>
    <edge id="e11" source="n5" target="n11">
      <data key="d9">
        <y:PolyLineEdge>
          <y:Path sx="100.0" sy="-15.0" tx="-100.0" ty="-0.0">
            <y:Point x="595.5" y="-283.5"/>
            <y:Point x="595.5" y="-380.5"/>
          </y:Path>
          <y:LineStyle color="#000000" type="line" width="1.0"/>
          <y:Arrows source="none" target="standard"/>
          <y:BendStyle smoothed="true"/>
        </y:PolyLineEdge>
      </data>
    </edge>
    <edge id="e12" source="n5" target="n10">
      <data key="d9">
        <y:PolyLineEdge>
          <y:Path sx="100.0" sy="-0.0" tx="-100.0" ty="12.5"/>
          <y:LineStyle color="#000000" type="line" width="1.0"/>
          <y:Arrows source="none" target="standard"/>
          <y:BendStyle smoothed="true"/>
        </y:PolyLineEdge>
      </data>
    </edge>
    <edge id="e13" source="n6" target="n9">
      <data key="d9">
        <y:PolyLineEdge>
          <y:Path sx="100.0" sy="15.0" tx="-100.0" ty="11.25">
            <y:Point x="503.5" y="-181.5"/>
            <y:Point x="503.5" y="-170.25"/>
          </y:Path>
          <y:LineStyle color="#000000" type="line" width="1.0"/>
          <y:Arrows source="none" target="standard"/>
          <y:BendStyle smoothed="true"/>
        </y:PolyLineEdge>
      </data>
    </edge>
    <edge id="e14" source="n6" target="n11">
      <data key="d9">
        <y:PolyLineEdge>
          <y:Path sx="100.0" sy="-15.0" tx="-100.0" ty="15.0">
            <y:Point x="606.5" y="-211.5"/>
            <y:Point x="606.5" y="-365.5"/>
          </y:Path>
          <y:LineStyle color="#000000" type="line" width="1.0"/>
          <y:Arrows source="none" target="standard"/>
          <y:BendStyle smoothed="true"/>
        </y:PolyLineEdge>
      </data>
    </edge>
    <edge id="e15" source="n6" target="n10">
      <data key="d9">
        <y:PolyLineEdge>
          <y:Path sx="100.0" sy="-0.0" tx="-100.0" ty="37.5">
            <y:Point x="617.5" y="-196.5"/>
            <y:Point x="617.5" y="-243.5"/>
          </y:Path>
          <y:LineStyle color="#000000" type="line" width="1.0"/>
          <y:Arrows source="none" target="standard"/>
          <y:BendStyle smoothed="true"/>
        </y:PolyLineEdge>
      </data>
    </edge>
    <edge id="e16" source="n7" target="n1">
      <data key="d9">
        <y:PolyLineEdge>
          <y:Path sx="100.0" sy="-21.818181818181813" tx="-100.0" ty="-0.0">
            <y:Point x="595.5" y="-866.9094516594516"/>
            <y:Point x="595.5" y="-816.7277777777778"/>
          </y:Path>
          <y:LineStyle color="#000000" type="line" width="1.0"/>
          <y:Arrows source="none" target="standard"/>
          <y:BendStyle smoothed="true"/>
        </y:PolyLineEdge>
      </data>
    </edge>
    <edge id="e17" source="n7" target="n7">
      <data key="d9">
        <y:PolyLineEdge>
          <y:Path sx="100.0" sy="109.0909090909091" tx="-100.0" ty="60.0">
            <y:Point x="518.5" y="-736.0003607503608"/>
            <y:Point x="518.5" y="-615.5003607503608"/>
            <y:Point x="265.5" y="-615.5003607503608"/>
            <y:Point x="265.5" y="-785.0912698412699"/>
          </y:Path>
          <y:LineStyle color="#000000" type="line" width="1.0"/>
          <y:Arrows source="none" target="standard"/>
          <y:BendStyle smoothed="true"/>
        </y:PolyLineEdge>
      </data>
    </edge>
    <edge id="e18" source="n7" target="n12">
      <data key="d9">
        <y:PolyLineEdge>
          <y:Path sx="100.0" sy="-43.636363636363626" tx="-100.0" ty="-0.0"/>
          <y:LineStyle color="#000000" type="line" width="1.0"/>
          <y:Arrows source="none" target="standard"/>
          <y:BendStyle smoothed="true"/>
        </y:PolyLineEdge>
      </data>
    </edge>
    <edge id="e19" source="n7" target="n13">
      <data key="d9">
        <y:PolyLineEdge>
          <y:Path sx="100.0" sy="43.636363636363626" tx="-100.0" ty="-0.0">
            <y:Point x="562.5" y="-801.4549062049063"/>
            <y:Point x="562.5" y="-717.2277777777778"/>
          </y:Path>
          <y:LineStyle color="#000000" type="line" width="1.0"/>
          <y:Arrows source="none" target="standard"/>
          <y:EdgeLabel alignment="center" backgroundColor="#DAE7F7" distance="2.0" fontFamily="Gill Sans MT" fontSize="9" fontStyle="plain" height="14.43701171875" horizontalTextPosition="center" iconTextGap="4" lineColor="#5BABE0" modelName="side_slider" preferredPlacement="center_right" ratio="0.13329294281732865" textColor="#000000" verticalTextPosition="bottom" visible="true" width="40.28564453125" x="20.169677734375" y="1.9999888146249987">InvoiceTo<y:PreferredPlacementDescriptor angle="0.0" angleOffsetOnRightSide="0" angleReference="absolute" angleRotationOnRightSide="co" distance="-1.0" placement="center" side="right" sideReference="relative_to_edge_flow"/>
          </y:EdgeLabel>
          <y:BendStyle smoothed="true"/>
        </y:PolyLineEdge>
      </data>
    </edge>
    <edge id="e20" source="n7" target="n13">
      <data key="d9">
        <y:PolyLineEdge>
          <y:Path sx="100.0" sy="21.818181818181813" tx="-100.0" ty="-20.0">
            <y:Point x="573.5" y="-823.2730880230881"/>
            <y:Point x="573.5" y="-737.2277777777778"/>
          </y:Path>
          <y:LineStyle color="#000000" type="line" width="1.0"/>
          <y:Arrows source="none" target="standard"/>
          <y:EdgeLabel alignment="center" backgroundColor="#DAE7F7" distance="2.0" fontFamily="Gill Sans MT" fontSize="9" fontStyle="plain" height="14.43701171875" horizontalTextPosition="center" iconTextGap="4" lineColor="#5BABE0" modelName="side_slider" preferredPlacement="center_right" ratio="0.15559045666273874" textColor="#000000" verticalTextPosition="bottom" visible="true" width="41.22607421875" x="25.199462890625" y="1.9999832659743788">DeliverTo<y:PreferredPlacementDescriptor angle="0.0" angleOffsetOnRightSide="0" angleReference="absolute" angleRotationOnRightSide="co" distance="-1.0" placement="center" side="right" sideReference="relative_to_edge_flow"/>
          </y:EdgeLabel>
          <y:BendStyle smoothed="true"/>
        </y:PolyLineEdge>
      </data>
    </edge>
    <edge id="e21" source="n7" target="n20">
      <data key="d9">
        <y:PolyLineEdge>
          <y:Path sx="100.0" sy="-65.45454545454545" tx="-100.0" ty="15.0">
            <y:Point x="525.5" y="-910.5458152958154"/>
            <y:Point x="525.5" y="-945.7277777777778"/>
          </y:Path>
          <y:LineStyle color="#000000" type="line" width="1.0"/>
          <y:Arrows source="none" target="standard"/>
          <y:EdgeLabel alignment="center" backgroundColor="#DAE7F7" distance="2.0" fontFamily="Gill Sans MT" fontSize="9" fontStyle="plain" height="14.43701171875" horizontalTextPosition="center" iconTextGap="4" lineColor="#5BABE0" modelName="side_slider" preferredPlacement="center_right" ratio="0.663727680356685" textColor="#000000" verticalTextPosition="bottom" visible="true" width="41.22607421875" x="76.074462890625" y="-51.61895209418401">DeliverTo<y:PreferredPlacementDescriptor angle="0.0" angleOffsetOnRightSide="0" angleReference="absolute" angleRotationOnRightSide="co" distance="-1.0" placement="center" side="right" sideReference="relative_to_edge_flow"/>
          </y:EdgeLabel>
          <y:BendStyle smoothed="true"/>
        </y:PolyLineEdge>
      </data>
    </edge>
    <edge id="e22" source="n7" target="n20">
      <data key="d9">
        <y:PolyLineEdge>
          <y:Path sx="100.0" sy="-87.27272727272728" tx="-100.0" ty="-0.0">
            <y:Point x="514.5" y="-932.3639971139971"/>
            <y:Point x="514.5" y="-960.7277777777778"/>
          </y:Path>
          <y:LineStyle color="#000000" type="line" width="1.0"/>
          <y:Arrows source="none" target="standard"/>
          <y:EdgeLabel alignment="center" backgroundColor="#DAE7F7" distance="2.0" fontFamily="Gill Sans MT" fontSize="9" fontStyle="plain" height="14.43701171875" horizontalTextPosition="center" iconTextGap="4" lineColor="#5BABE0" modelName="side_slider" preferredPlacement="center_right" ratio="0.6199760639084327" textColor="#000000" verticalTextPosition="bottom" visible="true" width="45.34375" x="68.515625" y="-44.80077582465276">OrderedBy<y:PreferredPlacementDescriptor angle="0.0" angleOffsetOnRightSide="0" angleReference="absolute" angleRotationOnRightSide="co" distance="-1.0" placement="center" side="right" sideReference="relative_to_edge_flow"/>
          </y:EdgeLabel>
          <y:BendStyle smoothed="true"/>
        </y:PolyLineEdge>
      </data>
    </edge>
    <edge id="e23" source="n7" target="n20">
      <data key="d9">
        <y:PolyLineEdge>
          <y:Path sx="100.0" sy="-109.0909090909091" tx="-100.0" ty="-15.0">
            <y:Point x="503.5" y="-954.182178932179"/>
            <y:Point x="503.5" y="-975.7277777777778"/>
          </y:Path>
          <y:LineStyle color="#000000" type="line" width="1.0"/>
          <y:Arrows source="none" target="standard"/>
          <y:EdgeLabel alignment="center" backgroundColor="#DAE7F7" distance="2.0" fontFamily="Gill Sans MT" fontSize="9" fontStyle="plain" height="14.43701171875" horizontalTextPosition="center" iconTextGap="4" lineColor="#5BABE0" modelName="side_slider" preferredPlacement="center_right" ratio="0.5727415036158096" textColor="#000000" verticalTextPosition="bottom" visible="true" width="40.28564453125" x="65.544677734375" y="-37.98259955512151">InvoiceTo<y:PreferredPlacementDescriptor angle="0.0" angleOffsetOnRightSide="0" angleReference="absolute" angleRotationOnRightSide="co" distance="-1.0" placement="center" side="right" sideReference="relative_to_edge_flow"/>
          </y:EdgeLabel>
          <y:BendStyle smoothed="true"/>
        </y:PolyLineEdge>
      </data>
    </edge>
    <edge id="e24" source="n7" target="n11">
      <data key="d9">
        <y:PolyLineEdge>
          <y:Path sx="100.0" sy="87.27272727272725" tx="-100.0" ty="-15.0">
            <y:Point x="540.5" y="-757.8185425685426"/>
            <y:Point x="540.5" y="-395.5"/>
          </y:Path>
          <y:LineStyle color="#000000" type="line" width="1.0"/>
          <y:Arrows source="none" target="standard"/>
          <y:BendStyle smoothed="true"/>
        </y:PolyLineEdge>
      </data>
    </edge>
    <edge id="e25" source="n7" target="n13">
      <data key="d9">
        <y:PolyLineEdge>
          <y:Path sx="100.0" sy="-0.0" tx="-100.0" ty="-40.0">
            <y:Point x="584.5" y="-845.0912698412699"/>
            <y:Point x="584.5" y="-757.2277777777778"/>
          </y:Path>
          <y:LineStyle color="#000000" type="line" width="1.0"/>
          <y:Arrows source="none" target="standard"/>
          <y:EdgeLabel alignment="center" backgroundColor="#DAE7F7" distance="2.0" fontFamily="Gill Sans MT" fontSize="9" fontStyle="plain" height="14.43701171875" horizontalTextPosition="center" iconTextGap="4" lineColor="#5BABE0" modelName="side_slider" preferredPlacement="center_right" ratio="0.17754673622963793" textColor="#000000" verticalTextPosition="bottom" visible="true" width="45.34375" x="28.640625" y="1.9999777173238726">OrderedBy<y:PreferredPlacementDescriptor angle="0.0" angleOffsetOnRightSide="0" angleReference="absolute" angleRotationOnRightSide="co" distance="-1.0" placement="center" side="right" sideReference="relative_to_edge_flow"/>
          </y:EdgeLabel>
          <y:BendStyle smoothed="true"/>
        </y:PolyLineEdge>
      </data>
    </edge>
    <edge id="e26" source="n7" target="n17">
      <data key="d9">
        <y:PolyLineEdge>
          <y:Path sx="100.0" sy="65.45454545454544" tx="-100.0" ty="-11.25">
            <y:Point x="551.5" y="-779.6367243867244"/>
            <y:Point x="551.5" y="-561.75"/>
          </y:Path>
          <y:LineStyle color="#000000" type="line" width="1.0"/>
          <y:Arrows source="none" target="standard"/>
          <y:BendStyle smoothed="true"/>
        </y:PolyLineEdge>
      </data>
    </edge>
    <edge id="e27" source="n8" target="n7">
      <data key="d9">
        <y:PolyLineEdge>
          <y:Path sx="100.0" sy="-0.0" tx="-100.0" ty="-60.0"/>
          <y:LineStyle color="#000000" type="line" width="1.0"/>
          <y:Arrows source="none" target="standard"/>
          <y:BendStyle smoothed="true"/>
        </y:PolyLineEdge>
      </data>
    </edge>
    <edge id="e28" source="n8" target="n19">
      <data key="d9">
        <y:PolyLineEdge>
          <y:Path sx="100.0" sy="-20.0" tx="-100.0" ty="-0.0">
            <y:Point x="223.5" y="-925.0912698412699"/>
            <y:Point x="223.5" y="-1014.5912698412699"/>
          </y:Path>
          <y:LineStyle color="#000000" type="line" width="1.0"/>
          <y:Arrows source="none" target="standard"/>
          <y:BendStyle smoothed="true"/>
        </y:PolyLineEdge>
      </data>
    </edge>
    <edge id="e29" source="n8" target="n15">
      <data key="d9">
        <y:PolyLineEdge>
          <y:Path sx="100.0" sy="20.0" tx="-100.0" ty="-11.25">
            <y:Point x="234.5" y="-885.0912698412699"/>
            <y:Point x="234.5" y="-576.75"/>
          </y:Path>
          <y:LineStyle color="#000000" type="line" width="1.0"/>
          <y:Arrows source="none" target="standard"/>
          <y:BendStyle smoothed="true"/>
        </y:PolyLineEdge>
      </data>
    </edge>
    <edge id="e30" source="n8" target="n10">
      <data key="d9">
        <y:PolyLineEdge>
          <y:Path sx="100.0" sy="40.0" tx="-100.0" ty="-12.5">
            <y:Point x="223.5" y="-865.0912698412699"/>
            <y:Point x="223.5" y="-316.5"/>
            <y:Point x="503.5" y="-316.5"/>
            <y:Point x="503.5" y="-293.5"/>
          </y:Path>
          <y:LineStyle color="#000000" type="line" width="1.0"/>
          <y:Arrows source="none" target="standard"/>
          <y:BendStyle smoothed="true"/>
        </y:PolyLineEdge>
      </data>
    </edge>
    <edge id="e31" source="n8" target="n0">
      <data key="d9">
        <y:PolyLineEdge>
          <y:Path sx="100.0" sy="-40.0" tx="-100.0" ty="-15.0">
            <y:Point x="212.5" y="-945.0912698412699"/>
            <y:Point x="212.5" y="-1062.5912698412699"/>
            <y:Point x="871.5" y="-1062.5912698412699"/>
            <y:Point x="871.5" y="-732.2277777777778"/>
          </y:Path>
          <y:LineStyle color="#000000" type="line" width="1.0"/>
          <y:Arrows source="none" target="standard"/>
          <y:BendStyle smoothed="true"/>
        </y:PolyLineEdge>
      </data>
    </edge>
    <edge id="e32" source="n2" target="n16">
      <data key="d8"/>
      <data key="d9">
        <y:PolyLineEdge>
          <y:Path sx="0.0" sy="0.0" tx="0.0" ty="0.0"/>
          <y:LineStyle color="#000000" type="line" width="1.0"/>
          <y:Arrows source="none" target="standard"/>
          <y:BendStyle smoothed="false"/>
        </y:PolyLineEdge>
      </data>
    </edge>
  </graph>
  <data key="d6">
    <y:Resources/>
  </data>
</graphml>
