<?xml version="1.0" encoding="UTF-8"?><svg xmlns="http://www.w3.org/2000/svg" xmlns:xlink="http://www.w3.org/1999/xlink" fill-opacity="1" color-rendering="auto" color-interpolation="auto" text-rendering="auto" stroke="black" stroke-linecap="square" width="1263" stroke-miterlimit="10" shape-rendering="auto" stroke-opacity="1" fill="black" stroke-dasharray="none" font-weight="normal" stroke-width="1" height="679" font-family="'Dialog'" font-style="normal" stroke-linejoin="miter" font-size="12px" stroke-dashoffset="0" image-rendering="auto">
  <!--Generated by ySVG 2.5-->
  <defs id="genericDefs"/>
  <g>
    <defs id="defs1">
      <clipPath clipPathUnits="userSpaceOnUse" id="clipPath1">
        <path d="M0 0 L1263 0 L1263 679 L0 679 L0 0 Z"/>
      </clipPath>
      <clipPath clipPathUnits="userSpaceOnUse" id="clipPath2">
        <path d="M170 -872 L1433 -872 L1433 -193 L170 -193 L170 -872 Z"/>
      </clipPath>
      <clipPath clipPathUnits="userSpaceOnUse" id="clipPath3">
        <path d="M0 0 L0 66 L114 66 L114 0 Z"/>
      </clipPath>
      <clipPath clipPathUnits="userSpaceOnUse" id="clipPath4">
        <path d="M0 0 L0 66 L148 66 L148 0 Z"/>
      </clipPath>
      <clipPath clipPathUnits="userSpaceOnUse" id="clipPath5">
        <path d="M0 0 L0 66 L176 66 L176 0 Z"/>
      </clipPath>
      <clipPath clipPathUnits="userSpaceOnUse" id="clipPath6">
        <path d="M0 0 L0 66 L150 66 L150 0 Z"/>
      </clipPath>
      <clipPath clipPathUnits="userSpaceOnUse" id="clipPath7">
        <path d="M0 0 L0 66 L158 66 L158 0 Z"/>
      </clipPath>
      <clipPath clipPathUnits="userSpaceOnUse" id="clipPath8">
        <path d="M0 0 L0 66 L254 66 L254 0 Z"/>
      </clipPath>
      <clipPath clipPathUnits="userSpaceOnUse" id="clipPath9">
        <path d="M0 0 L0 66 L164 66 L164 0 Z"/>
      </clipPath>
      <clipPath clipPathUnits="userSpaceOnUse" id="clipPath10">
        <path d="M0 0 L0 66 L143 66 L143 0 Z"/>
      </clipPath>
      <clipPath clipPathUnits="userSpaceOnUse" id="clipPath11">
        <path d="M0 0 L0 66 L141 66 L141 0 Z"/>
      </clipPath>
      <clipPath clipPathUnits="userSpaceOnUse" id="clipPath12">
        <path d="M0 0 L0 66 L171 66 L171 0 Z"/>
      </clipPath>
      <script type="text/ecmascript"><![CDATA[      var SVGDocument = null;
      var SVGRoot = null;
      var TrueCoords = null;
      var lastElement = null;
      var initialized = null;
      var tipGroup;
      function Init(evt)
      {
         SVGDocument = evt.target.ownerDocument;
         SVGRoot = SVGDocument.documentElement;
         TrueCoords = SVGRoot.createSVGPoint();
         initialized = evt;
      };
      function GetTrueCoords(evt)
      {
         var newScale = SVGRoot.currentScale;
         var translation = SVGRoot.currentTranslate;
         TrueCoords.x = (evt.clientX - translation.x)/newScale;
         TrueCoords.y = (evt.clientY - translation.y)/newScale;
      };
      function HideTooltip( evt )
      {
         if(initialized == null) {
           Init(evt);
         }
         if(tipGroup != null) {
           tipGroup.setAttributeNS(null, 'visibility', 'hidden');
         }
      };
      function ShowTooltip( evt )
      {
         if(initialized == null) {
           Init(evt);
         }
         GetTrueCoords( evt );
         var tipScale = 1/SVGRoot.currentScale;
         var targetElement = evt.currentTarget;
         if ( lastElement != targetElement )
         {
            var targetId = targetElement.getAttributeNS(null, 'id');
            var tipId = 'tooltip.' + targetId;
            tipGroup = SVGDocument.getElementById(tipId);
            var xPos = TrueCoords.x + (10 * tipScale);
            var yPos = TrueCoords.y + (10 * tipScale);
            tipGroup.setAttributeNS(null, 'transform', 'translate(' + xPos + ',' + yPos + ') scale(' + tipScale + ')');
            tipGroup.setAttributeNS(null, 'visibility', 'visible');
         }
      };
]]></script>
    </defs>
    <g fill="white" text-rendering="geometricPrecision" shape-rendering="geometricPrecision" transform="translate(-170,872)" stroke="white">
      <rect x="170" width="1263" height="679" y="-872" clip-path="url(#clipPath2)" stroke="none"/>
    </g>
    <g onmouseout="HideTooltip(evt)" id="y.node.0" onmousemove="ShowTooltip(evt)">
      <g transform="matrix(1,0,0,1,-170,872) translate(2,2)" fill-opacity="0.4941" fill="rgb(192,192,192)" text-rendering="geometricPrecision" shape-rendering="geometricPrecision" stroke="rgb(192,192,192)" stroke-opacity="0.4941">
        <rect x="1185" y="-601.654" width="200" rx="4" ry="4" height="45" stroke="none"/>
      </g>
      <g fill="rgb(89,169,223)" text-rendering="geometricPrecision" shape-rendering="geometricPrecision" transform="matrix(1,0,0,1,-170,872)" stroke="rgb(89,169,223)">
        <rect x="1185" y="-601.654" width="200" rx="4" ry="4" height="45" stroke="none"/>
      </g>
      <g>
        <g stroke-linecap="butt" font-size="15px" transform="matrix(1,0,0,1,-170,872)" fill="white" text-rendering="geometricPrecision" font-family="'Gill Sans MT'" shape-rendering="geometricPrecision" stroke="white" stroke-miterlimit="1.45">
          <text x="1222.0483" xml:space="preserve" y="-582.611" stroke="none">OpportunityStatuses</text>
          <text x="1237.5354" xml:space="preserve" y="-565.216" stroke="none">domops, #code</text>
        </g>
      </g>
      <g stroke-linecap="butt" transform="matrix(1,0,0,1,-170,872)" fill="rgb(29,113,184)" text-rendering="geometricPrecision" shape-rendering="geometricPrecision" stroke="rgb(29,113,184)" stroke-miterlimit="1.45">
        <rect x="1185" y="-601.654" fill="none" width="200" rx="4" ry="4" height="45"/>
      </g>
    </g>
    <g onmouseout="HideTooltip(evt)" id="y.node.1" onmousemove="ShowTooltip(evt)">
      <g transform="matrix(1,0,0,1,-170,872) translate(2,2)" fill-opacity="0.4941" fill="rgb(192,192,192)" text-rendering="geometricPrecision" shape-rendering="geometricPrecision" stroke="rgb(192,192,192)" stroke-opacity="0.4941">
        <rect x="253" y="-255" width="200" rx="4" ry="4" height="45" stroke="none"/>
      </g>
      <g fill="rgb(89,169,223)" text-rendering="geometricPrecision" shape-rendering="geometricPrecision" transform="matrix(1,0,0,1,-170,872)" stroke="rgb(89,169,223)">
        <rect x="253" y="-255" width="200" rx="4" ry="4" height="45" stroke="none"/>
      </g>
      <g>
        <g stroke-linecap="butt" font-size="15px" transform="matrix(1,0,0,1,-170,872)" fill="white" text-rendering="geometricPrecision" font-family="'Gill Sans MT'" shape-rendering="geometricPrecision" stroke="white" stroke-miterlimit="1.45">
          <text x="296.4644" xml:space="preserve" y="-235.957" stroke="none">QuotationStatuses</text>
          <text x="306.7878" xml:space="preserve" y="-218.562" stroke="none">domqss, #code</text>
        </g>
      </g>
      <g stroke-linecap="butt" transform="matrix(1,0,0,1,-170,872)" fill="rgb(29,113,184)" text-rendering="geometricPrecision" shape-rendering="geometricPrecision" stroke="rgb(29,113,184)" stroke-miterlimit="1.45">
        <rect x="253" y="-255" fill="none" width="200" rx="4" ry="4" height="45"/>
      </g>
    </g>
    <g onmouseout="HideTooltip(evt)" id="y.node.2" onmousemove="ShowTooltip(evt)">
      <g transform="matrix(1,0,0,1,-170,872) translate(2,2)" fill-opacity="0.4941" fill="rgb(192,192,192)" text-rendering="geometricPrecision" shape-rendering="geometricPrecision" stroke="rgb(192,192,192)" stroke-opacity="0.4941">
        <rect x="1185" y="-529.654" width="200" rx="4" ry="4" height="45" stroke="none"/>
      </g>
      <g fill="rgb(168,201,76)" text-rendering="geometricPrecision" shape-rendering="geometricPrecision" transform="matrix(1,0,0,1,-170,872)" stroke="rgb(168,201,76)">
        <rect x="1185" y="-529.654" width="200" rx="4" ry="4" height="45" stroke="none"/>
      </g>
      <g>
        <g stroke-linecap="butt" font-size="15px" transform="matrix(1,0,0,1,-170,872)" fill="white" text-rendering="geometricPrecision" font-family="'Gill Sans MT'" shape-rendering="geometricPrecision" stroke="white" stroke-miterlimit="1.45">
          <text x="1243.1531" xml:space="preserve" y="-510.611" stroke="none">ReasonCodes</text>
          <text x="1256.5747" xml:space="preserve" y="-493.216" stroke="none">rrce, #ID</text>
        </g>
      </g>
      <g stroke-linecap="butt" transform="matrix(1,0,0,1,-170,872)" fill="rgb(138,170,23)" text-rendering="geometricPrecision" shape-rendering="geometricPrecision" stroke="rgb(138,170,23)" stroke-miterlimit="1.45">
        <rect x="1185" y="-529.654" fill="none" width="200" rx="4" ry="4" height="45"/>
      </g>
    </g>
    <g onmouseout="HideTooltip(evt)" id="y.node.3" onmousemove="ShowTooltip(evt)">
      <g transform="matrix(1,0,0,1,-170,872) translate(2,2)" fill-opacity="0.4941" fill="rgb(192,192,192)" text-rendering="geometricPrecision" shape-rendering="geometricPrecision" stroke="rgb(192,192,192)" stroke-opacity="0.4941">
        <rect x="1185" y="-463.0841" width="200" rx="4" ry="4" height="45" stroke="none"/>
      </g>
      <g fill="rgb(168,201,76)" text-rendering="geometricPrecision" shape-rendering="geometricPrecision" transform="matrix(1,0,0,1,-170,872)" stroke="rgb(168,201,76)">
        <rect x="1185" y="-463.0841" width="200" rx="4" ry="4" height="45" stroke="none"/>
      </g>
      <g>
        <g stroke-linecap="butt" font-size="15px" transform="matrix(1,0,0,1,-170,872)" fill="white" text-rendering="geometricPrecision" font-family="'Gill Sans MT'" shape-rendering="geometricPrecision" stroke="white" stroke-miterlimit="1.45">
          <text x="1227.981" xml:space="preserve" y="-444.0412" stroke="none">OpportunityStages</text>
          <text x="1255.8057" xml:space="preserve" y="-426.6461" stroke="none">rose, #ID</text>
        </g>
      </g>
      <g stroke-linecap="butt" transform="matrix(1,0,0,1,-170,872)" fill="rgb(138,170,23)" text-rendering="geometricPrecision" shape-rendering="geometricPrecision" stroke="rgb(138,170,23)" stroke-miterlimit="1.45">
        <rect x="1185" y="-463.0841" fill="none" width="200" rx="4" ry="4" height="45"/>
      </g>
    </g>
    <g onmouseout="HideTooltip(evt)" id="y.node.4" onmousemove="ShowTooltip(evt)">
      <g transform="matrix(1,0,0,1,-170,872) translate(2,2)" fill-opacity="0.4941" fill="rgb(192,192,192)" text-rendering="geometricPrecision" shape-rendering="geometricPrecision" stroke="rgb(192,192,192)" stroke-opacity="0.4941">
        <rect x="253" y="-590.4619" width="200" rx="4" ry="4" height="235" stroke="none"/>
      </g>
      <g fill="rgb(220,118,0)" text-rendering="geometricPrecision" shape-rendering="geometricPrecision" transform="matrix(1,0,0,1,-170,872)" stroke="rgb(220,118,0)">
        <rect x="253" y="-590.4619" width="200" rx="4" ry="4" height="235" stroke="none"/>
      </g>
      <g>
        <g stroke-linecap="butt" font-size="15px" transform="matrix(1,0,0,1,-170,872)" fill="white" text-rendering="geometricPrecision" font-family="'Gill Sans MT'" shape-rendering="geometricPrecision" stroke="white" stroke-miterlimit="1.45">
          <text x="318.3235" xml:space="preserve" y="-476.4189" stroke="none">Quotations</text>
          <text x="292.6338" xml:space="preserve" y="-459.0239" stroke="none">rqtn, #QuotationID</text>
        </g>
      </g>
      <g stroke-linecap="butt" transform="matrix(1,0,0,1,-170,872)" fill="rgb(209,84,0)" text-rendering="geometricPrecision" shape-rendering="geometricPrecision" stroke="rgb(209,84,0)" stroke-miterlimit="1.45">
        <rect x="253" y="-590.4619" fill="none" width="200" rx="4" ry="4" height="235"/>
      </g>
    </g>
    <g onmouseout="HideTooltip(evt)" id="y.node.5" onmousemove="ShowTooltip(evt)">
      <g transform="matrix(1,0,0,1,-170,872) translate(2,2)" fill-opacity="0.4941" fill="rgb(192,192,192)" text-rendering="geometricPrecision" shape-rendering="geometricPrecision" stroke="rgb(192,192,192)" stroke-opacity="0.4941">
        <rect x="253" y="-690.5248" width="200" rx="4" ry="4" height="45" stroke="none"/>
      </g>
      <g fill="rgb(220,118,0)" text-rendering="geometricPrecision" shape-rendering="geometricPrecision" transform="matrix(1,0,0,1,-170,872)" stroke="rgb(220,118,0)">
        <rect x="253" y="-690.5248" width="200" rx="4" ry="4" height="45" stroke="none"/>
      </g>
      <g>
        <g stroke-linecap="butt" font-size="15px" transform="matrix(1,0,0,1,-170,872)" fill="white" text-rendering="geometricPrecision" font-family="'Gill Sans MT'" shape-rendering="geometricPrecision" stroke="white" stroke-miterlimit="1.45">
          <text x="305.6599" xml:space="preserve" y="-671.4818" stroke="none">QuotationLines</text>
          <text x="341.0432" xml:space="preserve" y="-654.0868" stroke="none">rqle</text>
        </g>
      </g>
      <g stroke-linecap="butt" transform="matrix(1,0,0,1,-170,872)" fill="rgb(209,84,0)" text-rendering="geometricPrecision" shape-rendering="geometricPrecision" stroke="rgb(209,84,0)" stroke-miterlimit="1.45">
        <rect x="253" y="-690.5248" fill="none" width="200" rx="4" ry="4" height="45"/>
      </g>
    </g>
    <g onmouseout="HideTooltip(evt)" id="y.node.6" onmousemove="ShowTooltip(evt)">
      <g transform="matrix(1,0,0,1,-170,872) translate(2,2)" fill-opacity="0.4941" fill="rgb(192,192,192)" text-rendering="geometricPrecision" shape-rendering="geometricPrecision" stroke="rgb(192,192,192)" stroke-opacity="0.4941">
        <rect x="893" y="-728.8853" width="200" rx="4" ry="4" height="45" stroke="none"/>
      </g>
      <g fill="rgb(220,118,0)" text-rendering="geometricPrecision" shape-rendering="geometricPrecision" transform="matrix(1,0,0,1,-170,872)" stroke="rgb(220,118,0)">
        <rect x="893" y="-728.8853" width="200" rx="4" ry="4" height="45" stroke="none"/>
      </g>
      <g>
        <g stroke-linecap="butt" font-size="15px" transform="matrix(1,0,0,1,-170,872)" fill="white" text-rendering="geometricPrecision" font-family="'Gill Sans MT'" shape-rendering="geometricPrecision" stroke="white" stroke-miterlimit="1.45">
          <text x="912.082" xml:space="preserve" y="-709.8424" stroke="none">OpportunityContactsRead</text>
          <text x="978.7837" xml:space="preserve" y="-692.4474" stroke="none">rocd</text>
        </g>
      </g>
      <g stroke-linecap="butt" transform="matrix(1,0,0,1,-170,872)" fill="rgb(209,84,0)" text-rendering="geometricPrecision" shape-rendering="geometricPrecision" stroke="rgb(209,84,0)" stroke-miterlimit="1.45">
        <rect x="893" y="-728.8853" fill="none" width="200" rx="4" ry="4" height="45"/>
      </g>
    </g>
    <g onmouseout="HideTooltip(evt)" id="y.node.7" onmousemove="ShowTooltip(evt)">
      <g transform="matrix(1,0,0,1,-170,872) translate(2,2)" fill-opacity="0.4941" fill="rgb(192,192,192)" text-rendering="geometricPrecision" shape-rendering="geometricPrecision" stroke="rgb(192,192,192)" stroke-opacity="0.4941">
        <rect x="893" y="-531.077" width="200" rx="4" ry="4" height="145" stroke="none"/>
      </g>
      <g fill="rgb(220,118,0)" text-rendering="geometricPrecision" shape-rendering="geometricPrecision" transform="matrix(1,0,0,1,-170,872)" stroke="rgb(220,118,0)">
        <rect x="893" y="-531.077" width="200" rx="4" ry="4" height="145" stroke="none"/>
      </g>
      <g>
        <g stroke-linecap="butt" font-size="15px" transform="matrix(1,0,0,1,-170,872)" fill="white" text-rendering="geometricPrecision" font-family="'Gill Sans MT'" shape-rendering="geometricPrecision" stroke="white" stroke-miterlimit="1.45">
          <text x="949.9556" xml:space="preserve" y="-462.034" stroke="none">Opportunities</text>
          <text x="963.249" xml:space="preserve" y="-444.639" stroke="none">ropy, #ID</text>
        </g>
      </g>
      <g stroke-linecap="butt" transform="matrix(1,0,0,1,-170,872)" fill="rgb(209,84,0)" text-rendering="geometricPrecision" shape-rendering="geometricPrecision" stroke="rgb(209,84,0)" stroke-miterlimit="1.45">
        <rect x="893" y="-531.077" fill="none" width="200" rx="4" ry="4" height="145"/>
      </g>
    </g>
    <g onmouseout="HideTooltip(evt)" id="y.node.8" onmousemove="ShowTooltip(evt)">
      <g transform="matrix(1,0,0,1,-170,872) translate(2,2)" fill-opacity="0.4941" fill="rgb(192,192,192)" text-rendering="geometricPrecision" shape-rendering="geometricPrecision" stroke="rgb(192,192,192)" stroke-opacity="0.4941">
        <rect x="517" y="-316" width="200" rx="4" ry="4" height="45" stroke="none"/>
      </g>
      <g fill="rgb(220,118,0)" text-rendering="geometricPrecision" shape-rendering="geometricPrecision" transform="matrix(1,0,0,1,-170,872)" stroke="rgb(220,118,0)">
        <rect x="517" y="-316" width="200" rx="4" ry="4" height="45" stroke="none"/>
      </g>
      <g>
        <g stroke-linecap="butt" font-size="15px" transform="matrix(1,0,0,1,-170,872)" fill="white" text-rendering="geometricPrecision" font-family="'Gill Sans MT'" shape-rendering="geometricPrecision" stroke="white" stroke-miterlimit="1.45">
          <text x="542.9521" xml:space="preserve" y="-296.957" stroke="none">DocumentsAttachments</text>
          <text x="587.6482" xml:space="preserve" y="-279.562" stroke="none">rdan, #ID</text>
        </g>
      </g>
      <g stroke-linecap="butt" transform="matrix(1,0,0,1,-170,872)" fill="rgb(209,84,0)" text-rendering="geometricPrecision" shape-rendering="geometricPrecision" stroke="rgb(209,84,0)" stroke-miterlimit="1.45">
        <rect x="517" y="-316" fill="none" width="200" rx="4" ry="4" height="45"/>
      </g>
    </g>
    <g onmouseout="HideTooltip(evt)" id="y.node.9" onmousemove="ShowTooltip(evt)">
      <g transform="matrix(1,0,0,1,-170,872) translate(2,2)" fill-opacity="0.4941" fill="rgb(192,192,192)" text-rendering="geometricPrecision" shape-rendering="geometricPrecision" stroke="rgb(192,192,192)" stroke-opacity="0.4941">
        <rect x="752" y="-285.5" width="200" rx="4" ry="4" height="45" stroke="none"/>
      </g>
      <g fill="rgb(220,118,0)" text-rendering="geometricPrecision" shape-rendering="geometricPrecision" transform="matrix(1,0,0,1,-170,872)" stroke="rgb(220,118,0)">
        <rect x="752" y="-285.5" width="200" rx="4" ry="4" height="45" stroke="none"/>
      </g>
      <g>
        <g stroke-linecap="butt" font-size="15px" transform="matrix(1,0,0,1,-170,872)" fill="white" text-rendering="geometricPrecision" font-family="'Gill Sans MT'" shape-rendering="geometricPrecision" stroke="white" stroke-miterlimit="1.45">
          <text x="802.6311" xml:space="preserve" y="-266.457" stroke="none">CrmDocuments</text>
          <text x="839.4243" xml:space="preserve" y="-249.062" stroke="none">rcdt</text>
        </g>
      </g>
      <g stroke-linecap="butt" transform="matrix(1,0,0,1,-170,872)" fill="rgb(209,84,0)" text-rendering="geometricPrecision" shape-rendering="geometricPrecision" stroke="rgb(209,84,0)" stroke-miterlimit="1.45">
        <rect x="752" y="-285.5" fill="none" width="200" rx="4" ry="4" height="45"/>
      </g>
    </g>
    <g onmouseout="HideTooltip(evt)" id="y.node.10" onmousemove="ShowTooltip(evt)">
      <g fill="rgb(204,204,204)" text-rendering="geometricPrecision" shape-rendering="geometricPrecision" transform="matrix(1,0,0,1,-170,872) translate(2,2)" stroke="rgb(204,204,204)">
        <rect x="1185" y="-673.654" width="200" rx="4" ry="4" height="45" stroke="none"/>
      </g>
      <g fill="rgb(238,238,238)" text-rendering="geometricPrecision" shape-rendering="geometricPrecision" transform="matrix(1,0,0,1,-170,872)" stroke="rgb(238,238,238)">
        <rect x="1185" y="-673.654" width="200" rx="4" ry="4" height="45" stroke="none"/>
      </g>
      <g>
        <g font-size="15px" stroke-linecap="butt" transform="matrix(1,0,0,1,-170,872)" text-rendering="geometricPrecision" font-family="'Gill Sans MT'" shape-rendering="geometricPrecision" stroke-miterlimit="1.45">
          <text x="1245.8777" xml:space="preserve" y="-654.611" stroke="none">SystemUsers</text>
          <text x="1231.6101" xml:space="preserve" y="-637.216" stroke="none">System: rsur, #ID</text>
        </g>
      </g>
      <g stroke-linecap="butt" transform="matrix(1,0,0,1,-170,872)" fill="rgb(68,68,68)" text-rendering="geometricPrecision" shape-rendering="geometricPrecision" stroke="rgb(68,68,68)" stroke-miterlimit="1.45">
        <rect x="1185" y="-673.654" fill="none" width="200" rx="4" ry="4" height="45"/>
      </g>
    </g>
    <g onmouseout="HideTooltip(evt)" id="y.node.11" onmousemove="ShowTooltip(evt)">
      <g fill="rgb(204,204,204)" text-rendering="geometricPrecision" shape-rendering="geometricPrecision" transform="matrix(1,0,0,1,-170,872) translate(2,2)" stroke="rgb(204,204,204)">
        <rect x="580" y="-728.8853" width="200" rx="4" ry="4" height="45" stroke="none"/>
      </g>
      <g fill="rgb(238,238,238)" text-rendering="geometricPrecision" shape-rendering="geometricPrecision" transform="matrix(1,0,0,1,-170,872)" stroke="rgb(238,238,238)">
        <rect x="580" y="-728.8853" width="200" rx="4" ry="4" height="45" stroke="none"/>
      </g>
      <g>
        <g font-size="15px" stroke-linecap="butt" transform="matrix(1,0,0,1,-170,872)" text-rendering="geometricPrecision" font-family="'Gill Sans MT'" shape-rendering="geometricPrecision" stroke-miterlimit="1.45">
          <text x="644.6936" xml:space="preserve" y="-709.8424" stroke="none">Documents</text>
          <text x="612.782" xml:space="preserve" y="-692.4474" stroke="none">Documents: rdct, #ID</text>
        </g>
      </g>
      <g stroke-linecap="butt" transform="matrix(1,0,0,1,-170,872)" fill="rgb(68,68,68)" text-rendering="geometricPrecision" shape-rendering="geometricPrecision" stroke="rgb(68,68,68)" stroke-miterlimit="1.45">
        <rect x="580" y="-728.8853" fill="none" width="200" rx="4" ry="4" height="45"/>
      </g>
    </g>
    <g onmouseout="HideTooltip(evt)" id="y.node.12" onmousemove="ShowTooltip(evt)">
      <g fill="rgb(204,204,204)" text-rendering="geometricPrecision" shape-rendering="geometricPrecision" transform="matrix(1,0,0,1,-170,872) translate(2,2)" stroke="rgb(204,204,204)">
        <rect x="580" y="-507.1927" width="200" rx="4" ry="4" height="45" stroke="none"/>
      </g>
      <g fill="rgb(238,238,238)" text-rendering="geometricPrecision" shape-rendering="geometricPrecision" transform="matrix(1,0,0,1,-170,872)" stroke="rgb(238,238,238)">
        <rect x="580" y="-507.1927" width="200" rx="4" ry="4" height="45" stroke="none"/>
      </g>
      <g>
        <g font-size="15px" stroke-linecap="butt" transform="matrix(1,0,0,1,-170,872)" text-rendering="geometricPrecision" font-family="'Gill Sans MT'" shape-rendering="geometricPrecision" stroke-miterlimit="1.45">
          <text x="655.1636" xml:space="preserve" y="-488.1497" stroke="none">Projects</text>
          <text x="627.8516" xml:space="preserve" y="-470.7547" stroke="none">Project: rpjt, #ID</text>
        </g>
      </g>
      <g stroke-linecap="butt" transform="matrix(1,0,0,1,-170,872)" fill="rgb(68,68,68)" text-rendering="geometricPrecision" shape-rendering="geometricPrecision" stroke="rgb(68,68,68)" stroke-miterlimit="1.45">
        <rect x="580" y="-507.1927" fill="none" width="200" rx="4" ry="4" height="45"/>
      </g>
    </g>
    <g onmouseout="HideTooltip(evt)" id="y.node.13" onmousemove="ShowTooltip(evt)">
      <g fill="rgb(204,204,204)" text-rendering="geometricPrecision" shape-rendering="geometricPrecision" transform="matrix(1,0,0,1,-170,872) translate(2,2)" stroke="rgb(204,204,204)">
        <rect x="580" y="-656.654" width="200" rx="4" ry="4" height="100" stroke="none"/>
      </g>
      <g fill="rgb(238,238,238)" text-rendering="geometricPrecision" shape-rendering="geometricPrecision" transform="matrix(1,0,0,1,-170,872)" stroke="rgb(238,238,238)">
        <rect x="580" y="-656.654" width="200" rx="4" ry="4" height="100" stroke="none"/>
      </g>
      <g>
        <g font-size="15px" stroke-linecap="butt" transform="matrix(1,0,0,1,-170,872)" text-rendering="geometricPrecision" font-family="'Gill Sans MT'" shape-rendering="geometricPrecision" stroke-miterlimit="1.45">
          <text x="652.4353" xml:space="preserve" y="-610.111" stroke="none">Contacts</text>
          <text x="620.8203" xml:space="preserve" y="-592.716" stroke="none">Accounts: rctt, #ID</text>
        </g>
      </g>
      <g stroke-linecap="butt" transform="matrix(1,0,0,1,-170,872)" fill="rgb(68,68,68)" text-rendering="geometricPrecision" shape-rendering="geometricPrecision" stroke="rgb(68,68,68)" stroke-miterlimit="1.45">
        <rect x="580" y="-656.654" fill="none" width="200" rx="4" ry="4" height="100"/>
      </g>
    </g>
    <g onmouseout="HideTooltip(evt)" id="y.node.14" onmousemove="ShowTooltip(evt)">
      <g fill="rgb(204,204,204)" text-rendering="geometricPrecision" shape-rendering="geometricPrecision" transform="matrix(1,0,0,1,-170,872) translate(2,2)" stroke="rgb(204,204,204)">
        <rect x="253" y="-316" width="200" rx="4" ry="4" height="45" stroke="none"/>
      </g>
      <g fill="rgb(238,238,238)" text-rendering="geometricPrecision" shape-rendering="geometricPrecision" transform="matrix(1,0,0,1,-170,872)" stroke="rgb(238,238,238)">
        <rect x="253" y="-316" width="200" rx="4" ry="4" height="45" stroke="none"/>
      </g>
      <g>
        <g font-size="15px" stroke-linecap="butt" transform="matrix(1,0,0,1,-170,872)" text-rendering="geometricPrecision" font-family="'Gill Sans MT'" shape-rendering="geometricPrecision" stroke-miterlimit="1.45">
          <text x="321.5388" xml:space="preserve" y="-296.957" stroke="none">Addresses</text>
          <text x="292.1907" xml:space="preserve" y="-279.562" stroke="none">Accounts: rads, #ID</text>
        </g>
      </g>
      <g stroke-linecap="butt" transform="matrix(1,0,0,1,-170,872)" fill="rgb(68,68,68)" text-rendering="geometricPrecision" shape-rendering="geometricPrecision" stroke="rgb(68,68,68)" stroke-miterlimit="1.45">
        <rect x="253" y="-316" fill="none" width="200" rx="4" ry="4" height="45"/>
      </g>
    </g>
    <g onmouseout="HideTooltip(evt)" id="y.node.15" onmousemove="ShowTooltip(evt)">
      <g fill="rgb(204,204,204)" text-rendering="geometricPrecision" shape-rendering="geometricPrecision" transform="matrix(1,0,0,1,-170,872) translate(2,2)" stroke="rgb(204,204,204)">
        <rect x="1185" y="-396.5143" width="200" rx="4" ry="4" height="180" stroke="none"/>
      </g>
      <g fill="rgb(238,238,238)" text-rendering="geometricPrecision" shape-rendering="geometricPrecision" transform="matrix(1,0,0,1,-170,872)" stroke="rgb(238,238,238)">
        <rect x="1185" y="-396.5143" width="200" rx="4" ry="4" height="180" stroke="none"/>
      </g>
      <g>
        <g font-size="15px" stroke-linecap="butt" transform="matrix(1,0,0,1,-170,872)" text-rendering="geometricPrecision" font-family="'Gill Sans MT'" shape-rendering="geometricPrecision" stroke-miterlimit="1.45">
          <text x="1256.4062" xml:space="preserve" y="-309.9713" stroke="none">Accounts</text>
          <text x="1225.1172" xml:space="preserve" y="-292.5763" stroke="none">Accounts: ract, #ID</text>
        </g>
      </g>
      <g stroke-linecap="butt" transform="matrix(1,0,0,1,-170,872)" fill="rgb(68,68,68)" text-rendering="geometricPrecision" shape-rendering="geometricPrecision" stroke="rgb(68,68,68)" stroke-miterlimit="1.45">
        <rect x="1185" y="-396.5143" fill="none" width="200" rx="4" ry="4" height="180"/>
      </g>
    </g>
    <g onmouseout="HideTooltip(evt)" id="y.node.16" onmousemove="ShowTooltip(evt)">
      <g fill="rgb(204,204,204)" text-rendering="geometricPrecision" shape-rendering="geometricPrecision" transform="matrix(1,0,0,1,-170,872) translate(2,2)" stroke="rgb(204,204,204)">
        <rect x="580" y="-823.2832" width="200" rx="4" ry="4" height="45" stroke="none"/>
      </g>
      <g fill="rgb(238,238,238)" text-rendering="geometricPrecision" shape-rendering="geometricPrecision" transform="matrix(1,0,0,1,-170,872)" stroke="rgb(238,238,238)">
        <rect x="580" y="-823.2832" width="200" rx="4" ry="4" height="45" stroke="none"/>
      </g>
      <g>
        <g font-size="15px" stroke-linecap="butt" transform="matrix(1,0,0,1,-170,872)" text-rendering="geometricPrecision" font-family="'Gill Sans MT'" shape-rendering="geometricPrecision" stroke-miterlimit="1.45">
          <text x="646.1877" xml:space="preserve" y="-804.2402" stroke="none">VATCodes</text>
          <text x="633.4692" xml:space="preserve" y="-786.8452" stroke="none">VAT: rvce, #ID</text>
        </g>
      </g>
      <g stroke-linecap="butt" transform="matrix(1,0,0,1,-170,872)" fill="rgb(68,68,68)" text-rendering="geometricPrecision" shape-rendering="geometricPrecision" stroke="rgb(68,68,68)" stroke-miterlimit="1.45">
        <rect x="580" y="-823.2832" fill="none" width="200" rx="4" ry="4" height="45"/>
      </g>
    </g>
    <g onmouseout="HideTooltip(evt)" id="y.node.17" onmousemove="ShowTooltip(evt)">
      <g fill="rgb(204,204,204)" text-rendering="geometricPrecision" shape-rendering="geometricPrecision" transform="matrix(1,0,0,1,-170,872) translate(2,2)" stroke="rgb(204,204,204)">
        <rect x="253" y="-823.2832" width="200" rx="4" ry="4" height="45" stroke="none"/>
      </g>
      <g fill="rgb(238,238,238)" text-rendering="geometricPrecision" shape-rendering="geometricPrecision" transform="matrix(1,0,0,1,-170,872)" stroke="rgb(238,238,238)">
        <rect x="253" y="-823.2832" width="200" rx="4" ry="4" height="45" stroke="none"/>
      </g>
      <g>
        <g font-size="15px" stroke-linecap="butt" transform="matrix(1,0,0,1,-170,872)" text-rendering="geometricPrecision" font-family="'Gill Sans MT'" shape-rendering="geometricPrecision" stroke-miterlimit="1.45">
          <text x="336.9124" xml:space="preserve" y="-804.2402" stroke="none">Units</text>
          <text x="285.4744" xml:space="preserve" y="-786.8452" stroke="none">Logistics: runt, #Code</text>
        </g>
      </g>
      <g stroke-linecap="butt" transform="matrix(1,0,0,1,-170,872)" fill="rgb(68,68,68)" text-rendering="geometricPrecision" shape-rendering="geometricPrecision" stroke="rgb(68,68,68)" stroke-miterlimit="1.45">
        <rect x="253" y="-823.2832" fill="none" width="200" rx="4" ry="4" height="45"/>
      </g>
    </g>
    <g onmouseout="HideTooltip(evt)" id="y.node.18" onmousemove="ShowTooltip(evt)">
      <g fill="rgb(204,204,204)" text-rendering="geometricPrecision" shape-rendering="geometricPrecision" transform="matrix(1,0,0,1,-170,872) translate(2,2)" stroke="rgb(204,204,204)">
        <rect x="253" y="-756.904" width="200" rx="4" ry="4" height="45" stroke="none"/>
      </g>
      <g fill="rgb(238,238,238)" text-rendering="geometricPrecision" shape-rendering="geometricPrecision" transform="matrix(1,0,0,1,-170,872)" stroke="rgb(238,238,238)">
        <rect x="253" y="-756.904" width="200" rx="4" ry="4" height="45" stroke="none"/>
      </g>
      <g>
        <g font-size="15px" stroke-linecap="butt" transform="matrix(1,0,0,1,-170,872)" text-rendering="geometricPrecision" font-family="'Gill Sans MT'" shape-rendering="geometricPrecision" stroke-miterlimit="1.45">
          <text x="336.3667" xml:space="preserve" y="-737.861" stroke="none">Items</text>
          <text x="294.9116" xml:space="preserve" y="-720.466" stroke="none">Logistics: ritm, #ID</text>
        </g>
      </g>
      <g stroke-linecap="butt" transform="matrix(1,0,0,1,-170,872)" fill="rgb(68,68,68)" text-rendering="geometricPrecision" shape-rendering="geometricPrecision" stroke="rgb(68,68,68)" stroke-miterlimit="1.45">
        <rect x="253" y="-756.904" fill="none" width="200" rx="4" ry="4" height="45"/>
      </g>
    </g>
    <g onmouseout="HideTooltip(evt)" id="y.node.19" onmousemove="ShowTooltip(evt)">
      <g fill="rgb(204,204,204)" text-rendering="geometricPrecision" shape-rendering="geometricPrecision" transform="matrix(1,0,0,1,-170,872) translate(2,2)" stroke="rgb(204,204,204)">
        <rect x="517" y="-255" width="200" rx="4" ry="4" height="45" stroke="none"/>
      </g>
      <g fill="rgb(238,238,238)" text-rendering="geometricPrecision" shape-rendering="geometricPrecision" transform="matrix(1,0,0,1,-170,872)" stroke="rgb(238,238,238)">
        <rect x="517" y="-255" width="200" rx="4" ry="4" height="45" stroke="none"/>
      </g>
      <g>
        <g font-size="15px" stroke-linecap="butt" transform="matrix(1,0,0,1,-170,872)" text-rendering="geometricPrecision" font-family="'Gill Sans MT'" shape-rendering="geometricPrecision" stroke-miterlimit="1.45">
          <text x="562.0061" xml:space="preserve" y="-235.957" stroke="none">DocumentFolders</text>
          <text x="550.7195" xml:space="preserve" y="-218.562" stroke="none">Documents: rdfr, #ID</text>
        </g>
      </g>
      <g stroke-linecap="butt" transform="matrix(1,0,0,1,-170,872)" fill="rgb(68,68,68)" text-rendering="geometricPrecision" shape-rendering="geometricPrecision" stroke="rgb(68,68,68)" stroke-miterlimit="1.45">
        <rect x="517" y="-255" fill="none" width="200" rx="4" ry="4" height="45"/>
      </g>
    </g>
    <g id="y.edge.11">
      <g text-rendering="geometricPrecision" stroke-miterlimit="1.45" shape-rendering="geometricPrecision" transform="matrix(1,0,0,1,-170,872)" stroke-linecap="butt">
        <path fill="none" d="M292 -355.4359 L292 -340.5004 L291.375 -336.1254 L289.5 -333.0004 L286.375 -331.1254 L282 -330.5004 L237.5 -330.5004 L233.125 -331.1254 L230 -333.0004 L228.125 -336.1254 L227.5 -340.5004 L227.5 -384.6286 L228.0453 -389.0036 L229.6813 -392.1286 L232.4079 -394.0036 L236.2251 -394.6286 L244.9502 -394.6286"/>
        <path d="M252.9502 -394.6286 L240.9502 -399.6286 L243.9502 -394.6286 L240.9502 -389.6286 Z" stroke="none"/>
      </g>
    </g>
    <g id="y.edge.1">
      <g text-rendering="geometricPrecision" stroke-miterlimit="1.45" shape-rendering="geometricPrecision" transform="matrix(1,0,0,1,-170,872)" stroke-linecap="butt">
        <path fill="none" d="M253.0104 -440.6542 L195 -440.6542 L190.625 -440.0292 L187.5 -438.1542 L185.625 -435.0292 L185 -430.6542 L185 -242.5 L185.625 -238.125 L187.5 -235 L190.625 -233.125 L195 -232.5 L244.9668 -232.5"/>
        <path d="M252.9668 -232.5 L240.9668 -237.5 L243.9668 -232.5 L240.9668 -227.5 Z" stroke="none"/>
      </g>
    </g>
    <g id="y.edge.17">
      <g text-rendering="geometricPrecision" stroke-miterlimit="1.45" shape-rendering="geometricPrecision" transform="matrix(1,0,0,1,-170,872)" stroke-linecap="butt">
        <path fill="none" d="M353 -645.5248 L353 -598.4888"/>
        <path d="M353 -590.4888 L358 -602.4888 L353 -599.4888 L348 -602.4888 Z" stroke="none"/>
      </g>
    </g>
    <g id="y.edge.2">
      <g text-rendering="geometricPrecision" stroke-miterlimit="1.45" shape-rendering="geometricPrecision" transform="matrix(1,0,0,1,-170,872)" stroke-linecap="butt">
        <path fill="none" d="M452.9688 -439.6113 L556.0003 -440.3776 L576 -440.452 L884.9601 -440.452"/>
        <path d="M892.9601 -440.452 L880.9601 -445.452 L883.9601 -440.452 L880.9601 -435.452 Z" stroke="none"/>
      </g>
      <g>
        <g stroke-linecap="butt" transform="matrix(1,0,0,1,-170,872)" fill="rgb(218,231,247)" text-rendering="geometricPrecision" shape-rendering="geometricPrecision" stroke="rgb(218,231,247)" stroke-miterlimit="1.45">
          <rect x="633.5067" width="49.8481" height="14.437" y="-438.452" stroke="none"/>
        </g>
        <g fill="rgb(91,171,224)" text-rendering="geometricPrecision" stroke-miterlimit="1.6" shape-rendering="geometricPrecision" transform="matrix(1,0,0,1,-170,872)" stroke="rgb(91,171,224)">
          <rect fill="none" x="633.5067" width="49.8481" height="14.437" y="-438.452"/>
        </g>
        <g font-size="9px" stroke-linecap="butt" transform="matrix(1,0,0,1,-170,872)" text-rendering="geometricPrecision" font-family="'Gill Sans MT'" shape-rendering="geometricPrecision" stroke-miterlimit="1.45">
          <text x="635.5067" xml:space="preserve" y="-428.0892" stroke="none">Opportunity</text>
        </g>
      </g>
    </g>
    <g id="y.edge.18">
      <g text-rendering="geometricPrecision" stroke-miterlimit="1.45" shape-rendering="geometricPrecision" transform="matrix(1,0,0,1,-170,872)" stroke-linecap="butt">
        <path fill="none" d="M1012.5 -683.9209 L1012.5 -539.0996"/>
        <path d="M1012.5 -531.0996 L1017.5 -543.0996 L1012.5 -540.0996 L1007.5 -543.0996 Z" stroke="none"/>
      </g>
    </g>
    <g id="y.edge.24">
      <g text-rendering="geometricPrecision" stroke-miterlimit="1.45" shape-rendering="geometricPrecision" transform="matrix(1,0,0,1,-170,872)" stroke-linecap="butt">
        <path fill="none" d="M1093.0396 -514.5 L1115 -514.5 L1119.375 -515.125 L1122.5 -517 L1124.375 -520.125 L1125 -524.5 L1125 -569.154 L1125.625 -573.529 L1127.5 -576.654 L1130.625 -578.529 L1135 -579.154 L1176.9707 -579.154"/>
        <path d="M1184.9707 -579.154 L1172.9707 -584.154 L1175.9707 -579.154 L1172.9707 -574.154 Z" stroke="none"/>
      </g>
    </g>
    <g id="y.edge.30">
      <g text-rendering="geometricPrecision" stroke-miterlimit="1.45" shape-rendering="geometricPrecision" transform="matrix(1,0,0,1,-170,872)" stroke-linecap="butt">
        <path fill="none" d="M1092.9971 -495.5 L1176.9773 -495.5"/>
        <path d="M1184.9773 -495.5 L1172.9773 -500.5 L1175.9773 -495.5 L1172.9773 -490.5 Z" stroke="none"/>
      </g>
    </g>
    <g id="y.edge.31">
      <g text-rendering="geometricPrecision" stroke-miterlimit="1.45" shape-rendering="geometricPrecision" transform="matrix(1,0,0,1,-170,872)" stroke-linecap="butt">
        <path fill="none" d="M1093.0264 -438.5 L1176.9764 -438.5"/>
        <path d="M1184.9764 -438.5 L1172.9764 -443.5 L1175.9764 -438.5 L1172.9764 -433.5 Z" stroke="none"/>
      </g>
    </g>
    <g id="y.edge.35">
      <g text-rendering="geometricPrecision" stroke-miterlimit="1.45" shape-rendering="geometricPrecision" transform="matrix(1,0,0,1,-170,872)" stroke-linecap="butt">
        <path fill="none" d="M717 -278.5 L743.9939 -278.5"/>
        <path d="M751.9939 -278.5 L739.9939 -283.5 L742.9939 -278.5 L739.9939 -273.5 Z" stroke="none"/>
      </g>
    </g>
    <g id="y.edge.32">
      <g text-rendering="geometricPrecision" stroke-miterlimit="1.45" shape-rendering="geometricPrecision" transform="matrix(1,0,0,1,-170,872)" stroke-linecap="butt">
        <path fill="none" d="M944.5 -285.5491 L944.5 -378.077"/>
        <path d="M944.5 -386.077 L939.5 -374.077 L944.5 -377.077 L949.5 -374.077 Z" stroke="none"/>
      </g>
    </g>
    <g id="y.edge.3">
      <g text-rendering="geometricPrecision" stroke-miterlimit="1.45" shape-rendering="geometricPrecision" transform="matrix(1,0,0,1,-170,872)" stroke-linecap="butt">
        <path fill="none" d="M252.9727 -472.9619 L207 -472.9619 L202.625 -473.5869 L199.5 -475.4619 L197.625 -478.5869 L197 -482.9619 L197 -830.1624 L197.625 -834.5374 L199.5 -837.6624 L202.625 -839.5374 L207 -840.1624 L1271.5 -840.1624 L1275.875 -839.5374 L1279 -837.6624 L1280.875 -834.5374 L1281.5 -830.1624 L1281.5 -681.6968"/>
        <path d="M1281.5 -673.6968 L1286.5 -685.6968 L1281.5 -682.6968 L1276.5 -685.6968 Z" stroke="none"/>
      </g>
      <g>
        <g stroke-linecap="butt" transform="matrix(1,0,0,1,-170,872)" fill="rgb(218,231,247)" text-rendering="geometricPrecision" shape-rendering="geometricPrecision" stroke="rgb(218,231,247)" stroke-miterlimit="1.45">
          <rect x="715.6992" width="47.1016" height="14.437" y="-856.5994" stroke="none"/>
        </g>
        <g fill="rgb(91,171,224)" text-rendering="geometricPrecision" stroke-miterlimit="1.6" shape-rendering="geometricPrecision" transform="matrix(1,0,0,1,-170,872)" stroke="rgb(91,171,224)">
          <rect fill="none" x="715.6992" width="47.1016" height="14.437" y="-856.5994"/>
        </g>
        <g font-size="9px" stroke-linecap="butt" transform="matrix(1,0,0,1,-170,872)" text-rendering="geometricPrecision" font-family="'Gill Sans MT'" shape-rendering="geometricPrecision" stroke-miterlimit="1.45">
          <text x="717.6992" xml:space="preserve" y="-846.2366" stroke="none">SalesPerson</text>
        </g>
      </g>
    </g>
    <g id="y.edge.20">
      <g text-rendering="geometricPrecision" stroke-miterlimit="1.45" shape-rendering="geometricPrecision" transform="matrix(1,0,0,1,-170,872)" stroke-linecap="butt">
        <path fill="none" d="M1093.0032 -693.5 L1218.5 -693.5 L1226 -692.0182 L1227.875 -690.1659 L1228.5 -687.5728 L1228.5 -681.6455"/>
        <path d="M1228.5 -673.6455 L1233.5 -685.6455 L1228.5 -682.6455 L1223.5 -685.6455 Z" stroke="none"/>
      </g>
      <g>
        <g stroke-linecap="butt" transform="matrix(1,0,0,1,-170,872)" fill="rgb(218,231,247)" text-rendering="geometricPrecision" shape-rendering="geometricPrecision" stroke="rgb(218,231,247)" stroke-miterlimit="1.45">
          <rect x="1130.927" width="68.771" height="14.437" y="-709.937" stroke="none"/>
        </g>
        <g fill="rgb(91,171,224)" text-rendering="geometricPrecision" stroke-miterlimit="1.6" shape-rendering="geometricPrecision" transform="matrix(1,0,0,1,-170,872)" stroke="rgb(91,171,224)">
          <rect fill="none" x="1130.927" width="68.771" height="14.437" y="-709.937"/>
        </g>
        <g font-size="9px" stroke-linecap="butt" transform="matrix(1,0,0,1,-170,872)" text-rendering="geometricPrecision" font-family="'Gill Sans MT'" shape-rendering="geometricPrecision" stroke-miterlimit="1.45">
          <text x="1132.927" xml:space="preserve" y="-699.5742" stroke="none">IdentificationUser</text>
        </g>
      </g>
    </g>
    <g id="y.edge.26">
      <g text-rendering="geometricPrecision" stroke-miterlimit="1.45" shape-rendering="geometricPrecision" transform="matrix(1,0,0,1,-170,872)" stroke-linecap="butt">
        <path fill="none" d="M1045.5 -531.0886 L1045.5 -629.3243 L1046.125 -633.6993 L1048 -636.8243 L1051.125 -638.6993 L1055.5 -639.3243 L1176.9857 -639.3243"/>
        <path d="M1184.9857 -639.3243 L1172.9857 -644.3243 L1175.9857 -639.3243 L1172.9857 -634.3243 Z" stroke="none"/>
      </g>
      <g>
        <g stroke-linecap="butt" transform="matrix(1,0,0,1,-170,872)" fill="rgb(218,231,247)" text-rendering="geometricPrecision" shape-rendering="geometricPrecision" stroke="rgb(218,231,247)" stroke-miterlimit="1.45">
          <rect x="1095.5588" width="30.2573" height="14.437" y="-655.7613" stroke="none"/>
        </g>
        <g fill="rgb(91,171,224)" text-rendering="geometricPrecision" stroke-miterlimit="1.6" shape-rendering="geometricPrecision" transform="matrix(1,0,0,1,-170,872)" stroke="rgb(91,171,224)">
          <rect fill="none" x="1095.5588" width="30.2573" height="14.437" y="-655.7613"/>
        </g>
        <g font-size="9px" stroke-linecap="butt" transform="matrix(1,0,0,1,-170,872)" text-rendering="geometricPrecision" font-family="'Gill Sans MT'" shape-rendering="geometricPrecision" stroke-miterlimit="1.45">
          <text x="1097.5588" xml:space="preserve" y="-645.3986" stroke="none">Owner</text>
        </g>
      </g>
    </g>
    <g id="y.edge.4">
      <g text-rendering="geometricPrecision" stroke-miterlimit="1.45" shape-rendering="geometricPrecision" transform="matrix(1,0,0,1,-170,872)" stroke-linecap="butt">
        <path fill="none" d="M453 -581.4235 L503 -581.4235 L507.375 -582.0485 L510.5 -583.9235 L512.375 -587.0485 L513 -591.4235 L513 -685.1354 L513.625 -689.5104 L515.5 -692.6354 L518.625 -694.5104 L523 -695.1354 L571.9673 -695.1354"/>
        <path d="M579.9673 -695.1354 L567.9673 -700.1354 L570.9673 -695.1354 L567.9673 -690.1354 Z" stroke="none"/>
      </g>
    </g>
    <g id="y.edge.0">
      <g text-rendering="geometricPrecision" stroke-miterlimit="1.45" shape-rendering="geometricPrecision" transform="matrix(1,0,0,1,-170,872)" stroke-linecap="butt">
        <path fill="none" d="M779.9885 -705.5 L802 -705.5 L806.375 -704.875 L809.5 -703 L811.375 -699.875 L812 -695.5 L812 -501.702 L812.625 -497.327 L814.5 -494.202 L817.625 -492.327 L822 -491.702 L884.9604 -491.702"/>
        <path d="M892.9604 -491.702 L880.9604 -496.702 L883.9604 -491.702 L880.9604 -486.702 Z" stroke="none"/>
      </g>
    </g>
    <g id="y.edge.5">
      <g text-rendering="geometricPrecision" stroke-miterlimit="1.45" shape-rendering="geometricPrecision" transform="matrix(1,0,0,1,-170,872)" stroke-linecap="butt">
        <path fill="none" d="M452.9788 -468.5 L571.9812 -468.5"/>
        <path d="M579.9812 -468.5 L567.9812 -473.5 L570.9812 -468.5 L567.9812 -463.5 Z" stroke="none"/>
      </g>
    </g>
    <g id="y.edge.27">
      <g text-rendering="geometricPrecision" stroke-miterlimit="1.45" shape-rendering="geometricPrecision" transform="matrix(1,0,0,1,-170,872)" stroke-linecap="butt">
        <path fill="none" d="M892.9724 -476.702 L788 -476.702"/>
        <path d="M780 -476.702 L792 -471.702 L789 -476.702 L792 -481.702 Z" stroke="none"/>
      </g>
    </g>
    <g id="y.edge.36">
      <g text-rendering="geometricPrecision" stroke-miterlimit="1.45" shape-rendering="geometricPrecision" transform="matrix(1,0,0,1,-170,872)" stroke-linecap="butt">
        <path fill="none" d="M579.9697 -494.5 L460.9696 -494.5"/>
        <path d="M452.9696 -494.5 L464.9696 -489.5 L461.9696 -494.5 L464.9696 -499.5 Z" stroke="none"/>
      </g>
    </g>
    <g id="y.edge.6">
      <g text-rendering="geometricPrecision" stroke-miterlimit="1.45" shape-rendering="geometricPrecision" transform="matrix(1,0,0,1,-170,872)" stroke-linecap="butt">
        <path fill="none" d="M453 -527.1927 L540 -527.1927 L544.375 -527.8177 L547.5 -529.6927 L549.375 -532.8177 L550 -537.1927 L550 -554.9873 L550.625 -559.3623 L552.5 -562.4873 L555.625 -564.3623 L560 -564.9873 L571.9707 -564.9873"/>
        <path d="M579.9707 -564.9873 L567.9707 -569.9873 L570.9707 -564.9873 L567.9707 -559.9873 Z" stroke="none"/>
      </g>
      <g>
        <g stroke-linecap="butt" transform="matrix(1,0,0,1,-170,872)" fill="rgb(218,231,247)" text-rendering="geometricPrecision" shape-rendering="geometricPrecision" stroke="rgb(218,231,247)" stroke-miterlimit="1.45">
          <rect x="552" width="34.7661" height="14.437" y="-547.9691" stroke="none"/>
        </g>
        <g fill="rgb(91,171,224)" text-rendering="geometricPrecision" stroke-miterlimit="1.6" shape-rendering="geometricPrecision" transform="matrix(1,0,0,1,-170,872)" stroke="rgb(91,171,224)">
          <rect fill="none" x="552" width="34.7661" height="14.437" y="-547.9691"/>
        </g>
        <g font-size="9px" stroke-linecap="butt" transform="matrix(1,0,0,1,-170,872)" text-rendering="geometricPrecision" font-family="'Gill Sans MT'" shape-rendering="geometricPrecision" stroke-miterlimit="1.45">
          <text x="554" xml:space="preserve" y="-537.6063" stroke="none">Delivery</text>
        </g>
      </g>
    </g>
    <g id="y.edge.9">
      <g text-rendering="geometricPrecision" stroke-miterlimit="1.45" shape-rendering="geometricPrecision" transform="matrix(1,0,0,1,-170,872)" stroke-linecap="butt">
        <path fill="none" d="M453 -545.2696 L530 -545.2696 L534.375 -545.8946 L537.5 -547.7696 L539.375 -550.8946 L540 -555.2696 L540 -571.654 L540.625 -576.029 L542.5 -579.154 L545.625 -581.029 L550 -581.654 L571.9609 -581.654"/>
        <path d="M579.9609 -581.654 L567.9609 -586.654 L570.9609 -581.654 L567.9609 -576.654 Z" stroke="none"/>
      </g>
      <g>
        <g stroke-linecap="butt" transform="matrix(1,0,0,1,-170,872)" fill="rgb(218,231,247)" text-rendering="geometricPrecision" shape-rendering="geometricPrecision" stroke="rgb(218,231,247)" stroke-miterlimit="1.45">
          <rect x="542" width="27.436" height="14.437" y="-570.6803" stroke="none"/>
        </g>
        <g fill="rgb(91,171,224)" text-rendering="geometricPrecision" stroke-miterlimit="1.6" shape-rendering="geometricPrecision" transform="matrix(1,0,0,1,-170,872)" stroke="rgb(91,171,224)">
          <rect fill="none" x="542" width="27.436" height="14.437" y="-570.6803"/>
        </g>
        <g font-size="9px" stroke-linecap="butt" transform="matrix(1,0,0,1,-170,872)" text-rendering="geometricPrecision" font-family="'Gill Sans MT'" shape-rendering="geometricPrecision" stroke-miterlimit="1.45">
          <text x="544" xml:space="preserve" y="-560.3175" stroke="none">Order</text>
        </g>
      </g>
    </g>
    <g id="y.edge.12">
      <g text-rendering="geometricPrecision" stroke-miterlimit="1.45" shape-rendering="geometricPrecision" transform="matrix(1,0,0,1,-170,872)" stroke-linecap="butt">
        <path fill="none" d="M453 -563.3465 L520 -563.3465 L524.375 -563.9715 L527.5 -565.8465 L529.375 -568.9715 L530 -573.3465 L530 -588.3206 L530.625 -592.6956 L532.5 -595.8206 L535.625 -597.6956 L540 -598.3206 L571.9512 -598.3206"/>
        <path d="M579.9512 -598.3206 L567.9512 -603.3206 L570.9512 -598.3206 L567.9512 -593.3206 Z" stroke="none"/>
      </g>
      <g>
        <g stroke-linecap="butt" transform="matrix(1,0,0,1,-170,872)" fill="rgb(218,231,247)" text-rendering="geometricPrecision" shape-rendering="geometricPrecision" stroke="rgb(218,231,247)" stroke-miterlimit="1.45">
          <rect x="532" width="29.8838" height="14.437" y="-588.0521" stroke="none"/>
        </g>
        <g fill="rgb(91,171,224)" text-rendering="geometricPrecision" stroke-miterlimit="1.6" shape-rendering="geometricPrecision" transform="matrix(1,0,0,1,-170,872)" stroke="rgb(91,171,224)">
          <rect fill="none" x="532" width="29.8838" height="14.437" y="-588.0521"/>
        </g>
        <g font-size="9px" stroke-linecap="butt" transform="matrix(1,0,0,1,-170,872)" text-rendering="geometricPrecision" font-family="'Gill Sans MT'" shape-rendering="geometricPrecision" stroke-miterlimit="1.45">
          <text x="534" xml:space="preserve" y="-577.6893" stroke="none">Invoice</text>
        </g>
      </g>
    </g>
    <g id="y.edge.19">
      <g text-rendering="geometricPrecision" stroke-miterlimit="1.45" shape-rendering="geometricPrecision" transform="matrix(1,0,0,1,-170,872)" stroke-linecap="butt">
        <path fill="none" d="M958 -683.9005 L958 -604.154 L957.375 -599.779 L955.5 -596.654 L952.375 -594.779 L948 -594.154 L788.0044 -594.154"/>
        <path d="M780.0044 -594.154 L792.0044 -589.154 L789.0044 -594.154 L792.0044 -599.154 Z" stroke="none"/>
      </g>
    </g>
    <g id="y.edge.22">
      <g text-rendering="geometricPrecision" stroke-miterlimit="1.45" shape-rendering="geometricPrecision" transform="matrix(1,0,0,1,-170,872)" stroke-linecap="butt">
        <path fill="none" d="M941.5 -683.87 L941.5 -624.6397 L940.875 -620.2647 L939 -617.1397 L935.875 -615.2647 L931.5 -614.6397 L788.0317 -614.6397"/>
        <path d="M780.0317 -614.6397 L792.0317 -609.6397 L789.0317 -614.6397 L792.0317 -619.6397 Z" stroke="none"/>
      </g>
      <g>
        <g stroke-linecap="butt" transform="matrix(1,0,0,1,-170,872)" fill="rgb(218,231,247)" text-rendering="geometricPrecision" shape-rendering="geometricPrecision" stroke="rgb(218,231,247)" stroke-miterlimit="1.45">
          <rect x="890.5444" width="50.9556" height="14.437" y="-675.7603" stroke="none"/>
        </g>
        <g fill="rgb(91,171,224)" text-rendering="geometricPrecision" stroke-miterlimit="1.6" shape-rendering="geometricPrecision" transform="matrix(1,0,0,1,-170,872)" stroke="rgb(91,171,224)">
          <rect fill="none" x="890.5444" width="50.9556" height="14.437" y="-675.7603"/>
        </g>
        <g font-size="9px" stroke-linecap="butt" transform="matrix(1,0,0,1,-170,872)" text-rendering="geometricPrecision" font-family="'Gill Sans MT'" shape-rendering="geometricPrecision" stroke-miterlimit="1.45">
          <text x="892.5444" xml:space="preserve" y="-665.3976" stroke="none">MainContact</text>
        </g>
      </g>
    </g>
    <g id="y.edge.23">
      <g text-rendering="geometricPrecision" stroke-miterlimit="1.45" shape-rendering="geometricPrecision" transform="matrix(1,0,0,1,-170,872)" stroke-linecap="butt">
        <path fill="none" d="M973 -683.8989 L973 -588.3897 L972.375 -584.0147 L970.5 -580.8897 L967.375 -579.0147 L963 -578.3897 L788 -578.3897"/>
        <path d="M780 -578.3897 L792 -573.3897 L789 -578.3897 L792 -583.3897 Z" stroke="none"/>
      </g>
      <g>
        <g stroke-linecap="butt" transform="matrix(1,0,0,1,-170,872)" fill="rgb(218,231,247)" text-rendering="geometricPrecision" shape-rendering="geometricPrecision" stroke="rgb(218,231,247)" stroke-miterlimit="1.45">
          <rect x="788.125" width="29.3916" height="14.437" y="-592.8267" stroke="none"/>
        </g>
        <g fill="rgb(91,171,224)" text-rendering="geometricPrecision" stroke-miterlimit="1.6" shape-rendering="geometricPrecision" transform="matrix(1,0,0,1,-170,872)" stroke="rgb(91,171,224)">
          <rect fill="none" x="788.125" width="29.3916" height="14.437" y="-592.8267"/>
        </g>
        <g font-size="9px" stroke-linecap="butt" transform="matrix(1,0,0,1,-170,872)" text-rendering="geometricPrecision" font-family="'Gill Sans MT'" shape-rendering="geometricPrecision" stroke-miterlimit="1.45">
          <text x="790.125" xml:space="preserve" y="-582.4639" stroke="none">Person</text>
        </g>
      </g>
    </g>
    <g id="y.edge.7">
      <g text-rendering="geometricPrecision" stroke-miterlimit="1.45" shape-rendering="geometricPrecision" transform="matrix(1,0,0,1,-170,872)" stroke-linecap="butt">
        <path fill="none" d="M352.5 -355.4751 L352.5 -323.9993"/>
        <path d="M352.5 -315.9993 L357.5 -327.9993 L352.5 -324.9993 L347.5 -327.9993 Z" stroke="none"/>
      </g>
      <g>
        <g stroke-linecap="butt" transform="matrix(1,0,0,1,-170,872)" fill="rgb(218,231,247)" text-rendering="geometricPrecision" shape-rendering="geometricPrecision" stroke="rgb(218,231,247)" stroke-miterlimit="1.45">
          <rect x="352.5" width="34.7661" height="14.437" y="-347.3369" stroke="none"/>
        </g>
        <g fill="rgb(91,171,224)" text-rendering="geometricPrecision" stroke-miterlimit="1.6" shape-rendering="geometricPrecision" transform="matrix(1,0,0,1,-170,872)" stroke="rgb(91,171,224)">
          <rect fill="none" x="352.5" width="34.7661" height="14.437" y="-347.3369"/>
        </g>
        <g font-size="9px" stroke-linecap="butt" transform="matrix(1,0,0,1,-170,872)" text-rendering="geometricPrecision" font-family="'Gill Sans MT'" shape-rendering="geometricPrecision" stroke-miterlimit="1.45">
          <text x="354.5" xml:space="preserve" y="-336.9741" stroke="none">Delivery</text>
        </g>
      </g>
    </g>
    <g id="y.edge.8">
      <g text-rendering="geometricPrecision" stroke-miterlimit="1.45" shape-rendering="geometricPrecision" transform="matrix(1,0,0,1,-170,872)" stroke-linecap="butt">
        <path fill="none" d="M453 -382.5773 L520 -382.5773 L524.375 -381.9523 L527.5 -380.0773 L529.375 -376.9523 L530 -372.5773 L530 -346 L530.625 -341.625 L532.5 -338.5 L535.625 -336.625 L540 -336 L983 -336 L987.375 -335.375 L990.5 -333.5 L992.375 -330.375 L993 -326 L993 -300.0143 L993.625 -295.6393 L995.5 -292.5143 L998.625 -290.6393 L1003 -290.0143 L1177.0123 -290.0143"/>
        <path d="M1185.0123 -290.0143 L1173.0123 -295.0143 L1176.0123 -290.0143 L1173.0123 -285.0143 Z" stroke="none"/>
      </g>
      <g>
        <g stroke-linecap="butt" transform="matrix(1,0,0,1,-170,872)" fill="rgb(218,231,247)" text-rendering="geometricPrecision" shape-rendering="geometricPrecision" stroke="rgb(218,231,247)" stroke-miterlimit="1.45">
          <rect x="744.1169" width="34.7661" height="14.437" y="-352.437" stroke="none"/>
        </g>
        <g fill="rgb(91,171,224)" text-rendering="geometricPrecision" stroke-miterlimit="1.6" shape-rendering="geometricPrecision" transform="matrix(1,0,0,1,-170,872)" stroke="rgb(91,171,224)">
          <rect fill="none" x="744.1169" width="34.7661" height="14.437" y="-352.437"/>
        </g>
        <g font-size="9px" stroke-linecap="butt" transform="matrix(1,0,0,1,-170,872)" text-rendering="geometricPrecision" font-family="'Gill Sans MT'" shape-rendering="geometricPrecision" stroke-miterlimit="1.45">
          <text x="746.1169" xml:space="preserve" y="-342.0742" stroke="none">Delivery</text>
        </g>
      </g>
    </g>
    <g id="y.edge.10">
      <g text-rendering="geometricPrecision" stroke-miterlimit="1.45" shape-rendering="geometricPrecision" transform="matrix(1,0,0,1,-170,872)" stroke-linecap="butt">
        <path fill="none" d="M452.9832 -396.5 L536 -396.5 L540.375 -395.875 L543.5 -394 L545.375 -390.875 L546 -386.5 L546 -362 L546.625 -357.625 L548.5 -354.5 L551.625 -352.625 L556 -352 L993 -352 L997.375 -351.375 L1000.5 -349.5 L1002.375 -346.375 L1003 -342 L1003 -317.0143 L1003.625 -312.6393 L1005.5 -309.5143 L1008.625 -307.6393 L1013 -307.0143 L1177.0359 -307.0143"/>
        <path d="M1185.0359 -307.0143 L1173.0359 -312.0143 L1176.0359 -307.0143 L1173.0359 -302.0143 Z" stroke="none"/>
      </g>
      <g>
        <g stroke-linecap="butt" transform="matrix(1,0,0,1,-170,872)" fill="rgb(218,231,247)" text-rendering="geometricPrecision" shape-rendering="geometricPrecision" stroke="rgb(218,231,247)" stroke-miterlimit="1.45">
          <rect x="760.782" width="27.436" height="14.437" y="-368.437" stroke="none"/>
        </g>
        <g fill="rgb(91,171,224)" text-rendering="geometricPrecision" stroke-miterlimit="1.6" shape-rendering="geometricPrecision" transform="matrix(1,0,0,1,-170,872)" stroke="rgb(91,171,224)">
          <rect fill="none" x="760.782" width="27.436" height="14.437" y="-368.437"/>
        </g>
        <g font-size="9px" stroke-linecap="butt" transform="matrix(1,0,0,1,-170,872)" text-rendering="geometricPrecision" font-family="'Gill Sans MT'" shape-rendering="geometricPrecision" stroke-miterlimit="1.45">
          <text x="762.782" xml:space="preserve" y="-358.0742" stroke="none">Order</text>
        </g>
      </g>
    </g>
    <g id="y.edge.13">
      <g text-rendering="geometricPrecision" stroke-miterlimit="1.45" shape-rendering="geometricPrecision" transform="matrix(1,0,0,1,-170,872)" stroke-linecap="butt">
        <path fill="none" d="M452.9861 -408.885 L546 -408.885 L550.375 -408.26 L553.5 -406.385 L555.375 -403.26 L556 -398.885 L556 -379.077 L556.625 -374.702 L558.5 -371.577 L561.625 -369.702 L566 -369.077 L1003 -369.077 L1007.375 -368.452 L1010.5 -366.577 L1012.375 -363.452 L1013 -359.077 L1013 -333.0143 L1013.625 -328.6393 L1015.5 -325.5143 L1018.625 -323.6393 L1023 -323.0143 L1177.0383 -323.0143"/>
        <path d="M1185.0383 -323.0143 L1173.0383 -328.0143 L1176.0383 -323.0143 L1173.0383 -318.0143 Z" stroke="none"/>
      </g>
      <g>
        <g stroke-linecap="butt" transform="matrix(1,0,0,1,-170,872)" fill="rgb(218,231,247)" text-rendering="geometricPrecision" shape-rendering="geometricPrecision" stroke="rgb(218,231,247)" stroke-miterlimit="1.45">
          <rect x="769.5581" width="29.8838" height="14.437" y="-385.514" stroke="none"/>
        </g>
        <g fill="rgb(91,171,224)" text-rendering="geometricPrecision" stroke-miterlimit="1.6" shape-rendering="geometricPrecision" transform="matrix(1,0,0,1,-170,872)" stroke="rgb(91,171,224)">
          <rect fill="none" x="769.5581" width="29.8838" height="14.437" y="-385.514"/>
        </g>
        <g font-size="9px" stroke-linecap="butt" transform="matrix(1,0,0,1,-170,872)" text-rendering="geometricPrecision" font-family="'Gill Sans MT'" shape-rendering="geometricPrecision" stroke-miterlimit="1.45">
          <text x="771.5581" xml:space="preserve" y="-375.1512" stroke="none">Invoice</text>
        </g>
      </g>
    </g>
    <g id="y.edge.21">
      <g text-rendering="geometricPrecision" stroke-miterlimit="1.45" shape-rendering="geometricPrecision" transform="matrix(1,0,0,1,-170,872)" stroke-linecap="butt">
        <path fill="none" d="M1093 -721.3854 L1407.5 -721.3854 L1411.875 -720.7604 L1415 -718.8854 L1416.875 -715.7604 L1417.5 -711.3854 L1417.5 -316.5143 L1416.875 -312.1393 L1415 -309.0143 L1411.875 -307.1393 L1407.5 -306.5143 L1393 -306.5143"/>
        <path d="M1385 -306.5143 L1397 -301.5143 L1394 -306.5143 L1397 -311.5143 Z" stroke="none"/>
      </g>
    </g>
    <g id="y.edge.25">
      <g text-rendering="geometricPrecision" stroke-miterlimit="1.45" shape-rendering="geometricPrecision" transform="matrix(1,0,0,1,-170,872)" stroke-linecap="butt">
        <path fill="none" d="M1093 -395.1395 L1099 -395.1395 L1101.625 -394.5145 L1103.5 -392.6395 L1105 -385.1395 L1105 -358.0143 L1105.625 -353.6393 L1107.5 -350.5143 L1110.625 -348.6393 L1115 -348.0143 L1177.0293 -348.0143"/>
        <path d="M1185.0293 -348.0143 L1173.0293 -353.0143 L1176.0293 -348.0143 L1173.0293 -343.0143 Z" stroke="none"/>
      </g>
      <g>
        <g stroke-linecap="butt" transform="matrix(1,0,0,1,-170,872)" fill="rgb(218,231,247)" text-rendering="geometricPrecision" shape-rendering="geometricPrecision" stroke="rgb(218,231,247)" stroke-miterlimit="1.45">
          <rect x="1069.6577" width="33.3423" height="14.437" y="-368.566" stroke="none"/>
        </g>
        <g fill="rgb(91,171,224)" text-rendering="geometricPrecision" stroke-miterlimit="1.6" shape-rendering="geometricPrecision" transform="matrix(1,0,0,1,-170,872)" stroke="rgb(91,171,224)">
          <rect fill="none" x="1069.6577" width="33.3423" height="14.437" y="-368.566"/>
        </g>
        <g font-size="9px" stroke-linecap="butt" transform="matrix(1,0,0,1,-170,872)" text-rendering="geometricPrecision" font-family="'Gill Sans MT'" shape-rendering="geometricPrecision" stroke-miterlimit="1.45">
          <text x="1071.6577" xml:space="preserve" y="-358.2032" stroke="none">Reseller</text>
        </g>
      </g>
    </g>
    <g id="y.edge.28">
      <g text-rendering="geometricPrecision" stroke-miterlimit="1.45" shape-rendering="geometricPrecision" transform="matrix(1,0,0,1,-170,872)" stroke-linecap="butt">
        <path fill="none" d="M1093 -413.2645 L1105 -413.2645 L1109.375 -412.6395 L1112.5 -410.7645 L1114.375 -407.6395 L1115 -403.2645 L1115 -372.0143 L1115.625 -367.6393 L1117.5 -364.5143 L1120.625 -362.6393 L1125 -362.0143 L1176.9951 -362.0143"/>
        <path d="M1184.9951 -362.0143 L1172.9951 -367.0143 L1175.9951 -362.0143 L1172.9951 -357.0143 Z" stroke="none"/>
      </g>
    </g>
    <g id="y.edge.29">
      <g text-rendering="geometricPrecision" stroke-miterlimit="1.45" shape-rendering="geometricPrecision" transform="matrix(1,0,0,1,-170,872)" stroke-linecap="butt">
        <path fill="none" d="M1093.0256 -420.5 L1115 -420.5 L1119.375 -419.875 L1122.5 -418 L1124.375 -414.875 L1125 -410.5 L1125 -388.0143 L1125.625 -383.6393 L1127.5 -380.5143 L1130.625 -378.6393 L1135 -378.0143 L1176.9854 -378.0143"/>
        <path d="M1184.9854 -378.0143 L1172.9854 -383.0143 L1175.9854 -378.0143 L1172.9854 -373.0143 Z" stroke="none"/>
      </g>
      <g>
        <g stroke-linecap="butt" transform="matrix(1,0,0,1,-170,872)" fill="rgb(218,231,247)" text-rendering="geometricPrecision" shape-rendering="geometricPrecision" stroke="rgb(218,231,247)" stroke-miterlimit="1.45">
          <rect x="1076.8125" width="46.1875" height="14.437" y="-402.1342" stroke="none"/>
        </g>
        <g fill="rgb(91,171,224)" text-rendering="geometricPrecision" stroke-miterlimit="1.6" shape-rendering="geometricPrecision" transform="matrix(1,0,0,1,-170,872)" stroke="rgb(91,171,224)">
          <rect fill="none" x="1076.8125" width="46.1875" height="14.437" y="-402.1342"/>
        </g>
        <g font-size="9px" stroke-linecap="butt" transform="matrix(1,0,0,1,-170,872)" text-rendering="geometricPrecision" font-family="'Gill Sans MT'" shape-rendering="geometricPrecision" stroke-miterlimit="1.45">
          <text x="1078.8125" xml:space="preserve" y="-391.7714" stroke="none">Accountant</text>
        </g>
      </g>
    </g>
    <g id="y.edge.34">
      <g text-rendering="geometricPrecision" stroke-miterlimit="1.45" shape-rendering="geometricPrecision" transform="matrix(1,0,0,1,-170,872)" stroke-linecap="butt">
        <path fill="none" d="M952.0119 -260 L1176.9884 -260"/>
        <path d="M1184.9884 -260 L1172.9884 -265 L1175.9884 -260 L1172.9884 -255 Z" stroke="none"/>
      </g>
    </g>
    <g id="y.edge.14">
      <g text-rendering="geometricPrecision" stroke-miterlimit="1.45" shape-rendering="geometricPrecision" transform="matrix(1,0,0,1,-170,872)" stroke-linecap="butt">
        <path fill="none" d="M453.0156 -657.5 L478.5 -657.5 L482.875 -658.125 L486 -660 L487.875 -663.125 L488.5 -667.5 L488.5 -790.7831 L489.125 -795.1581 L491 -798.2831 L494.125 -800.1581 L498.5 -800.7831 L571.9553 -800.7831"/>
        <path d="M579.9553 -800.7831 L567.9553 -805.7831 L570.9553 -800.7831 L567.9553 -795.7831 Z" stroke="none"/>
      </g>
    </g>
    <g id="y.edge.15">
      <g text-rendering="geometricPrecision" stroke-miterlimit="1.45" shape-rendering="geometricPrecision" transform="matrix(1,0,0,1,-170,872)" stroke-linecap="butt">
        <path fill="none" d="M452.9941 -677.5 L465.5 -677.5 L469.875 -678.125 L473 -680 L474.875 -683.125 L475.5 -687.5 L475.5 -790.7831 L475.0464 -795.1581 L473.6855 -798.2831 L471.4173 -800.1581 L468.2419 -800.7831 L460.9838 -800.7831"/>
        <path d="M452.9838 -800.7831 L464.9838 -795.7831 L461.9838 -800.7831 L464.9838 -805.7831 Z" stroke="none"/>
      </g>
    </g>
    <g id="y.edge.16">
      <g text-rendering="geometricPrecision" stroke-miterlimit="1.45" shape-rendering="geometricPrecision" transform="matrix(1,0,0,1,-170,872)" stroke-linecap="butt">
        <path fill="none" d="M353 -690.5665 L353 -703.904"/>
        <path d="M353 -711.904 L348 -699.904 L353 -702.904 L358 -699.904 Z" stroke="none"/>
      </g>
    </g>
    <g id="y.edge.33">
      <g text-rendering="geometricPrecision" stroke-miterlimit="1.45" shape-rendering="geometricPrecision" transform="matrix(1,0,0,1,-170,872)" stroke-linecap="butt">
        <path fill="none" d="M751.9744 -248 L725 -248"/>
        <path d="M717 -248 L729 -243 L726 -248 L729 -253 Z" stroke="none"/>
      </g>
    </g>
    <g visibility="hidden" id="tooltip.y.node.0" pointer-events="none">
      <g fill="rgb(255,255,225)" text-rendering="geometricPrecision" shape-rendering="geometricPrecision" font-family="'Segoe UI'" stroke="rgb(255,255,225)">
        <rect x="0" width="114" height="66" y="0" clip-path="url(#clipPath3)" stroke="none"/>
        <text fill="black" x="4" xml:space="preserve" y="14" clip-path="url(#clipPath3)" stroke="none">Description: None.</text>
        <text fill="black" x="102" xml:space="preserve" y="14" clip-path="url(#clipPath3)" stroke="none"> </text>
        <text fill="black" x="4" xml:space="preserve" y="30" clip-path="url(#clipPath3)" stroke="none">Data Category: Seed</text>
        <text fill="black" x="110" xml:space="preserve" y="30" clip-path="url(#clipPath3)" stroke="none"> </text>
        <text fill="black" x="4" xml:space="preserve" y="46" clip-path="url(#clipPath3)" stroke="none">Group: CRM</text>
        <text fill="black" x="69" xml:space="preserve" y="46" clip-path="url(#clipPath3)" stroke="none"> </text>
        <text fill="black" x="4" xml:space="preserve" y="62" clip-path="url(#clipPath3)" stroke="none">Partition: N</text>
      </g>
      <g font-family="'Segoe UI'" text-rendering="geometricPrecision" shape-rendering="geometricPrecision">
        <path d="M0 0 L114 0 L114 66 L0 66 L0 0 ZM1 1 L113 1 L113 65 L1 65 L1 1 Z" fill-rule="evenodd" clip-path="url(#clipPath3)" stroke="none"/>
      </g>
    </g>
    <g visibility="hidden" id="tooltip.y.node.1" pointer-events="none">
      <g fill="rgb(255,255,225)" text-rendering="geometricPrecision" shape-rendering="geometricPrecision" font-family="'Segoe UI'" stroke="rgb(255,255,225)">
        <rect x="0" width="114" height="66" y="0" clip-path="url(#clipPath3)" stroke="none"/>
        <text fill="black" x="4" xml:space="preserve" y="14" clip-path="url(#clipPath3)" stroke="none">Description: None.</text>
        <text fill="black" x="102" xml:space="preserve" y="14" clip-path="url(#clipPath3)" stroke="none"> </text>
        <text fill="black" x="4" xml:space="preserve" y="30" clip-path="url(#clipPath3)" stroke="none">Data Category: Seed</text>
        <text fill="black" x="110" xml:space="preserve" y="30" clip-path="url(#clipPath3)" stroke="none"> </text>
        <text fill="black" x="4" xml:space="preserve" y="46" clip-path="url(#clipPath3)" stroke="none">Group: CRM</text>
        <text fill="black" x="69" xml:space="preserve" y="46" clip-path="url(#clipPath3)" stroke="none"> </text>
        <text fill="black" x="4" xml:space="preserve" y="62" clip-path="url(#clipPath3)" stroke="none">Partition: N</text>
      </g>
      <g font-family="'Segoe UI'" text-rendering="geometricPrecision" shape-rendering="geometricPrecision">
        <path d="M0 0 L114 0 L114 66 L0 66 L0 0 ZM1 1 L113 1 L113 65 L1 65 L1 1 Z" fill-rule="evenodd" clip-path="url(#clipPath3)" stroke="none"/>
      </g>
    </g>
    <g visibility="hidden" id="tooltip.y.node.2" pointer-events="none">
      <g fill="rgb(255,255,225)" text-rendering="geometricPrecision" shape-rendering="geometricPrecision" font-family="'Segoe UI'" stroke="rgb(255,255,225)">
        <rect x="0" width="148" height="66" y="0" clip-path="url(#clipPath4)" stroke="none"/>
        <text fill="black" x="4" xml:space="preserve" y="14" clip-path="url(#clipPath4)" stroke="none">Description: Reason Codes</text>
        <text fill="black" x="144" xml:space="preserve" y="14" clip-path="url(#clipPath4)" stroke="none"> </text>
        <text fill="black" x="4" xml:space="preserve" y="30" clip-path="url(#clipPath4)" stroke="none">Data Category: Reference</text>
        <text fill="black" x="137" xml:space="preserve" y="30" clip-path="url(#clipPath4)" stroke="none"> </text>
        <text fill="black" x="4" xml:space="preserve" y="46" clip-path="url(#clipPath4)" stroke="none">Group: CRM</text>
        <text fill="black" x="69" xml:space="preserve" y="46" clip-path="url(#clipPath4)" stroke="none"> </text>
        <text fill="black" x="4" xml:space="preserve" y="62" clip-path="url(#clipPath4)" stroke="none">Partition: Y</text>
      </g>
      <g font-family="'Segoe UI'" text-rendering="geometricPrecision" shape-rendering="geometricPrecision">
        <path d="M0 0 L148 0 L148 66 L0 66 L0 0 ZM1 1 L147 1 L147 65 L1 65 L1 1 Z" fill-rule="evenodd" clip-path="url(#clipPath4)" stroke="none"/>
      </g>
    </g>
    <g visibility="hidden" id="tooltip.y.node.3" pointer-events="none">
      <g fill="rgb(255,255,225)" text-rendering="geometricPrecision" shape-rendering="geometricPrecision" font-family="'Segoe UI'" stroke="rgb(255,255,225)">
        <rect x="0" width="176" height="66" y="0" clip-path="url(#clipPath5)" stroke="none"/>
        <text fill="black" x="4" xml:space="preserve" y="14" clip-path="url(#clipPath5)" stroke="none">Description: Opportunity Stages</text>
        <text fill="black" x="172" xml:space="preserve" y="14" clip-path="url(#clipPath5)" stroke="none"> </text>
        <text fill="black" x="4" xml:space="preserve" y="30" clip-path="url(#clipPath5)" stroke="none">Data Category: Reference</text>
        <text fill="black" x="137" xml:space="preserve" y="30" clip-path="url(#clipPath5)" stroke="none"> </text>
        <text fill="black" x="4" xml:space="preserve" y="46" clip-path="url(#clipPath5)" stroke="none">Group: CRM</text>
        <text fill="black" x="69" xml:space="preserve" y="46" clip-path="url(#clipPath5)" stroke="none"> </text>
        <text fill="black" x="4" xml:space="preserve" y="62" clip-path="url(#clipPath5)" stroke="none">Partition: Y</text>
      </g>
      <g font-family="'Segoe UI'" text-rendering="geometricPrecision" shape-rendering="geometricPrecision">
        <path d="M0 0 L176 0 L176 66 L0 66 L0 0 ZM1 1 L175 1 L175 65 L1 65 L1 1 Z" fill-rule="evenodd" clip-path="url(#clipPath5)" stroke="none"/>
      </g>
    </g>
    <g visibility="hidden" id="tooltip.y.node.4" pointer-events="none">
      <g fill="rgb(255,255,225)" text-rendering="geometricPrecision" shape-rendering="geometricPrecision" font-family="'Segoe UI'" stroke="rgb(255,255,225)">
        <rect x="0" width="150" height="66" y="0" clip-path="url(#clipPath6)" stroke="none"/>
        <text fill="black" x="4" xml:space="preserve" y="14" clip-path="url(#clipPath6)" stroke="none">Description: Quotations</text>
        <text fill="black" x="129" xml:space="preserve" y="14" clip-path="url(#clipPath6)" stroke="none"> </text>
        <text fill="black" x="4" xml:space="preserve" y="30" clip-path="url(#clipPath6)" stroke="none">Data Category: Transaction</text>
        <text fill="black" x="146" xml:space="preserve" y="30" clip-path="url(#clipPath6)" stroke="none"> </text>
        <text fill="black" x="4" xml:space="preserve" y="46" clip-path="url(#clipPath6)" stroke="none">Group: CRM</text>
        <text fill="black" x="69" xml:space="preserve" y="46" clip-path="url(#clipPath6)" stroke="none"> </text>
        <text fill="black" x="4" xml:space="preserve" y="62" clip-path="url(#clipPath6)" stroke="none">Partition: Y</text>
      </g>
      <g font-family="'Segoe UI'" text-rendering="geometricPrecision" shape-rendering="geometricPrecision">
        <path d="M0 0 L150 0 L150 66 L0 66 L0 0 ZM1 1 L149 1 L149 65 L1 65 L1 1 Z" fill-rule="evenodd" clip-path="url(#clipPath6)" stroke="none"/>
      </g>
    </g>
    <g visibility="hidden" id="tooltip.y.node.5" pointer-events="none">
      <g fill="rgb(255,255,225)" text-rendering="geometricPrecision" shape-rendering="geometricPrecision" font-family="'Segoe UI'" stroke="rgb(255,255,225)">
        <rect x="0" width="158" height="66" y="0" clip-path="url(#clipPath7)" stroke="none"/>
        <text fill="black" x="4" xml:space="preserve" y="14" clip-path="url(#clipPath7)" stroke="none">Description: Quotation Lines</text>
        <text fill="black" x="154" xml:space="preserve" y="14" clip-path="url(#clipPath7)" stroke="none"> </text>
        <text fill="black" x="4" xml:space="preserve" y="30" clip-path="url(#clipPath7)" stroke="none">Data Category: Transaction</text>
        <text fill="black" x="146" xml:space="preserve" y="30" clip-path="url(#clipPath7)" stroke="none"> </text>
        <text fill="black" x="4" xml:space="preserve" y="46" clip-path="url(#clipPath7)" stroke="none">Group: CRM</text>
        <text fill="black" x="69" xml:space="preserve" y="46" clip-path="url(#clipPath7)" stroke="none"> </text>
        <text fill="black" x="4" xml:space="preserve" y="62" clip-path="url(#clipPath7)" stroke="none">Partition: Y</text>
      </g>
      <g font-family="'Segoe UI'" text-rendering="geometricPrecision" shape-rendering="geometricPrecision">
        <path d="M0 0 L158 0 L158 66 L0 66 L0 0 ZM1 1 L157 1 L157 65 L1 65 L1 1 Z" fill-rule="evenodd" clip-path="url(#clipPath7)" stroke="none"/>
      </g>
    </g>
    <g visibility="hidden" id="tooltip.y.node.6" pointer-events="none">
      <g fill="rgb(255,255,225)" text-rendering="geometricPrecision" shape-rendering="geometricPrecision" font-family="'Segoe UI'" stroke="rgb(255,255,225)">
        <rect x="0" width="254" height="66" y="0" clip-path="url(#clipPath8)" stroke="none"/>
        <text fill="black" x="4" xml:space="preserve" y="14" clip-path="url(#clipPath8)" stroke="none">Description: Opportunity Contacts (Read-only)</text>
        <text fill="black" x="250" xml:space="preserve" y="14" clip-path="url(#clipPath8)" stroke="none"> </text>
        <text fill="black" x="4" xml:space="preserve" y="30" clip-path="url(#clipPath8)" stroke="none">Data Category: Transaction</text>
        <text fill="black" x="146" xml:space="preserve" y="30" clip-path="url(#clipPath8)" stroke="none"> </text>
        <text fill="black" x="4" xml:space="preserve" y="46" clip-path="url(#clipPath8)" stroke="none">Group: CRM</text>
        <text fill="black" x="69" xml:space="preserve" y="46" clip-path="url(#clipPath8)" stroke="none"> </text>
        <text fill="black" x="4" xml:space="preserve" y="62" clip-path="url(#clipPath8)" stroke="none">Partition: Y</text>
      </g>
      <g font-family="'Segoe UI'" text-rendering="geometricPrecision" shape-rendering="geometricPrecision">
        <path d="M0 0 L254 0 L254 66 L0 66 L0 0 ZM1 1 L253 1 L253 65 L1 65 L1 1 Z" fill-rule="evenodd" clip-path="url(#clipPath8)" stroke="none"/>
      </g>
    </g>
    <g visibility="hidden" id="tooltip.y.node.7" pointer-events="none">
      <g fill="rgb(255,255,225)" text-rendering="geometricPrecision" shape-rendering="geometricPrecision" font-family="'Segoe UI'" stroke="rgb(255,255,225)">
        <rect x="0" width="150" height="66" y="0" clip-path="url(#clipPath6)" stroke="none"/>
        <text fill="black" x="4" xml:space="preserve" y="14" clip-path="url(#clipPath6)" stroke="none">Description: Opportunities</text>
        <text fill="black" x="143" xml:space="preserve" y="14" clip-path="url(#clipPath6)" stroke="none"> </text>
        <text fill="black" x="4" xml:space="preserve" y="30" clip-path="url(#clipPath6)" stroke="none">Data Category: Transaction</text>
        <text fill="black" x="146" xml:space="preserve" y="30" clip-path="url(#clipPath6)" stroke="none"> </text>
        <text fill="black" x="4" xml:space="preserve" y="46" clip-path="url(#clipPath6)" stroke="none">Group: CRM</text>
        <text fill="black" x="69" xml:space="preserve" y="46" clip-path="url(#clipPath6)" stroke="none"> </text>
        <text fill="black" x="4" xml:space="preserve" y="62" clip-path="url(#clipPath6)" stroke="none">Partition: Y</text>
      </g>
      <g font-family="'Segoe UI'" text-rendering="geometricPrecision" shape-rendering="geometricPrecision">
        <path d="M0 0 L150 0 L150 66 L0 66 L0 0 ZM1 1 L149 1 L149 65 L1 65 L1 1 Z" fill-rule="evenodd" clip-path="url(#clipPath6)" stroke="none"/>
      </g>
    </g>
    <g visibility="hidden" id="tooltip.y.node.8" pointer-events="none">
      <g fill="rgb(255,255,225)" text-rendering="geometricPrecision" shape-rendering="geometricPrecision" font-family="'Segoe UI'" stroke="rgb(255,255,225)">
        <rect x="0" width="150" height="66" y="0" clip-path="url(#clipPath6)" stroke="none"/>
        <text fill="black" x="4" xml:space="preserve" y="14" clip-path="url(#clipPath6)" stroke="none">Description: Attachment</text>
        <text fill="black" x="133" xml:space="preserve" y="14" clip-path="url(#clipPath6)" stroke="none"> </text>
        <text fill="black" x="4" xml:space="preserve" y="30" clip-path="url(#clipPath6)" stroke="none">Data Category: Transaction</text>
        <text fill="black" x="146" xml:space="preserve" y="30" clip-path="url(#clipPath6)" stroke="none"> </text>
        <text fill="black" x="4" xml:space="preserve" y="46" clip-path="url(#clipPath6)" stroke="none">Group: CRM</text>
        <text fill="black" x="69" xml:space="preserve" y="46" clip-path="url(#clipPath6)" stroke="none"> </text>
        <text fill="black" x="4" xml:space="preserve" y="62" clip-path="url(#clipPath6)" stroke="none">Partition: Y</text>
      </g>
      <g font-family="'Segoe UI'" text-rendering="geometricPrecision" shape-rendering="geometricPrecision">
        <path d="M0 0 L150 0 L150 66 L0 66 L0 0 ZM1 1 L149 1 L149 65 L1 65 L1 1 Z" fill-rule="evenodd" clip-path="url(#clipPath6)" stroke="none"/>
      </g>
    </g>
    <g visibility="hidden" id="tooltip.y.node.9" pointer-events="none">
      <g fill="rgb(255,255,225)" text-rendering="geometricPrecision" shape-rendering="geometricPrecision" font-family="'Segoe UI'" stroke="rgb(255,255,225)">
        <rect x="0" width="164" height="66" y="0" clip-path="url(#clipPath9)" stroke="none"/>
        <text fill="black" x="4" xml:space="preserve" y="14" clip-path="url(#clipPath9)" stroke="none">Description: CRM Documents</text>
        <text fill="black" x="160" xml:space="preserve" y="14" clip-path="url(#clipPath9)" stroke="none"> </text>
        <text fill="black" x="4" xml:space="preserve" y="30" clip-path="url(#clipPath9)" stroke="none">Data Category: Transaction</text>
        <text fill="black" x="146" xml:space="preserve" y="30" clip-path="url(#clipPath9)" stroke="none"> </text>
        <text fill="black" x="4" xml:space="preserve" y="46" clip-path="url(#clipPath9)" stroke="none">Group: CRM</text>
        <text fill="black" x="69" xml:space="preserve" y="46" clip-path="url(#clipPath9)" stroke="none"> </text>
        <text fill="black" x="4" xml:space="preserve" y="62" clip-path="url(#clipPath9)" stroke="none">Partition: Y</text>
      </g>
      <g font-family="'Segoe UI'" text-rendering="geometricPrecision" shape-rendering="geometricPrecision">
        <path d="M0 0 L164 0 L164 66 L0 66 L0 0 ZM1 1 L163 1 L163 65 L1 65 L1 1 Z" fill-rule="evenodd" clip-path="url(#clipPath9)" stroke="none"/>
      </g>
    </g>
    <g visibility="hidden" id="tooltip.y.node.10" pointer-events="none">
      <g fill="rgb(255,255,225)" text-rendering="geometricPrecision" shape-rendering="geometricPrecision" font-family="'Segoe UI'" stroke="rgb(255,255,225)">
        <rect x="0" width="143" height="66" y="0" clip-path="url(#clipPath10)" stroke="none"/>
        <text fill="black" x="4" xml:space="preserve" y="14" clip-path="url(#clipPath10)" stroke="none">Description: System Users</text>
        <text fill="black" x="139" xml:space="preserve" y="14" clip-path="url(#clipPath10)" stroke="none"> </text>
        <text fill="black" x="4" xml:space="preserve" y="30" clip-path="url(#clipPath10)" stroke="none">Data Category: Reference</text>
        <text fill="black" x="137" xml:space="preserve" y="30" clip-path="url(#clipPath10)" stroke="none"> </text>
        <text fill="black" x="4" xml:space="preserve" y="46" clip-path="url(#clipPath10)" stroke="none">Group: System</text>
        <text fill="black" x="81" xml:space="preserve" y="46" clip-path="url(#clipPath10)" stroke="none"> </text>
        <text fill="black" x="4" xml:space="preserve" y="62" clip-path="url(#clipPath10)" stroke="none">Partition: Y</text>
      </g>
      <g font-family="'Segoe UI'" text-rendering="geometricPrecision" shape-rendering="geometricPrecision">
        <path d="M0 0 L143 0 L143 66 L0 66 L0 0 ZM1 1 L142 1 L142 65 L1 65 L1 1 Z" fill-rule="evenodd" clip-path="url(#clipPath10)" stroke="none"/>
      </g>
    </g>
    <g visibility="hidden" id="tooltip.y.node.11" pointer-events="none">
      <g fill="rgb(255,255,225)" text-rendering="geometricPrecision" shape-rendering="geometricPrecision" font-family="'Segoe UI'" stroke="rgb(255,255,225)">
        <rect x="0" width="150" height="66" y="0" clip-path="url(#clipPath6)" stroke="none"/>
        <text fill="black" x="4" xml:space="preserve" y="14" clip-path="url(#clipPath6)" stroke="none">Description: Documents</text>
        <text fill="black" x="131" xml:space="preserve" y="14" clip-path="url(#clipPath6)" stroke="none"> </text>
        <text fill="black" x="4" xml:space="preserve" y="30" clip-path="url(#clipPath6)" stroke="none">Data Category: Transaction</text>
        <text fill="black" x="146" xml:space="preserve" y="30" clip-path="url(#clipPath6)" stroke="none"> </text>
        <text fill="black" x="4" xml:space="preserve" y="46" clip-path="url(#clipPath6)" stroke="none">Group: Documents</text>
        <text fill="black" x="104" xml:space="preserve" y="46" clip-path="url(#clipPath6)" stroke="none"> </text>
        <text fill="black" x="4" xml:space="preserve" y="62" clip-path="url(#clipPath6)" stroke="none">Partition: Y</text>
      </g>
      <g font-family="'Segoe UI'" text-rendering="geometricPrecision" shape-rendering="geometricPrecision">
        <path d="M0 0 L150 0 L150 66 L0 66 L0 0 ZM1 1 L149 1 L149 65 L1 65 L1 1 Z" fill-rule="evenodd" clip-path="url(#clipPath6)" stroke="none"/>
      </g>
    </g>
    <g visibility="hidden" id="tooltip.y.node.12" pointer-events="none">
      <g fill="rgb(255,255,225)" text-rendering="geometricPrecision" shape-rendering="geometricPrecision" font-family="'Segoe UI'" stroke="rgb(255,255,225)">
        <rect x="0" width="150" height="66" y="0" clip-path="url(#clipPath6)" stroke="none"/>
        <text fill="black" x="4" xml:space="preserve" y="14" clip-path="url(#clipPath6)" stroke="none">Description: Projects</text>
        <text fill="black" x="112" xml:space="preserve" y="14" clip-path="url(#clipPath6)" stroke="none"> </text>
        <text fill="black" x="4" xml:space="preserve" y="30" clip-path="url(#clipPath6)" stroke="none">Data Category: Transaction</text>
        <text fill="black" x="146" xml:space="preserve" y="30" clip-path="url(#clipPath6)" stroke="none"> </text>
        <text fill="black" x="4" xml:space="preserve" y="46" clip-path="url(#clipPath6)" stroke="none">Group: Project</text>
        <text fill="black" x="80" xml:space="preserve" y="46" clip-path="url(#clipPath6)" stroke="none"> </text>
        <text fill="black" x="4" xml:space="preserve" y="62" clip-path="url(#clipPath6)" stroke="none">Partition: Y</text>
      </g>
      <g font-family="'Segoe UI'" text-rendering="geometricPrecision" shape-rendering="geometricPrecision">
        <path d="M0 0 L150 0 L150 66 L0 66 L0 0 ZM1 1 L149 1 L149 65 L1 65 L1 1 Z" fill-rule="evenodd" clip-path="url(#clipPath6)" stroke="none"/>
      </g>
    </g>
    <g visibility="hidden" id="tooltip.y.node.13" pointer-events="none">
      <g fill="rgb(255,255,225)" text-rendering="geometricPrecision" shape-rendering="geometricPrecision" font-family="'Segoe UI'" stroke="rgb(255,255,225)">
        <rect x="0" width="150" height="66" y="0" clip-path="url(#clipPath6)" stroke="none"/>
        <text fill="black" x="4" xml:space="preserve" y="14" clip-path="url(#clipPath6)" stroke="none">Description: Contacts</text>
        <text fill="black" x="117" xml:space="preserve" y="14" clip-path="url(#clipPath6)" stroke="none"> </text>
        <text fill="black" x="4" xml:space="preserve" y="30" clip-path="url(#clipPath6)" stroke="none">Data Category: Transaction</text>
        <text fill="black" x="146" xml:space="preserve" y="30" clip-path="url(#clipPath6)" stroke="none"> </text>
        <text fill="black" x="4" xml:space="preserve" y="46" clip-path="url(#clipPath6)" stroke="none">Group: Accounts</text>
        <text fill="black" x="93" xml:space="preserve" y="46" clip-path="url(#clipPath6)" stroke="none"> </text>
        <text fill="black" x="4" xml:space="preserve" y="62" clip-path="url(#clipPath6)" stroke="none">Partition: Y</text>
      </g>
      <g font-family="'Segoe UI'" text-rendering="geometricPrecision" shape-rendering="geometricPrecision">
        <path d="M0 0 L150 0 L150 66 L0 66 L0 0 ZM1 1 L149 1 L149 65 L1 65 L1 1 Z" fill-rule="evenodd" clip-path="url(#clipPath6)" stroke="none"/>
      </g>
    </g>
    <g visibility="hidden" id="tooltip.y.node.14" pointer-events="none">
      <g fill="rgb(255,255,225)" text-rendering="geometricPrecision" shape-rendering="geometricPrecision" font-family="'Segoe UI'" stroke="rgb(255,255,225)">
        <rect x="0" width="150" height="66" y="0" clip-path="url(#clipPath6)" stroke="none"/>
        <text fill="black" x="4" xml:space="preserve" y="14" clip-path="url(#clipPath6)" stroke="none">Description: Addresses</text>
        <text fill="black" x="123" xml:space="preserve" y="14" clip-path="url(#clipPath6)" stroke="none"> </text>
        <text fill="black" x="4" xml:space="preserve" y="30" clip-path="url(#clipPath6)" stroke="none">Data Category: Transaction</text>
        <text fill="black" x="146" xml:space="preserve" y="30" clip-path="url(#clipPath6)" stroke="none"> </text>
        <text fill="black" x="4" xml:space="preserve" y="46" clip-path="url(#clipPath6)" stroke="none">Group: Accounts</text>
        <text fill="black" x="93" xml:space="preserve" y="46" clip-path="url(#clipPath6)" stroke="none"> </text>
        <text fill="black" x="4" xml:space="preserve" y="62" clip-path="url(#clipPath6)" stroke="none">Partition: Y</text>
      </g>
      <g font-family="'Segoe UI'" text-rendering="geometricPrecision" shape-rendering="geometricPrecision">
        <path d="M0 0 L150 0 L150 66 L0 66 L0 0 ZM1 1 L149 1 L149 65 L1 65 L1 1 Z" fill-rule="evenodd" clip-path="url(#clipPath6)" stroke="none"/>
      </g>
    </g>
    <g visibility="hidden" id="tooltip.y.node.15" pointer-events="none">
      <g fill="rgb(255,255,225)" text-rendering="geometricPrecision" shape-rendering="geometricPrecision" font-family="'Segoe UI'" stroke="rgb(255,255,225)">
        <rect x="0" width="150" height="66" y="0" clip-path="url(#clipPath6)" stroke="none"/>
        <text fill="black" x="4" xml:space="preserve" y="14" clip-path="url(#clipPath6)" stroke="none">Description: Accounts</text>
        <text fill="black" x="120" xml:space="preserve" y="14" clip-path="url(#clipPath6)" stroke="none"> </text>
        <text fill="black" x="4" xml:space="preserve" y="30" clip-path="url(#clipPath6)" stroke="none">Data Category: Transaction</text>
        <text fill="black" x="146" xml:space="preserve" y="30" clip-path="url(#clipPath6)" stroke="none"> </text>
        <text fill="black" x="4" xml:space="preserve" y="46" clip-path="url(#clipPath6)" stroke="none">Group: Accounts</text>
        <text fill="black" x="93" xml:space="preserve" y="46" clip-path="url(#clipPath6)" stroke="none"> </text>
        <text fill="black" x="4" xml:space="preserve" y="62" clip-path="url(#clipPath6)" stroke="none">Partition: Y</text>
      </g>
      <g font-family="'Segoe UI'" text-rendering="geometricPrecision" shape-rendering="geometricPrecision">
        <path d="M0 0 L150 0 L150 66 L0 66 L0 0 ZM1 1 L149 1 L149 65 L1 65 L1 1 Z" fill-rule="evenodd" clip-path="url(#clipPath6)" stroke="none"/>
      </g>
    </g>
    <g visibility="hidden" id="tooltip.y.node.16" pointer-events="none">
      <g fill="rgb(255,255,225)" text-rendering="geometricPrecision" shape-rendering="geometricPrecision" font-family="'Segoe UI'" stroke="rgb(255,255,225)">
        <rect x="0" width="141" height="66" y="0" clip-path="url(#clipPath11)" stroke="none"/>
        <text fill="black" x="4" xml:space="preserve" y="14" clip-path="url(#clipPath11)" stroke="none">Description: VAT Codes</text>
        <text fill="black" x="127" xml:space="preserve" y="14" clip-path="url(#clipPath11)" stroke="none"> </text>
        <text fill="black" x="4" xml:space="preserve" y="30" clip-path="url(#clipPath11)" stroke="none">Data Category: Reference</text>
        <text fill="black" x="137" xml:space="preserve" y="30" clip-path="url(#clipPath11)" stroke="none"> </text>
        <text fill="black" x="4" xml:space="preserve" y="46" clip-path="url(#clipPath11)" stroke="none">Group: VAT</text>
        <text fill="black" x="64" xml:space="preserve" y="46" clip-path="url(#clipPath11)" stroke="none"> </text>
        <text fill="black" x="4" xml:space="preserve" y="62" clip-path="url(#clipPath11)" stroke="none">Partition: Y</text>
      </g>
      <g font-family="'Segoe UI'" text-rendering="geometricPrecision" shape-rendering="geometricPrecision">
        <path d="M0 0 L141 0 L141 66 L0 66 L0 0 ZM1 1 L140 1 L140 65 L1 65 L1 1 Z" fill-rule="evenodd" clip-path="url(#clipPath11)" stroke="none"/>
      </g>
    </g>
    <g visibility="hidden" id="tooltip.y.node.17" pointer-events="none">
      <g fill="rgb(255,255,225)" text-rendering="geometricPrecision" shape-rendering="geometricPrecision" font-family="'Segoe UI'" stroke="rgb(255,255,225)">
        <rect x="0" width="150" height="66" y="0" clip-path="url(#clipPath6)" stroke="none"/>
        <text fill="black" x="4" xml:space="preserve" y="14" clip-path="url(#clipPath6)" stroke="none">Description: Units</text>
        <text fill="black" x="97" xml:space="preserve" y="14" clip-path="url(#clipPath6)" stroke="none"> </text>
        <text fill="black" x="4" xml:space="preserve" y="30" clip-path="url(#clipPath6)" stroke="none">Data Category: Transaction</text>
        <text fill="black" x="146" xml:space="preserve" y="30" clip-path="url(#clipPath6)" stroke="none"> </text>
        <text fill="black" x="4" xml:space="preserve" y="46" clip-path="url(#clipPath6)" stroke="none">Group: Logistics</text>
        <text fill="black" x="89" xml:space="preserve" y="46" clip-path="url(#clipPath6)" stroke="none"> </text>
        <text fill="black" x="4" xml:space="preserve" y="62" clip-path="url(#clipPath6)" stroke="none">Partition: Y</text>
      </g>
      <g font-family="'Segoe UI'" text-rendering="geometricPrecision" shape-rendering="geometricPrecision">
        <path d="M0 0 L150 0 L150 66 L0 66 L0 0 ZM1 1 L149 1 L149 65 L1 65 L1 1 Z" fill-rule="evenodd" clip-path="url(#clipPath6)" stroke="none"/>
      </g>
    </g>
    <g visibility="hidden" id="tooltip.y.node.18" pointer-events="none">
      <g fill="rgb(255,255,225)" text-rendering="geometricPrecision" shape-rendering="geometricPrecision" font-family="'Segoe UI'" stroke="rgb(255,255,225)">
        <rect x="0" width="150" height="66" y="0" clip-path="url(#clipPath6)" stroke="none"/>
        <text fill="black" x="4" xml:space="preserve" y="14" clip-path="url(#clipPath6)" stroke="none">Description: Item</text>
        <text fill="black" x="94" xml:space="preserve" y="14" clip-path="url(#clipPath6)" stroke="none"> </text>
        <text fill="black" x="4" xml:space="preserve" y="30" clip-path="url(#clipPath6)" stroke="none">Data Category: Transaction</text>
        <text fill="black" x="146" xml:space="preserve" y="30" clip-path="url(#clipPath6)" stroke="none"> </text>
        <text fill="black" x="4" xml:space="preserve" y="46" clip-path="url(#clipPath6)" stroke="none">Group: Logistics</text>
        <text fill="black" x="89" xml:space="preserve" y="46" clip-path="url(#clipPath6)" stroke="none"> </text>
        <text fill="black" x="4" xml:space="preserve" y="62" clip-path="url(#clipPath6)" stroke="none">Partition: Y</text>
      </g>
      <g font-family="'Segoe UI'" text-rendering="geometricPrecision" shape-rendering="geometricPrecision">
        <path d="M0 0 L150 0 L150 66 L0 66 L0 0 ZM1 1 L149 1 L149 65 L1 65 L1 1 Z" fill-rule="evenodd" clip-path="url(#clipPath6)" stroke="none"/>
      </g>
    </g>
    <g visibility="hidden" id="tooltip.y.node.19" pointer-events="none">
      <g fill="rgb(255,255,225)" text-rendering="geometricPrecision" shape-rendering="geometricPrecision" font-family="'Segoe UI'" stroke="rgb(255,255,225)">
        <rect x="0" width="171" height="66" y="0" clip-path="url(#clipPath12)" stroke="none"/>
        <text fill="black" x="4" xml:space="preserve" y="14" clip-path="url(#clipPath12)" stroke="none">Description: Document Folders</text>
        <text fill="black" x="167" xml:space="preserve" y="14" clip-path="url(#clipPath12)" stroke="none"> </text>
        <text fill="black" x="4" xml:space="preserve" y="30" clip-path="url(#clipPath12)" stroke="none">Data Category: Reference</text>
        <text fill="black" x="137" xml:space="preserve" y="30" clip-path="url(#clipPath12)" stroke="none"> </text>
        <text fill="black" x="4" xml:space="preserve" y="46" clip-path="url(#clipPath12)" stroke="none">Group: Documents</text>
        <text fill="black" x="104" xml:space="preserve" y="46" clip-path="url(#clipPath12)" stroke="none"> </text>
        <text fill="black" x="4" xml:space="preserve" y="62" clip-path="url(#clipPath12)" stroke="none">Partition: Y</text>
      </g>
      <g font-family="'Segoe UI'" text-rendering="geometricPrecision" shape-rendering="geometricPrecision">
        <path d="M0 0 L171 0 L171 66 L0 66 L0 0 ZM1 1 L170 1 L170 65 L1 65 L1 1 Z" fill-rule="evenodd" clip-path="url(#clipPath12)" stroke="none"/>
      </g>
    </g>
  </g>
</svg>
